(kicad_sch (version 20211123) (generator eeschema)

  (uuid 291e4200-f3c9-4b61-8158-17e8c4424a24)

  (paper "A4")

  (lib_symbols
    (symbol "Device:R_US" (pin_numbers hide) (pin_names (offset 0)) (in_bom yes) (on_board yes)
      (property "Reference" "R" (id 0) (at 2.54 0 90)
        (effects (font (size 1.27 1.27)))
      )
      (property "Value" "R_US" (id 1) (at -2.54 0 90)
        (effects (font (size 1.27 1.27)))
      )
      (property "Footprint" "" (id 2) (at 1.016 -0.254 90)
        (effects (font (size 1.27 1.27)) hide)
      )
      (property "Datasheet" "~" (id 3) (at 0 0 0)
        (effects (font (size 1.27 1.27)) hide)
      )
      (property "ki_keywords" "R res resistor" (id 4) (at 0 0 0)
        (effects (font (size 1.27 1.27)) hide)
      )
      (property "ki_description" "Resistor, US symbol" (id 5) (at 0 0 0)
        (effects (font (size 1.27 1.27)) hide)
      )
      (property "ki_fp_filters" "R_*" (id 6) (at 0 0 0)
        (effects (font (size 1.27 1.27)) hide)
      )
      (symbol "R_US_0_1"
        (polyline
          (pts
            (xy 0 -2.286)
            (xy 0 -2.54)
          )
          (stroke (width 0) (type default) (color 0 0 0 0))
          (fill (type none))
        )
        (polyline
          (pts
            (xy 0 2.286)
            (xy 0 2.54)
          )
          (stroke (width 0) (type default) (color 0 0 0 0))
          (fill (type none))
        )
        (polyline
          (pts
            (xy 0 -0.762)
            (xy 1.016 -1.143)
            (xy 0 -1.524)
            (xy -1.016 -1.905)
            (xy 0 -2.286)
          )
          (stroke (width 0) (type default) (color 0 0 0 0))
          (fill (type none))
        )
        (polyline
          (pts
            (xy 0 0.762)
            (xy 1.016 0.381)
            (xy 0 0)
            (xy -1.016 -0.381)
            (xy 0 -0.762)
          )
          (stroke (width 0) (type default) (color 0 0 0 0))
          (fill (type none))
        )
        (polyline
          (pts
            (xy 0 2.286)
            (xy 1.016 1.905)
            (xy 0 1.524)
            (xy -1.016 1.143)
            (xy 0 0.762)
          )
          (stroke (width 0) (type default) (color 0 0 0 0))
          (fill (type none))
        )
      )
      (symbol "R_US_1_1"
        (pin passive line (at 0 3.81 270) (length 1.27)
          (name "~" (effects (font (size 1.27 1.27))))
          (number "1" (effects (font (size 1.27 1.27))))
        )
        (pin passive line (at 0 -3.81 90) (length 1.27)
          (name "~" (effects (font (size 1.27 1.27))))
          (number "2" (effects (font (size 1.27 1.27))))
        )
      )
    )
    (symbol "power:GND" (power) (pin_names (offset 0)) (in_bom yes) (on_board yes)
      (property "Reference" "#PWR" (id 0) (at 0 -6.35 0)
        (effects (font (size 1.27 1.27)) hide)
      )
      (property "Value" "GND" (id 1) (at 0 -3.81 0)
        (effects (font (size 1.27 1.27)))
      )
      (property "Footprint" "" (id 2) (at 0 0 0)
        (effects (font (size 1.27 1.27)) hide)
      )
      (property "Datasheet" "" (id 3) (at 0 0 0)
        (effects (font (size 1.27 1.27)) hide)
      )
      (property "ki_keywords" "power-flag" (id 4) (at 0 0 0)
        (effects (font (size 1.27 1.27)) hide)
      )
      (property "ki_description" "Power symbol creates a global label with name \"GND\" , ground" (id 5) (at 0 0 0)
        (effects (font (size 1.27 1.27)) hide)
      )
      (symbol "GND_0_1"
        (polyline
          (pts
            (xy 0 0)
            (xy 0 -1.27)
            (xy 1.27 -1.27)
            (xy 0 -2.54)
            (xy -1.27 -1.27)
            (xy 0 -1.27)
          )
          (stroke (width 0) (type default) (color 0 0 0 0))
          (fill (type none))
        )
      )
      (symbol "GND_1_1"
        (pin power_in line (at 0 0 270) (length 0) hide
          (name "GND" (effects (font (size 1.27 1.27))))
          (number "1" (effects (font (size 1.27 1.27))))
        )
      )
    )
    (symbol "roket-rescue:SMI-1027-T-5V-R-SMI-1027-T-5V-R" (pin_numbers hide) (pin_names (offset 1.016) hide) (in_bom yes) (on_board yes)
      (property "Reference" "LS" (id 0) (at -3.81 8.9154 0)
        (effects (font (size 1.27 1.27)) (justify left bottom))
      )
      (property "Value" "SMI-1027-T-5V-R-SMI-1027-T-5V-R" (id 1) (at -3.81 -11.4554 0)
        (effects (font (size 1.27 1.27)) (justify left bottom))
      )
      (property "Footprint" "CUI_CMI-9651S-SMT" (id 2) (at 0 0 0)
        (effects (font (size 1.27 1.27)) (justify left bottom) hide)
      )
      (property "Datasheet" "" (id 3) (at 0 0 0)
        (effects (font (size 1.27 1.27)) (justify left bottom) hide)
      )
      (property "MANUFACTURER" "CUI INC" (id 4) (at 0 0 0)
        (effects (font (size 1.27 1.27)) (justify left bottom) hide)
      )
      (property "PARTREV" "1.0" (id 5) (at 0 0 0)
        (effects (font (size 1.27 1.27)) (justify left bottom) hide)
      )
      (property "STANDARD" "Manufacturer recommendations" (id 6) (at 0 0 0)
        (effects (font (size 1.27 1.27)) (justify left bottom) hide)
      )
      (property "ki_locked" "" (id 7) (at 0 0 0)
        (effects (font (size 1.27 1.27)))
      )
      (symbol "SMI-1027-T-5V-R-SMI-1027-T-5V-R_0_0"
        (polyline
          (pts
            (xy -0.635 -1.27)
            (xy -0.635 1.27)
          )
          (stroke (width 0.254) (type default) (color 0 0 0 0))
          (fill (type none))
        )
        (polyline
          (pts
            (xy -0.635 1.27)
            (xy 0 1.27)
          )
          (stroke (width 0.254) (type default) (color 0 0 0 0))
          (fill (type none))
        )
        (polyline
          (pts
            (xy 0 -1.27)
            (xy -0.635 -1.27)
          )
          (stroke (width 0.254) (type default) (color 0 0 0 0))
          (fill (type none))
        )
        (polyline
          (pts
            (xy 0 -1.27)
            (xy 0 -2.54)
          )
          (stroke (width 0.254) (type default) (color 0 0 0 0))
          (fill (type none))
        )
        (polyline
          (pts
            (xy 0 1.27)
            (xy 0 2.54)
          )
          (stroke (width 0.254) (type default) (color 0 0 0 0))
          (fill (type none))
        )
        (polyline
          (pts
            (xy 0 1.27)
            (xy 0.635 1.27)
          )
          (stroke (width 0.254) (type default) (color 0 0 0 0))
          (fill (type none))
        )
        (polyline
          (pts
            (xy 0.635 -1.27)
            (xy 0 -1.27)
          )
          (stroke (width 0.254) (type default) (color 0 0 0 0))
          (fill (type none))
        )
        (polyline
          (pts
            (xy 0.635 1.27)
            (xy 0.635 -1.27)
          )
          (stroke (width 0.254) (type default) (color 0 0 0 0))
          (fill (type none))
        )
        (polyline
          (pts
            (xy 0.635 1.27)
            (xy 1.905 3.175)
          )
          (stroke (width 0.254) (type default) (color 0 0 0 0))
          (fill (type none))
        )
        (polyline
          (pts
            (xy 1.905 -3.175)
            (xy 0.635 -1.27)
          )
          (stroke (width 0.254) (type default) (color 0 0 0 0))
          (fill (type none))
        )
        (polyline
          (pts
            (xy 1.905 3.175)
            (xy 1.905 -3.175)
          )
          (stroke (width 0.254) (type default) (color 0 0 0 0))
          (fill (type none))
        )
        (text "+" (at -1.905 1.27 0)
          (effects (font (size 1.778 1.778)) (justify left bottom))
        )
        (pin passive line (at 0 -5.08 90) (length 2.54)
          (name "~" (effects (font (size 1.016 1.016))))
          (number "N" (effects (font (size 1.016 1.016))))
        )
        (pin passive line (at 0 5.08 270) (length 2.54)
          (name "~" (effects (font (size 1.016 1.016))))
          (number "P" (effects (font (size 1.016 1.016))))
        )
      )
    )
  )


  (wire (pts (xy 135.89 88.9) (xy 135.89 93.98))
    (stroke (width 0) (type default) (color 0 0 0 0))
    (uuid 5e27f565-c85a-4f3b-9862-58c0accdd5e3)
  )
  (wire (pts (xy 134.62 88.9) (xy 135.89 88.9))
    (stroke (width 0) (type default) (color 0 0 0 0))
    (uuid 9050328c-80d1-449f-94a8-27658961ba9d)
  )
  (wire (pts (xy 135.89 104.14) (xy 135.89 107.95))
    (stroke (width 0) (type default) (color 0 0 0 0))
    (uuid 99c0b885-9395-4eaa-a204-8d7dea094883)
  )
  (wire (pts (xy 121.92 88.9) (xy 127 88.9))
    (stroke (width 0) (type default) (color 0 0 0 0))
    (uuid d0060422-f68b-4ffa-bca8-6f70dc4f862d)
  )

  (hierarchical_label "Buzzer" (shape input) (at 121.92 88.9 180)
    (effects (font (size 1.27 1.27)) (justify right))
    (uuid 1a1da3ab-0792-420a-a2dd-c670f9cd52e8)
  )

  (symbol (lib_id "roket-rescue:SMI-1027-T-5V-R-SMI-1027-T-5V-R") (at 135.89 99.06 180) (unit 1)
    (in_bom yes) (on_board yes)
    (uuid 00000000-0000-0000-0000-00006097f8e8)
    (property "Reference" "LS1" (id 0) (at 133.223 100.2284 0)
      (effects (font (size 1.27 1.27)) (justify left))
    )
    (property "Value" "SMI-1027-T-5V-R" (id 1) (at 133.223 97.917 0)
      (effects (font (size 1.27 1.27)) (justify left))
    )
    (property "Footprint" "others:SMI-1027-T-5V-R" (id 2) (at 135.89 99.06 0)
      (effects (font (size 1.27 1.27)) (justify left bottom) hide)
    )
    (property "Datasheet" "" (id 3) (at 135.89 99.06 0)
      (effects (font (size 1.27 1.27)) (justify left bottom) hide)
    )
    (property "MANUFACTURER" "CUI INC" (id 4) (at 135.89 99.06 0)
      (effects (font (size 1.27 1.27)) (justify left bottom) hide)
    )
    (property "PARTREV" "1.0" (id 5) (at 135.89 99.06 0)
      (effects (font (size 1.27 1.27)) (justify left bottom) hide)
    )
    (property "STANDARD" "Manufacturer recommendations" (id 6) (at 135.89 99.06 0)
      (effects (font (size 1.27 1.27)) (justify left bottom) hide)
    )
    (pin "N" (uuid 0e5c5399-6d6e-4d8d-aa3c-19212b8644ba))
    (pin "P" (uuid 3b884917-4af8-4e1f-9643-09acd9776746))
  )

  (symbol (lib_id "power:GND") (at 135.89 107.95 0) (unit 1)
    (in_bom yes) (on_board yes)
    (uuid 00000000-0000-0000-0000-000060982608)
    (property "Reference" "#PWR01" (id 0) (at 135.89 114.3 0)
      (effects (font (size 1.27 1.27)) hide)
    )
    (property "Value" "GND" (id 1) (at 136.017 112.3442 0))
    (property "Footprint" "" (id 2) (at 135.89 107.95 0)
      (effects (font (size 1.27 1.27)) hide)
    )
    (property "Datasheet" "" (id 3) (at 135.89 107.95 0)
      (effects (font (size 1.27 1.27)) hide)
    )
    (pin "1" (uuid 64f47ae4-bf36-4413-ae6b-9a7d3a1e59da))
  )

  (symbol (lib_id "Device:R_US") (at 130.81 88.9 90) (unit 1)
    (in_bom yes) (on_board yes)
    (uuid 00000000-0000-0000-0000-00006098260e)
    (property "Reference" "R1" (id 0) (at 129.6416 87.1728 90)
      (effects (font (size 1.27 1.27)) (justify left))
    )
    (property "Value" "100" (id 1) (at 131.953 87.1728 90)
      (effects (font (size 1.27 1.27)) (justify right))
    )
    (property "Footprint" "Resistor_SMD:R_0805_2012Metric" (id 2) (at 131.064 87.884 90)
      (effects (font (size 1.27 1.27)) hide)
    )
    (property "Datasheet" "~" (id 3) (at 130.81 88.9 0)
      (effects (font (size 1.27 1.27)) hide)
    )
    (pin "1" (uuid 04faa6f8-09d5-4a29-a760-46b6402b50f3))
    (pin "2" (uuid b599a67c-09cc-4c41-8156-5cddb3f88557))
  )
)
