(kicad_sch (version 20211123) (generator eeschema)

  (uuid 22c28634-55a5-4f76-9217-6b70ddd108b8)

  (paper "A4")

  (lib_symbols
    (symbol "Connector:Screw_Terminal_01x05" (pin_names (offset 1.016) hide) (in_bom yes) (on_board yes)
      (property "Reference" "J" (id 0) (at 0 7.62 0)
        (effects (font (size 1.27 1.27)))
      )
      (property "Value" "Screw_Terminal_01x05" (id 1) (at 0 -7.62 0)
        (effects (font (size 1.27 1.27)))
      )
      (property "Footprint" "" (id 2) (at 0 0 0)
        (effects (font (size 1.27 1.27)) hide)
      )
      (property "Datasheet" "~" (id 3) (at 0 0 0)
        (effects (font (size 1.27 1.27)) hide)
      )
      (property "ki_keywords" "screw terminal" (id 4) (at 0 0 0)
        (effects (font (size 1.27 1.27)) hide)
      )
      (property "ki_description" "Generic screw terminal, single row, 01x05, script generated (kicad-library-utils/schlib/autogen/connector/)" (id 5) (at 0 0 0)
        (effects (font (size 1.27 1.27)) hide)
      )
      (property "ki_fp_filters" "TerminalBlock*:*" (id 6) (at 0 0 0)
        (effects (font (size 1.27 1.27)) hide)
      )
      (symbol "Screw_Terminal_01x05_1_1"
        (rectangle (start -1.27 6.35) (end 1.27 -6.35)
          (stroke (width 0.254) (type default) (color 0 0 0 0))
          (fill (type background))
        )
        (circle (center 0 -5.08) (radius 0.635)
          (stroke (width 0.1524) (type default) (color 0 0 0 0))
          (fill (type none))
        )
        (circle (center 0 -2.54) (radius 0.635)
          (stroke (width 0.1524) (type default) (color 0 0 0 0))
          (fill (type none))
        )
        (polyline
          (pts
            (xy -0.5334 -4.7498)
            (xy 0.3302 -5.588)
          )
          (stroke (width 0.1524) (type default) (color 0 0 0 0))
          (fill (type none))
        )
        (polyline
          (pts
            (xy -0.5334 -2.2098)
            (xy 0.3302 -3.048)
          )
          (stroke (width 0.1524) (type default) (color 0 0 0 0))
          (fill (type none))
        )
        (polyline
          (pts
            (xy -0.5334 0.3302)
            (xy 0.3302 -0.508)
          )
          (stroke (width 0.1524) (type default) (color 0 0 0 0))
          (fill (type none))
        )
        (polyline
          (pts
            (xy -0.5334 2.8702)
            (xy 0.3302 2.032)
          )
          (stroke (width 0.1524) (type default) (color 0 0 0 0))
          (fill (type none))
        )
        (polyline
          (pts
            (xy -0.5334 5.4102)
            (xy 0.3302 4.572)
          )
          (stroke (width 0.1524) (type default) (color 0 0 0 0))
          (fill (type none))
        )
        (polyline
          (pts
            (xy -0.3556 -4.572)
            (xy 0.508 -5.4102)
          )
          (stroke (width 0.1524) (type default) (color 0 0 0 0))
          (fill (type none))
        )
        (polyline
          (pts
            (xy -0.3556 -2.032)
            (xy 0.508 -2.8702)
          )
          (stroke (width 0.1524) (type default) (color 0 0 0 0))
          (fill (type none))
        )
        (polyline
          (pts
            (xy -0.3556 0.508)
            (xy 0.508 -0.3302)
          )
          (stroke (width 0.1524) (type default) (color 0 0 0 0))
          (fill (type none))
        )
        (polyline
          (pts
            (xy -0.3556 3.048)
            (xy 0.508 2.2098)
          )
          (stroke (width 0.1524) (type default) (color 0 0 0 0))
          (fill (type none))
        )
        (polyline
          (pts
            (xy -0.3556 5.588)
            (xy 0.508 4.7498)
          )
          (stroke (width 0.1524) (type default) (color 0 0 0 0))
          (fill (type none))
        )
        (circle (center 0 0) (radius 0.635)
          (stroke (width 0.1524) (type default) (color 0 0 0 0))
          (fill (type none))
        )
        (circle (center 0 2.54) (radius 0.635)
          (stroke (width 0.1524) (type default) (color 0 0 0 0))
          (fill (type none))
        )
        (circle (center 0 5.08) (radius 0.635)
          (stroke (width 0.1524) (type default) (color 0 0 0 0))
          (fill (type none))
        )
        (pin passive line (at -5.08 5.08 0) (length 3.81)
          (name "Pin_1" (effects (font (size 1.27 1.27))))
          (number "1" (effects (font (size 1.27 1.27))))
        )
        (pin passive line (at -5.08 2.54 0) (length 3.81)
          (name "Pin_2" (effects (font (size 1.27 1.27))))
          (number "2" (effects (font (size 1.27 1.27))))
        )
        (pin passive line (at -5.08 0 0) (length 3.81)
          (name "Pin_3" (effects (font (size 1.27 1.27))))
          (number "3" (effects (font (size 1.27 1.27))))
        )
        (pin passive line (at -5.08 -2.54 0) (length 3.81)
          (name "Pin_4" (effects (font (size 1.27 1.27))))
          (number "4" (effects (font (size 1.27 1.27))))
        )
        (pin passive line (at -5.08 -5.08 0) (length 3.81)
          (name "Pin_5" (effects (font (size 1.27 1.27))))
          (number "5" (effects (font (size 1.27 1.27))))
        )
      )
    )
    (symbol "Device:R_US" (pin_numbers hide) (pin_names (offset 0)) (in_bom yes) (on_board yes)
      (property "Reference" "R" (id 0) (at 2.54 0 90)
        (effects (font (size 1.27 1.27)))
      )
      (property "Value" "R_US" (id 1) (at -2.54 0 90)
        (effects (font (size 1.27 1.27)))
      )
      (property "Footprint" "" (id 2) (at 1.016 -0.254 90)
        (effects (font (size 1.27 1.27)) hide)
      )
      (property "Datasheet" "~" (id 3) (at 0 0 0)
        (effects (font (size 1.27 1.27)) hide)
      )
      (property "ki_keywords" "R res resistor" (id 4) (at 0 0 0)
        (effects (font (size 1.27 1.27)) hide)
      )
      (property "ki_description" "Resistor, US symbol" (id 5) (at 0 0 0)
        (effects (font (size 1.27 1.27)) hide)
      )
      (property "ki_fp_filters" "R_*" (id 6) (at 0 0 0)
        (effects (font (size 1.27 1.27)) hide)
      )
      (symbol "R_US_0_1"
        (polyline
          (pts
            (xy 0 -2.286)
            (xy 0 -2.54)
          )
          (stroke (width 0) (type default) (color 0 0 0 0))
          (fill (type none))
        )
        (polyline
          (pts
            (xy 0 2.286)
            (xy 0 2.54)
          )
          (stroke (width 0) (type default) (color 0 0 0 0))
          (fill (type none))
        )
        (polyline
          (pts
            (xy 0 -0.762)
            (xy 1.016 -1.143)
            (xy 0 -1.524)
            (xy -1.016 -1.905)
            (xy 0 -2.286)
          )
          (stroke (width 0) (type default) (color 0 0 0 0))
          (fill (type none))
        )
        (polyline
          (pts
            (xy 0 0.762)
            (xy 1.016 0.381)
            (xy 0 0)
            (xy -1.016 -0.381)
            (xy 0 -0.762)
          )
          (stroke (width 0) (type default) (color 0 0 0 0))
          (fill (type none))
        )
        (polyline
          (pts
            (xy 0 2.286)
            (xy 1.016 1.905)
            (xy 0 1.524)
            (xy -1.016 1.143)
            (xy 0 0.762)
          )
          (stroke (width 0) (type default) (color 0 0 0 0))
          (fill (type none))
        )
      )
      (symbol "R_US_1_1"
        (pin passive line (at 0 3.81 270) (length 1.27)
          (name "~" (effects (font (size 1.27 1.27))))
          (number "1" (effects (font (size 1.27 1.27))))
        )
        (pin passive line (at 0 -3.81 90) (length 1.27)
          (name "~" (effects (font (size 1.27 1.27))))
          (number "2" (effects (font (size 1.27 1.27))))
        )
      )
    )
    (symbol "power:+BATT" (power) (pin_names (offset 0)) (in_bom yes) (on_board yes)
      (property "Reference" "#PWR" (id 0) (at 0 -3.81 0)
        (effects (font (size 1.27 1.27)) hide)
      )
      (property "Value" "+BATT" (id 1) (at 0 3.556 0)
        (effects (font (size 1.27 1.27)))
      )
      (property "Footprint" "" (id 2) (at 0 0 0)
        (effects (font (size 1.27 1.27)) hide)
      )
      (property "Datasheet" "" (id 3) (at 0 0 0)
        (effects (font (size 1.27 1.27)) hide)
      )
      (property "ki_keywords" "power-flag battery" (id 4) (at 0 0 0)
        (effects (font (size 1.27 1.27)) hide)
      )
      (property "ki_description" "Power symbol creates a global label with name \"+BATT\"" (id 5) (at 0 0 0)
        (effects (font (size 1.27 1.27)) hide)
      )
      (symbol "+BATT_0_1"
        (polyline
          (pts
            (xy -0.762 1.27)
            (xy 0 2.54)
          )
          (stroke (width 0) (type default) (color 0 0 0 0))
          (fill (type none))
        )
        (polyline
          (pts
            (xy 0 0)
            (xy 0 2.54)
          )
          (stroke (width 0) (type default) (color 0 0 0 0))
          (fill (type none))
        )
        (polyline
          (pts
            (xy 0 2.54)
            (xy 0.762 1.27)
          )
          (stroke (width 0) (type default) (color 0 0 0 0))
          (fill (type none))
        )
      )
      (symbol "+BATT_1_1"
        (pin power_in line (at 0 0 90) (length 0) hide
          (name "+BATT" (effects (font (size 1.27 1.27))))
          (number "1" (effects (font (size 1.27 1.27))))
        )
      )
    )
    (symbol "power:GND" (power) (pin_names (offset 0)) (in_bom yes) (on_board yes)
      (property "Reference" "#PWR" (id 0) (at 0 -6.35 0)
        (effects (font (size 1.27 1.27)) hide)
      )
      (property "Value" "GND" (id 1) (at 0 -3.81 0)
        (effects (font (size 1.27 1.27)))
      )
      (property "Footprint" "" (id 2) (at 0 0 0)
        (effects (font (size 1.27 1.27)) hide)
      )
      (property "Datasheet" "" (id 3) (at 0 0 0)
        (effects (font (size 1.27 1.27)) hide)
      )
      (property "ki_keywords" "power-flag" (id 4) (at 0 0 0)
        (effects (font (size 1.27 1.27)) hide)
      )
      (property "ki_description" "Power symbol creates a global label with name \"GND\" , ground" (id 5) (at 0 0 0)
        (effects (font (size 1.27 1.27)) hide)
      )
      (symbol "GND_0_1"
        (polyline
          (pts
            (xy 0 0)
            (xy 0 -1.27)
            (xy 1.27 -1.27)
            (xy 0 -2.54)
            (xy -1.27 -1.27)
            (xy 0 -1.27)
          )
          (stroke (width 0) (type default) (color 0 0 0 0))
          (fill (type none))
        )
      )
      (symbol "GND_1_1"
        (pin power_in line (at 0 0 270) (length 0) hide
          (name "GND" (effects (font (size 1.27 1.27))))
          (number "1" (effects (font (size 1.27 1.27))))
        )
      )
    )
    (symbol "roket-rescue:SI4202DY-T1-GE3-SI4202DY-T1-GE3" (pin_names (offset 1.016) hide) (in_bom yes) (on_board yes)
      (property "Reference" "U" (id 0) (at -7.62 12.7 0)
        (effects (font (size 1.27 1.27)) (justify left bottom))
      )
      (property "Value" "SI4202DY-T1-GE3-SI4202DY-T1-GE3" (id 1) (at -7.62 -12.7 0)
        (effects (font (size 1.27 1.27)) (justify left bottom))
      )
      (property "Footprint" "SOIC127P599X175-8N" (id 2) (at 0 0 0)
        (effects (font (size 1.27 1.27)) (justify left bottom) hide)
      )
      (property "Datasheet" "" (id 3) (at 0 0 0)
        (effects (font (size 1.27 1.27)) (justify left bottom) hide)
      )
      (property "PARTREV" "A" (id 4) (at 0 0 0)
        (effects (font (size 1.27 1.27)) (justify left bottom) hide)
      )
      (property "MANUFACTURER" "Texas Instruments" (id 5) (at 0 0 0)
        (effects (font (size 1.27 1.27)) (justify left bottom) hide)
      )
      (property "MAXIMUM_PACKAGE_HEIGHT" "1.75mm" (id 6) (at 0 0 0)
        (effects (font (size 1.27 1.27)) (justify left bottom) hide)
      )
      (property "STANDARD" "IPC-7351B" (id 7) (at 0 0 0)
        (effects (font (size 1.27 1.27)) (justify left bottom) hide)
      )
      (property "ki_locked" "" (id 8) (at 0 0 0)
        (effects (font (size 1.27 1.27)))
      )
      (symbol "SI4202DY-T1-GE3-SI4202DY-T1-GE3_0_0"
        (circle (center -2.54 -2.54) (radius 0.3556)
          (stroke (width 0) (type default) (color 0 0 0 0))
          (fill (type none))
        )
        (circle (center -2.54 7.62) (radius 0.3556)
          (stroke (width 0) (type default) (color 0 0 0 0))
          (fill (type none))
        )
        (polyline
          (pts
            (xy -7.62 -10.16)
            (xy -7.62 7.62)
          )
          (stroke (width 0.254) (type default) (color 0 0 0 0))
          (fill (type none))
        )
        (polyline
          (pts
            (xy -7.62 -7.62)
            (xy -2.54 -7.62)
          )
          (stroke (width 0.1524) (type default) (color 0 0 0 0))
          (fill (type none))
        )
        (polyline
          (pts
            (xy -7.62 -2.54)
            (xy -2.54 -2.54)
          )
          (stroke (width 0.1524) (type default) (color 0 0 0 0))
          (fill (type none))
        )
        (polyline
          (pts
            (xy -7.62 2.54)
            (xy -2.54 2.54)
          )
          (stroke (width 0.1524) (type default) (color 0 0 0 0))
          (fill (type none))
        )
        (polyline
          (pts
            (xy -7.62 7.62)
            (xy -7.62 12.7)
          )
          (stroke (width 0.254) (type default) (color 0 0 0 0))
          (fill (type none))
        )
        (polyline
          (pts
            (xy -7.62 7.62)
            (xy -2.54 7.62)
          )
          (stroke (width 0.1524) (type default) (color 0 0 0 0))
          (fill (type none))
        )
        (polyline
          (pts
            (xy -7.62 12.7)
            (xy 7.62 12.7)
          )
          (stroke (width 0.254) (type default) (color 0 0 0 0))
          (fill (type none))
        )
        (polyline
          (pts
            (xy -2.54 -7.62)
            (xy -2.54 -5.08)
          )
          (stroke (width 0.1524) (type default) (color 0 0 0 0))
          (fill (type none))
        )
        (polyline
          (pts
            (xy -2.54 -4.318)
            (xy -3.175 -4.318)
          )
          (stroke (width 0.254) (type default) (color 0 0 0 0))
          (fill (type none))
        )
        (polyline
          (pts
            (xy -2.54 -2.54)
            (xy -2.54 -4.318)
          )
          (stroke (width 0.1524) (type default) (color 0 0 0 0))
          (fill (type none))
        )
        (polyline
          (pts
            (xy -2.54 -2.54)
            (xy -2.54 -1.27)
          )
          (stroke (width 0.1524) (type default) (color 0 0 0 0))
          (fill (type none))
        )
        (polyline
          (pts
            (xy -2.54 2.54)
            (xy -2.54 5.08)
          )
          (stroke (width 0.1524) (type default) (color 0 0 0 0))
          (fill (type none))
        )
        (polyline
          (pts
            (xy -2.54 5.842)
            (xy -3.175 5.842)
          )
          (stroke (width 0.254) (type default) (color 0 0 0 0))
          (fill (type none))
        )
        (polyline
          (pts
            (xy -2.54 7.62)
            (xy -2.54 5.842)
          )
          (stroke (width 0.1524) (type default) (color 0 0 0 0))
          (fill (type none))
        )
        (polyline
          (pts
            (xy -2.54 7.62)
            (xy -2.54 8.89)
          )
          (stroke (width 0.1524) (type default) (color 0 0 0 0))
          (fill (type none))
        )
        (polyline
          (pts
            (xy -1.905 -4.318)
            (xy -2.54 -4.318)
          )
          (stroke (width 0.254) (type default) (color 0 0 0 0))
          (fill (type none))
        )
        (polyline
          (pts
            (xy -1.905 5.842)
            (xy -2.54 5.842)
          )
          (stroke (width 0.254) (type default) (color 0 0 0 0))
          (fill (type none))
        )
        (polyline
          (pts
            (xy 0 -4.318)
            (xy -0.762 -4.318)
          )
          (stroke (width 0.254) (type default) (color 0 0 0 0))
          (fill (type none))
        )
        (polyline
          (pts
            (xy 0 -4.318)
            (xy 0 -2.54)
          )
          (stroke (width 0.1524) (type default) (color 0 0 0 0))
          (fill (type none))
        )
        (polyline
          (pts
            (xy 0 -2.54)
            (xy -2.54 -2.54)
          )
          (stroke (width 0.1524) (type default) (color 0 0 0 0))
          (fill (type none))
        )
        (polyline
          (pts
            (xy 0 5.842)
            (xy -0.762 5.842)
          )
          (stroke (width 0.254) (type default) (color 0 0 0 0))
          (fill (type none))
        )
        (polyline
          (pts
            (xy 0 5.842)
            (xy 0 7.62)
          )
          (stroke (width 0.1524) (type default) (color 0 0 0 0))
          (fill (type none))
        )
        (polyline
          (pts
            (xy 0 7.62)
            (xy -2.54 7.62)
          )
          (stroke (width 0.1524) (type default) (color 0 0 0 0))
          (fill (type none))
        )
        (polyline
          (pts
            (xy 0.508 -1.27)
            (xy -2.54 -1.27)
          )
          (stroke (width 0.1524) (type default) (color 0 0 0 0))
          (fill (type none))
        )
        (polyline
          (pts
            (xy 0.508 -1.27)
            (xy 0.508 -1.778)
          )
          (stroke (width 0.1524) (type default) (color 0 0 0 0))
          (fill (type none))
        )
        (polyline
          (pts
            (xy 0.508 -0.762)
            (xy 0.508 -1.27)
          )
          (stroke (width 0.1524) (type default) (color 0 0 0 0))
          (fill (type none))
        )
        (polyline
          (pts
            (xy 0.508 8.89)
            (xy -2.54 8.89)
          )
          (stroke (width 0.1524) (type default) (color 0 0 0 0))
          (fill (type none))
        )
        (polyline
          (pts
            (xy 0.508 8.89)
            (xy 0.508 8.382)
          )
          (stroke (width 0.1524) (type default) (color 0 0 0 0))
          (fill (type none))
        )
        (polyline
          (pts
            (xy 0.508 9.398)
            (xy 0.508 8.89)
          )
          (stroke (width 0.1524) (type default) (color 0 0 0 0))
          (fill (type none))
        )
        (polyline
          (pts
            (xy 0.762 -4.318)
            (xy 0 -4.318)
          )
          (stroke (width 0.254) (type default) (color 0 0 0 0))
          (fill (type none))
        )
        (polyline
          (pts
            (xy 0.762 5.842)
            (xy 0 5.842)
          )
          (stroke (width 0.254) (type default) (color 0 0 0 0))
          (fill (type none))
        )
        (polyline
          (pts
            (xy 2.54 -5.08)
            (xy -2.54 -5.08)
          )
          (stroke (width 0.254) (type default) (color 0 0 0 0))
          (fill (type none))
        )
        (polyline
          (pts
            (xy 2.54 -4.318)
            (xy 1.905 -4.318)
          )
          (stroke (width 0.254) (type default) (color 0 0 0 0))
          (fill (type none))
        )
        (polyline
          (pts
            (xy 2.54 -4.318)
            (xy 2.54 -2.54)
          )
          (stroke (width 0.1524) (type default) (color 0 0 0 0))
          (fill (type none))
        )
        (polyline
          (pts
            (xy 2.54 -2.54)
            (xy 2.54 -1.27)
          )
          (stroke (width 0.1524) (type default) (color 0 0 0 0))
          (fill (type none))
        )
        (polyline
          (pts
            (xy 2.54 -1.27)
            (xy 0.508 -1.27)
          )
          (stroke (width 0.1524) (type default) (color 0 0 0 0))
          (fill (type none))
        )
        (polyline
          (pts
            (xy 2.54 5.08)
            (xy -2.54 5.08)
          )
          (stroke (width 0.254) (type default) (color 0 0 0 0))
          (fill (type none))
        )
        (polyline
          (pts
            (xy 2.54 5.842)
            (xy 1.905 5.842)
          )
          (stroke (width 0.254) (type default) (color 0 0 0 0))
          (fill (type none))
        )
        (polyline
          (pts
            (xy 2.54 5.842)
            (xy 2.54 7.62)
          )
          (stroke (width 0.1524) (type default) (color 0 0 0 0))
          (fill (type none))
        )
        (polyline
          (pts
            (xy 2.54 7.62)
            (xy 2.54 8.89)
          )
          (stroke (width 0.1524) (type default) (color 0 0 0 0))
          (fill (type none))
        )
        (polyline
          (pts
            (xy 2.54 8.89)
            (xy 0.508 8.89)
          )
          (stroke (width 0.1524) (type default) (color 0 0 0 0))
          (fill (type none))
        )
        (polyline
          (pts
            (xy 3.175 -4.318)
            (xy 2.54 -4.318)
          )
          (stroke (width 0.254) (type default) (color 0 0 0 0))
          (fill (type none))
        )
        (polyline
          (pts
            (xy 3.175 5.842)
            (xy 2.54 5.842)
          )
          (stroke (width 0.254) (type default) (color 0 0 0 0))
          (fill (type none))
        )
        (polyline
          (pts
            (xy 7.62 -10.16)
            (xy -7.62 -10.16)
          )
          (stroke (width 0.254) (type default) (color 0 0 0 0))
          (fill (type none))
        )
        (polyline
          (pts
            (xy 7.62 -2.54)
            (xy 2.54 -2.54)
          )
          (stroke (width 0.1524) (type default) (color 0 0 0 0))
          (fill (type none))
        )
        (polyline
          (pts
            (xy 7.62 7.62)
            (xy 2.54 7.62)
          )
          (stroke (width 0.1524) (type default) (color 0 0 0 0))
          (fill (type none))
        )
        (polyline
          (pts
            (xy 7.62 12.7)
            (xy 7.62 -10.16)
          )
          (stroke (width 0.254) (type default) (color 0 0 0 0))
          (fill (type none))
        )
        (polyline
          (pts
            (xy 0 -4.064)
            (xy 0.762 -3.048)
            (xy -0.762 -3.048)
          )
          (stroke (width 0.1524) (type default) (color 0 0 0 0))
          (fill (type background))
        )
        (polyline
          (pts
            (xy 0 6.096)
            (xy 0.762 7.112)
            (xy -0.762 7.112)
          )
          (stroke (width 0.1524) (type default) (color 0 0 0 0))
          (fill (type background))
        )
        (polyline
          (pts
            (xy 0.508 -1.27)
            (xy -0.254 -1.778)
            (xy -0.254 -0.762)
          )
          (stroke (width 0.1524) (type default) (color 0 0 0 0))
          (fill (type background))
        )
        (polyline
          (pts
            (xy 0.508 8.89)
            (xy -0.254 8.382)
            (xy -0.254 9.398)
          )
          (stroke (width 0.1524) (type default) (color 0 0 0 0))
          (fill (type background))
        )
        (circle (center 2.54 -2.54) (radius 0.3556)
          (stroke (width 0) (type default) (color 0 0 0 0))
          (fill (type none))
        )
        (circle (center 2.54 7.62) (radius 0.3556)
          (stroke (width 0) (type default) (color 0 0 0 0))
          (fill (type none))
        )
        (pin bidirectional line (at -12.7 7.62 0) (length 5.08)
          (name "~" (effects (font (size 1.016 1.016))))
          (number "1" (effects (font (size 1.016 1.016))))
        )
        (pin input line (at -12.7 2.54 0) (length 5.08)
          (name "~" (effects (font (size 1.016 1.016))))
          (number "2" (effects (font (size 1.016 1.016))))
        )
        (pin bidirectional line (at -12.7 -2.54 0) (length 5.08)
          (name "~" (effects (font (size 1.016 1.016))))
          (number "3" (effects (font (size 1.016 1.016))))
        )
        (pin input line (at -12.7 -7.62 0) (length 5.08)
          (name "~" (effects (font (size 1.016 1.016))))
          (number "4" (effects (font (size 1.016 1.016))))
        )
        (pin bidirectional line (at 12.7 -2.54 180) (length 5.08)
          (name "~" (effects (font (size 1.016 1.016))))
          (number "5" (effects (font (size 1.016 1.016))))
        )
        (pin bidirectional line (at 12.7 -2.54 180) (length 5.08)
          (name "~" (effects (font (size 1.016 1.016))))
          (number "6" (effects (font (size 1.016 1.016))))
        )
        (pin bidirectional line (at 12.7 7.62 180) (length 5.08)
          (name "~" (effects (font (size 1.016 1.016))))
          (number "7" (effects (font (size 1.016 1.016))))
        )
        (pin bidirectional line (at 12.7 7.62 180) (length 5.08)
          (name "~" (effects (font (size 1.016 1.016))))
          (number "8" (effects (font (size 1.016 1.016))))
        )
      )
    )
  )

  (junction (at 191.77 97.79) (diameter 0) (color 0 0 0 0)
    (uuid 41b4f8c6-4973-4fc7-9118-d582bc7f31e7)
  )
  (junction (at 156.21 91.44) (diameter 0) (color 0 0 0 0)
    (uuid 6ea0f2f7-b064-4b8f-bd17-48195d1c83d1)
  )
  (junction (at 204.47 87.63) (diameter 0) (color 0 0 0 0)
    (uuid 73f40fda-e6eb-4f93-9482-56cf47d84a87)
  )
  (junction (at 151.13 81.28) (diameter 0) (color 0 0 0 0)
    (uuid 80f8c1b4-10dd-40fe-b7f7-67988bc3ad81)
  )
  (junction (at 114.3 100.33) (diameter 0) (color 0 0 0 0)
    (uuid af1b8d8a-af73-4164-abf7-747ac1cfdb1e)
  )

  (wire (pts (xy 191.77 86.36) (xy 191.77 88.9))
    (stroke (width 0) (type default) (color 0 0 0 0))
    (uuid 0869ae1b-9702-4d24-a110-a1338d4c5ba1)
  )
  (wire (pts (xy 156.21 101.6) (xy 156.21 102.87))
    (stroke (width 0) (type default) (color 0 0 0 0))
    (uuid 0e592cd4-1950-44ef-9727-8e526f4c4e12)
  )
  (wire (pts (xy 114.3 100.33) (xy 114.3 105.41))
    (stroke (width 0) (type default) (color 0 0 0 0))
    (uuid 133a7e37-edd9-4edc-a4f0-22cbd64e0f01)
  )
  (wire (pts (xy 204.47 96.52) (xy 204.47 97.79))
    (stroke (width 0) (type default) (color 0 0 0 0))
    (uuid 18d3014d-7089-41b5-ab03-53cc0a265580)
  )
  (wire (pts (xy 102.87 102.87) (xy 113.03 102.87))
    (stroke (width 0) (type default) (color 0 0 0 0))
    (uuid 2026567f-be64-41dd-8011-b0897ba0ff2e)
  )
  (wire (pts (xy 146.05 91.44) (xy 156.21 91.44))
    (stroke (width 0) (type default) (color 0 0 0 0))
    (uuid 21573090-1953-4b11-9042-108ae79fe9c5)
  )
  (wire (pts (xy 185.42 76.2) (xy 204.47 76.2))
    (stroke (width 0) (type default) (color 0 0 0 0))
    (uuid 2586d832-ecfc-4895-8231-1b5bad06fd47)
  )
  (wire (pts (xy 191.77 97.79) (xy 191.77 100.33))
    (stroke (width 0) (type default) (color 0 0 0 0))
    (uuid 34a11a07-8b7f-45d2-96e3-89fd43e62756)
  )
  (wire (pts (xy 204.47 87.63) (xy 204.47 88.9))
    (stroke (width 0) (type default) (color 0 0 0 0))
    (uuid 3579cf2f-29b0-46b6-a07d-483fb5586322)
  )
  (wire (pts (xy 204.47 87.63) (xy 203.2 87.63))
    (stroke (width 0) (type default) (color 0 0 0 0))
    (uuid 3934b2e9-06c8-499c-a6df-4d7b35cfb894)
  )
  (wire (pts (xy 160.02 76.2) (xy 158.75 76.2))
    (stroke (width 0) (type default) (color 0 0 0 0))
    (uuid 3f96e159-1f3b-4ee7-a46e-e60d78f2137a)
  )
  (wire (pts (xy 185.42 86.36) (xy 191.77 86.36))
    (stroke (width 0) (type default) (color 0 0 0 0))
    (uuid 47993d80-a37e-426e-90c9-fd54b49ed166)
  )
  (wire (pts (xy 204.47 76.2) (xy 204.47 77.47))
    (stroke (width 0) (type default) (color 0 0 0 0))
    (uuid 4dbe4495-edb0-4194-ae6e-e0bf6585b8bb)
  )
  (wire (pts (xy 102.87 97.79) (xy 111.76 97.79))
    (stroke (width 0) (type default) (color 0 0 0 0))
    (uuid 5a24153b-bbbe-445a-adb4-43d1faaeefb1)
  )
  (wire (pts (xy 102.87 105.41) (xy 114.3 105.41))
    (stroke (width 0) (type default) (color 0 0 0 0))
    (uuid 5eedf685-0df3-4da8-aded-0e6ed1cb2507)
  )
  (wire (pts (xy 191.77 107.95) (xy 191.77 110.49))
    (stroke (width 0) (type default) (color 0 0 0 0))
    (uuid 662bafcb-dcfb-4471-a8a9-f5c777fdf249)
  )
  (wire (pts (xy 152.4 102.87) (xy 156.21 102.87))
    (stroke (width 0) (type default) (color 0 0 0 0))
    (uuid 70abf340-8b3e-403e-a5e2-d8f35caa2f87)
  )
  (wire (pts (xy 156.21 91.44) (xy 156.21 93.98))
    (stroke (width 0) (type default) (color 0 0 0 0))
    (uuid 725579dd-9ec6-473d-8843-6a11e99f108c)
  )
  (wire (pts (xy 151.13 71.12) (xy 151.13 69.85))
    (stroke (width 0) (type default) (color 0 0 0 0))
    (uuid 883105b0-f6a6-466b-ba58-a2fcc1f18e4b)
  )
  (wire (pts (xy 137.16 69.85) (xy 151.13 69.85))
    (stroke (width 0) (type default) (color 0 0 0 0))
    (uuid 97e5f992-979e-4291-bd9a-a77c3fd4b1b5)
  )
  (wire (pts (xy 102.87 100.33) (xy 114.3 100.33))
    (stroke (width 0) (type default) (color 0 0 0 0))
    (uuid 981ff4de-0330-4757-b746-0cb983df5e7c)
  )
  (wire (pts (xy 102.87 107.95) (xy 107.95 107.95))
    (stroke (width 0) (type default) (color 0 0 0 0))
    (uuid 9b07d532-5f76-4469-8dbf-25ac27eef589)
  )
  (wire (pts (xy 107.95 107.95) (xy 107.95 109.22))
    (stroke (width 0) (type default) (color 0 0 0 0))
    (uuid a26bdee6-0e16-4ea6-87f7-fb32c714896e)
  )
  (wire (pts (xy 129.54 81.28) (xy 132.08 81.28))
    (stroke (width 0) (type default) (color 0 0 0 0))
    (uuid a6706c54-6a82-42d1-a6c9-48341690e19d)
  )
  (wire (pts (xy 137.16 69.85) (xy 137.16 71.12))
    (stroke (width 0) (type default) (color 0 0 0 0))
    (uuid aa0466c6-766f-4bb4-abf1-502a6a06f91d)
  )
  (wire (pts (xy 156.21 91.44) (xy 160.02 91.44))
    (stroke (width 0) (type default) (color 0 0 0 0))
    (uuid acb0068c-c0e7-44cf-a209-296716acb6a2)
  )
  (wire (pts (xy 204.47 85.09) (xy 204.47 87.63))
    (stroke (width 0) (type default) (color 0 0 0 0))
    (uuid acb6c3f3-e677-4f35-9fc2-138ba10f33af)
  )
  (wire (pts (xy 160.02 86.36) (xy 158.75 86.36))
    (stroke (width 0) (type default) (color 0 0 0 0))
    (uuid acf5d924-0760-425a-996c-c1d965700be8)
  )
  (wire (pts (xy 191.77 96.52) (xy 191.77 97.79))
    (stroke (width 0) (type default) (color 0 0 0 0))
    (uuid b7ac5cea-ed28-4028-87d0-45e58c709cf1)
  )
  (wire (pts (xy 151.13 81.28) (xy 160.02 81.28))
    (stroke (width 0) (type default) (color 0 0 0 0))
    (uuid be5bbcc0-5b09-43de-a42f-297f80f602a5)
  )
  (wire (pts (xy 139.7 81.28) (xy 151.13 81.28))
    (stroke (width 0) (type default) (color 0 0 0 0))
    (uuid bf4036b4-c410-489a-b46c-abee2c31db09)
  )
  (wire (pts (xy 138.43 91.44) (xy 135.89 91.44))
    (stroke (width 0) (type default) (color 0 0 0 0))
    (uuid cdfb661b-489b-4b76-99f4-62b92bb1ab18)
  )
  (wire (pts (xy 114.3 93.98) (xy 114.3 100.33))
    (stroke (width 0) (type default) (color 0 0 0 0))
    (uuid e043e474-939c-4471-a9f8-4bf72bfaa5dd)
  )
  (wire (pts (xy 191.77 97.79) (xy 190.5 97.79))
    (stroke (width 0) (type default) (color 0 0 0 0))
    (uuid ef51df0d-fc2c-482b-a0e5-e49bae94f31f)
  )
  (wire (pts (xy 151.13 78.74) (xy 151.13 81.28))
    (stroke (width 0) (type default) (color 0 0 0 0))
    (uuid f8621ac5-1e7e-4e87-8c69-5fd403df9470)
  )
  (wire (pts (xy 152.4 102.87) (xy 152.4 104.14))
    (stroke (width 0) (type default) (color 0 0 0 0))
    (uuid fe4869dc-e96e-4bb4-a38d-2ca990635f2d)
  )

  (label "Pyro2" (at 186.69 86.36 0)
    (effects (font (size 1.27 1.27)) (justify left bottom))
    (uuid 01024d27-e392-4482-9e67-565b0c294fe8)
  )
  (label "Pyro1" (at 111.76 97.79 180)
    (effects (font (size 1.27 1.27)) (justify right bottom))
    (uuid 08f0a69d-2047-4f15-9147-57cc2889ba57)
  )
  (label "Pyro1" (at 187.96 76.2 0)
    (effects (font (size 1.27 1.27)) (justify left bottom))
    (uuid 54093c93-5e7e-4c8d-8d94-40c077747c12)
  )
  (label "Pyro2" (at 113.03 102.87 180)
    (effects (font (size 1.27 1.27)) (justify right bottom))
    (uuid 88a17e56-466a-45e7-9047-7346a507f505)
  )

  (hierarchical_label "P1_Oku" (shape input) (at 203.2 87.63 180)
    (effects (font (size 1.27 1.27)) (justify right))
    (uuid 0e0f9829-27a5-43b2-a0ae-121d3ce72ef4)
  )
  (hierarchical_label "P2_Ates" (shape input) (at 135.89 91.44 180)
    (effects (font (size 1.27 1.27)) (justify right))
    (uuid 37f68888-41d5-4419-a3a3-52f0aa95671e)
  )
  (hierarchical_label "P2_Oku" (shape input) (at 190.5 97.79 180)
    (effects (font (size 1.27 1.27)) (justify right))
    (uuid 77aa6db5-9b8d-4983-b88e-30fe5af25975)
  )
  (hierarchical_label "P1_Ates" (shape input) (at 129.54 81.28 180)
    (effects (font (size 1.27 1.27)) (justify right))
    (uuid c658fcb8-f332-4546-a5be-f372209b92f4)
  )

  (symbol (lib_id "roket-rescue:SI4202DY-T1-GE3-SI4202DY-T1-GE3") (at 172.72 83.82 0) (unit 1)
    (in_bom yes) (on_board yes)
    (uuid 00000000-0000-0000-0000-0000609a766f)
    (property "Reference" "U3" (id 0) (at 172.72 66.8782 0))
    (property "Value" "SI4202DY-T1-GE3" (id 1) (at 172.72 69.1896 0))
    (property "Footprint" "others:SI4202DY-T1-GE3" (id 2) (at 172.72 83.82 0)
      (effects (font (size 1.27 1.27)) (justify left bottom) hide)
    )
    (property "Datasheet" "" (id 3) (at 172.72 83.82 0)
      (effects (font (size 1.27 1.27)) (justify left bottom) hide)
    )
    (property "PARTREV" "A" (id 4) (at 172.72 83.82 0)
      (effects (font (size 1.27 1.27)) (justify left bottom) hide)
    )
    (property "MANUFACTURER" "Texas Instruments" (id 5) (at 172.72 83.82 0)
      (effects (font (size 1.27 1.27)) (justify left bottom) hide)
    )
    (property "MAXIMUM_PACKAGE_HEIGHT" "1.75mm" (id 6) (at 172.72 83.82 0)
      (effects (font (size 1.27 1.27)) (justify left bottom) hide)
    )
    (property "STANDARD" "IPC-7351B" (id 7) (at 172.72 83.82 0)
      (effects (font (size 1.27 1.27)) (justify left bottom) hide)
    )
    (pin "1" (uuid c5c98b8a-f7ba-45e7-bc15-faf2e29423ce))
    (pin "2" (uuid 00b3984a-525d-47c8-89ad-7c7a71dd5d16))
    (pin "3" (uuid b79a7340-60b6-4c9b-8356-f75182760b48))
    (pin "4" (uuid 0513019d-3054-40e8-9b82-85bc0121b463))
    (pin "5" (uuid fad5cafd-1d84-4372-aa9e-13053849db92))
    (pin "6" (uuid 8b942ae8-7e4f-460e-9e75-f3bb356e33e8))
    (pin "7" (uuid cab4392b-185f-4a15-abcf-45f1efeb7d3d))
    (pin "8" (uuid 19c8f73c-c52a-4765-9516-9defc03adb31))
  )

  (symbol (lib_id "Device:R_US") (at 204.47 81.28 0) (unit 1)
    (in_bom yes) (on_board yes)
    (uuid 00000000-0000-0000-0000-0000609a7675)
    (property "Reference" "R12" (id 0) (at 206.1972 80.1116 0)
      (effects (font (size 1.27 1.27)) (justify left))
    )
    (property "Value" "560K" (id 1) (at 206.1972 82.423 0)
      (effects (font (size 1.27 1.27)) (justify left))
    )
    (property "Footprint" "Resistor_SMD:R_0805_2012Metric" (id 2) (at 205.486 81.534 90)
      (effects (font (size 1.27 1.27)) hide)
    )
    (property "Datasheet" "~" (id 3) (at 204.47 81.28 0)
      (effects (font (size 1.27 1.27)) hide)
    )
    (pin "1" (uuid 621097bc-d098-4f47-8603-3f1de117ed94))
    (pin "2" (uuid a5758e59-3232-495c-918a-8e7cdc0af476))
  )

  (symbol (lib_id "Device:R_US") (at 204.47 92.71 0) (unit 1)
    (in_bom yes) (on_board yes)
    (uuid 00000000-0000-0000-0000-0000609a767b)
    (property "Reference" "R13" (id 0) (at 206.1972 91.5416 0)
      (effects (font (size 1.27 1.27)) (justify left))
    )
    (property "Value" "100K" (id 1) (at 206.1972 93.853 0)
      (effects (font (size 1.27 1.27)) (justify left))
    )
    (property "Footprint" "Resistor_SMD:R_0805_2012Metric" (id 2) (at 205.486 92.964 90)
      (effects (font (size 1.27 1.27)) hide)
    )
    (property "Datasheet" "~" (id 3) (at 204.47 92.71 0)
      (effects (font (size 1.27 1.27)) hide)
    )
    (pin "1" (uuid d969e999-8ed7-4b26-8dfa-b58e8170861b))
    (pin "2" (uuid ca9d79df-d3ae-4ca1-859a-01be14f56050))
  )

  (symbol (lib_id "Device:R_US") (at 191.77 92.71 0) (unit 1)
    (in_bom yes) (on_board yes)
    (uuid 00000000-0000-0000-0000-0000609a7681)
    (property "Reference" "R10" (id 0) (at 193.4972 91.5416 0)
      (effects (font (size 1.27 1.27)) (justify left))
    )
    (property "Value" "560K" (id 1) (at 193.4972 93.853 0)
      (effects (font (size 1.27 1.27)) (justify left))
    )
    (property "Footprint" "Resistor_SMD:R_0805_2012Metric" (id 2) (at 192.786 92.964 90)
      (effects (font (size 1.27 1.27)) hide)
    )
    (property "Datasheet" "~" (id 3) (at 191.77 92.71 0)
      (effects (font (size 1.27 1.27)) hide)
    )
    (pin "1" (uuid af9902e1-e19a-4f95-8ec4-94b31bd1b919))
    (pin "2" (uuid fd185f6c-b7ac-43ae-826a-4c9f0ff17ac6))
  )

  (symbol (lib_id "Device:R_US") (at 191.77 104.14 0) (unit 1)
    (in_bom yes) (on_board yes)
    (uuid 00000000-0000-0000-0000-0000609a7687)
    (property "Reference" "R11" (id 0) (at 193.4972 102.9716 0)
      (effects (font (size 1.27 1.27)) (justify left))
    )
    (property "Value" "100K" (id 1) (at 193.4972 105.283 0)
      (effects (font (size 1.27 1.27)) (justify left))
    )
    (property "Footprint" "Resistor_SMD:R_0805_2012Metric" (id 2) (at 192.786 104.394 90)
      (effects (font (size 1.27 1.27)) hide)
    )
    (property "Datasheet" "~" (id 3) (at 191.77 104.14 0)
      (effects (font (size 1.27 1.27)) hide)
    )
    (pin "1" (uuid 639f8471-ada5-4f78-89f6-af541dfd2b3a))
    (pin "2" (uuid 9ffc3d26-a3c9-4659-92d8-d2df14f44eab))
  )

  (symbol (lib_id "Device:R_US") (at 156.21 97.79 0) (unit 1)
    (in_bom yes) (on_board yes)
    (uuid 00000000-0000-0000-0000-0000609a768d)
    (property "Reference" "R9" (id 0) (at 157.9372 96.6216 0)
      (effects (font (size 1.27 1.27)) (justify left))
    )
    (property "Value" "100K" (id 1) (at 157.9372 98.933 0)
      (effects (font (size 1.27 1.27)) (justify left))
    )
    (property "Footprint" "Resistor_SMD:R_0805_2012Metric" (id 2) (at 157.226 98.044 90)
      (effects (font (size 1.27 1.27)) hide)
    )
    (property "Datasheet" "~" (id 3) (at 156.21 97.79 0)
      (effects (font (size 1.27 1.27)) hide)
    )
    (pin "1" (uuid f49b200c-1fa1-471e-b489-fb83c7bd21ad))
    (pin "2" (uuid 4621e400-0302-4866-ab44-79c576e3c01d))
  )

  (symbol (lib_id "Device:R_US") (at 135.89 81.28 90) (unit 1)
    (in_bom yes) (on_board yes)
    (uuid 00000000-0000-0000-0000-0000609a7693)
    (property "Reference" "R6" (id 0) (at 134.7216 79.5528 90)
      (effects (font (size 1.27 1.27)) (justify left))
    )
    (property "Value" "100" (id 1) (at 137.033 79.5528 90)
      (effects (font (size 1.27 1.27)) (justify right))
    )
    (property "Footprint" "Resistor_SMD:R_0805_2012Metric" (id 2) (at 136.144 80.264 90)
      (effects (font (size 1.27 1.27)) hide)
    )
    (property "Datasheet" "~" (id 3) (at 135.89 81.28 0)
      (effects (font (size 1.27 1.27)) hide)
    )
    (pin "1" (uuid 87848700-7291-40c9-9208-3b80b28f086c))
    (pin "2" (uuid 0f67c8df-54bb-445b-a1dc-00496152a43b))
  )

  (symbol (lib_id "Device:R_US") (at 142.24 91.44 90) (unit 1)
    (in_bom yes) (on_board yes)
    (uuid 00000000-0000-0000-0000-0000609a769f)
    (property "Reference" "R7" (id 0) (at 141.0716 89.7128 90)
      (effects (font (size 1.27 1.27)) (justify left))
    )
    (property "Value" "100" (id 1) (at 143.383 89.7128 90)
      (effects (font (size 1.27 1.27)) (justify right))
    )
    (property "Footprint" "Resistor_SMD:R_0805_2012Metric" (id 2) (at 142.494 90.424 90)
      (effects (font (size 1.27 1.27)) hide)
    )
    (property "Datasheet" "~" (id 3) (at 142.24 91.44 0)
      (effects (font (size 1.27 1.27)) hide)
    )
    (pin "1" (uuid 47b1e64c-e36b-4dc1-a8c3-025e20e305d9))
    (pin "2" (uuid 96591fd4-f103-454e-a0d9-5dd36648d224))
  )

  (symbol (lib_id "power:GND") (at 204.47 97.79 0) (unit 1)
    (in_bom yes) (on_board yes)
    (uuid 00000000-0000-0000-0000-0000609a76b2)
    (property "Reference" "#PWR023" (id 0) (at 204.47 104.14 0)
      (effects (font (size 1.27 1.27)) hide)
    )
    (property "Value" "GND" (id 1) (at 204.597 102.1842 0))
    (property "Footprint" "" (id 2) (at 204.47 97.79 0)
      (effects (font (size 1.27 1.27)) hide)
    )
    (property "Datasheet" "" (id 3) (at 204.47 97.79 0)
      (effects (font (size 1.27 1.27)) hide)
    )
    (pin "1" (uuid c5ddd112-b7a2-4639-9f66-6475ca910af1))
  )

  (symbol (lib_id "power:GND") (at 191.77 110.49 0) (unit 1)
    (in_bom yes) (on_board yes)
    (uuid 00000000-0000-0000-0000-0000609a76b8)
    (property "Reference" "#PWR022" (id 0) (at 191.77 116.84 0)
      (effects (font (size 1.27 1.27)) hide)
    )
    (property "Value" "GND" (id 1) (at 191.897 114.8842 0))
    (property "Footprint" "" (id 2) (at 191.77 110.49 0)
      (effects (font (size 1.27 1.27)) hide)
    )
    (property "Datasheet" "" (id 3) (at 191.77 110.49 0)
      (effects (font (size 1.27 1.27)) hide)
    )
    (pin "1" (uuid 2deec665-e676-4853-84c2-e4cc0f4fc565))
  )

  (symbol (lib_id "power:GND") (at 158.75 76.2 0) (unit 1)
    (in_bom yes) (on_board yes)
    (uuid 00000000-0000-0000-0000-0000609a76c4)
    (property "Reference" "#PWR020" (id 0) (at 158.75 82.55 0)
      (effects (font (size 1.27 1.27)) hide)
    )
    (property "Value" "GND" (id 1) (at 158.877 80.5942 0))
    (property "Footprint" "" (id 2) (at 158.75 76.2 0)
      (effects (font (size 1.27 1.27)) hide)
    )
    (property "Datasheet" "" (id 3) (at 158.75 76.2 0)
      (effects (font (size 1.27 1.27)) hide)
    )
    (pin "1" (uuid 1dc22b96-9d93-4bcd-81ae-49cfeeda23fe))
  )

  (symbol (lib_id "power:GND") (at 158.75 86.36 0) (unit 1)
    (in_bom yes) (on_board yes)
    (uuid 00000000-0000-0000-0000-0000609a76d0)
    (property "Reference" "#PWR021" (id 0) (at 158.75 92.71 0)
      (effects (font (size 1.27 1.27)) hide)
    )
    (property "Value" "GND" (id 1) (at 158.877 90.7542 0))
    (property "Footprint" "" (id 2) (at 158.75 86.36 0)
      (effects (font (size 1.27 1.27)) hide)
    )
    (property "Datasheet" "" (id 3) (at 158.75 86.36 0)
      (effects (font (size 1.27 1.27)) hide)
    )
    (pin "1" (uuid 24d2a6ff-0d9d-4e45-b537-9c50307c11dc))
  )

  (symbol (lib_id "power:GND") (at 107.95 109.22 0) (unit 1)
    (in_bom yes) (on_board yes)
    (uuid 00000000-0000-0000-0000-000060acbbdf)
    (property "Reference" "#PWR016" (id 0) (at 107.95 115.57 0)
      (effects (font (size 1.27 1.27)) hide)
    )
    (property "Value" "GND" (id 1) (at 108.077 113.6142 0))
    (property "Footprint" "" (id 2) (at 107.95 109.22 0)
      (effects (font (size 1.27 1.27)) hide)
    )
    (property "Datasheet" "" (id 3) (at 107.95 109.22 0)
      (effects (font (size 1.27 1.27)) hide)
    )
    (pin "1" (uuid c56e9b46-40e6-4c99-8309-2c798e0730d0))
  )

  (symbol (lib_id "power:+BATT") (at 114.3 93.98 0) (unit 1)
    (in_bom yes) (on_board yes)
    (uuid 00000000-0000-0000-0000-000060b73c84)
    (property "Reference" "#PWR017" (id 0) (at 114.3 97.79 0)
      (effects (font (size 1.27 1.27)) hide)
    )
    (property "Value" "+BATT" (id 1) (at 114.681 89.5858 0))
    (property "Footprint" "" (id 2) (at 114.3 93.98 0)
      (effects (font (size 1.27 1.27)) hide)
    )
    (property "Datasheet" "" (id 3) (at 114.3 93.98 0)
      (effects (font (size 1.27 1.27)) hide)
    )
    (pin "1" (uuid 28bdbffc-37b9-4d55-9ab5-172e04b00bc1))
  )

  (symbol (lib_id "power:GND") (at 152.4 104.14 0) (unit 1)
    (in_bom yes) (on_board yes)
    (uuid 00000000-0000-0000-0000-00006170e0eb)
    (property "Reference" "#PWR019" (id 0) (at 152.4 110.49 0)
      (effects (font (size 1.27 1.27)) hide)
    )
    (property "Value" "GND" (id 1) (at 152.527 108.5342 0))
    (property "Footprint" "" (id 2) (at 152.4 104.14 0)
      (effects (font (size 1.27 1.27)) hide)
    )
    (property "Datasheet" "" (id 3) (at 152.4 104.14 0)
      (effects (font (size 1.27 1.27)) hide)
    )
    (pin "1" (uuid 68ae6a90-da1d-4a78-b312-7227cb5695d9))
  )

  (symbol (lib_id "Device:R_US") (at 151.13 74.93 0) (unit 1)
    (in_bom yes) (on_board yes)
    (uuid 00000000-0000-0000-0000-00006176d978)
    (property "Reference" "R8" (id 0) (at 152.8572 73.7616 0)
      (effects (font (size 1.27 1.27)) (justify left))
    )
    (property "Value" "100k" (id 1) (at 152.8572 76.073 0)
      (effects (font (size 1.27 1.27)) (justify left))
    )
    (property "Footprint" "Resistor_SMD:R_0805_2012Metric" (id 2) (at 152.146 75.184 90)
      (effects (font (size 1.27 1.27)) hide)
    )
    (property "Datasheet" "~" (id 3) (at 151.13 74.93 0)
      (effects (font (size 1.27 1.27)) hide)
    )
    (pin "1" (uuid cda896f9-23b9-4d04-98e5-ba8278af337b))
    (pin "2" (uuid d6f3ba24-4fce-4480-93b6-bd2938e142f5))
  )

  (symbol (lib_id "power:GND") (at 137.16 71.12 0) (unit 1)
    (in_bom yes) (on_board yes)
    (uuid 00000000-0000-0000-0000-000061770eac)
    (property "Reference" "#PWR018" (id 0) (at 137.16 77.47 0)
      (effects (font (size 1.27 1.27)) hide)
    )
    (property "Value" "GND" (id 1) (at 137.287 75.5142 0))
    (property "Footprint" "" (id 2) (at 137.16 71.12 0)
      (effects (font (size 1.27 1.27)) hide)
    )
    (property "Datasheet" "" (id 3) (at 137.16 71.12 0)
      (effects (font (size 1.27 1.27)) hide)
    )
    (pin "1" (uuid 0711c6db-703f-460a-9dd0-9bb282688338))
  )

  (symbol (lib_id "Connector:Screw_Terminal_01x05") (at 97.79 102.87 180) (unit 1)
    (in_bom yes) (on_board yes) (fields_autoplaced)
    (uuid 68ebe4ac-3a94-4fc0-bf91-e636ad72e96f)
    (property "Reference" "J1" (id 0) (at 97.79 92.5535 0))
    (property "Value" "Screw_Terminal_01x05" (id 1) (at 97.79 95.3286 0))
    (property "Footprint" "TerminalBlock_4Ucon:TerminalBlock_4Ucon_1x05_P3.50mm_Vertical" (id 2) (at 97.79 102.87 0)
      (effects (font (size 1.27 1.27)) hide)
    )
    (property "Datasheet" "~" (id 3) (at 97.79 102.87 0)
      (effects (font (size 1.27 1.27)) hide)
    )
    (pin "1" (uuid 560c5012-ccb0-415e-b921-5edca5b5250e))
    (pin "2" (uuid b7559db0-3e54-4045-b5d7-3964a8acad61))
    (pin "3" (uuid b5635ccc-2513-4105-b492-ff0bb37c0aa7))
    (pin "4" (uuid 52ba429a-7e71-4de1-ac68-4db9c5175a02))
    (pin "5" (uuid 5606ab96-de5a-4a0c-ba68-3388fada99a0))
  )
)
