(kicad_sch (version 20211123) (generator eeschema)

  (uuid 319639ae-c2c5-486d-93b1-d03bb1b64252)

  (paper "A4")

  (lib_symbols
    (symbol "Device:R_US" (pin_numbers hide) (pin_names (offset 0)) (in_bom yes) (on_board yes)
      (property "Reference" "R" (id 0) (at 2.54 0 90)
        (effects (font (size 1.27 1.27)))
      )
      (property "Value" "R_US" (id 1) (at -2.54 0 90)
        (effects (font (size 1.27 1.27)))
      )
      (property "Footprint" "" (id 2) (at 1.016 -0.254 90)
        (effects (font (size 1.27 1.27)) hide)
      )
      (property "Datasheet" "~" (id 3) (at 0 0 0)
        (effects (font (size 1.27 1.27)) hide)
      )
      (property "ki_keywords" "R res resistor" (id 4) (at 0 0 0)
        (effects (font (size 1.27 1.27)) hide)
      )
      (property "ki_description" "Resistor, US symbol" (id 5) (at 0 0 0)
        (effects (font (size 1.27 1.27)) hide)
      )
      (property "ki_fp_filters" "R_*" (id 6) (at 0 0 0)
        (effects (font (size 1.27 1.27)) hide)
      )
      (symbol "R_US_0_1"
        (polyline
          (pts
            (xy 0 -2.286)
            (xy 0 -2.54)
          )
          (stroke (width 0) (type default) (color 0 0 0 0))
          (fill (type none))
        )
        (polyline
          (pts
            (xy 0 2.286)
            (xy 0 2.54)
          )
          (stroke (width 0) (type default) (color 0 0 0 0))
          (fill (type none))
        )
        (polyline
          (pts
            (xy 0 -0.762)
            (xy 1.016 -1.143)
            (xy 0 -1.524)
            (xy -1.016 -1.905)
            (xy 0 -2.286)
          )
          (stroke (width 0) (type default) (color 0 0 0 0))
          (fill (type none))
        )
        (polyline
          (pts
            (xy 0 0.762)
            (xy 1.016 0.381)
            (xy 0 0)
            (xy -1.016 -0.381)
            (xy 0 -0.762)
          )
          (stroke (width 0) (type default) (color 0 0 0 0))
          (fill (type none))
        )
        (polyline
          (pts
            (xy 0 2.286)
            (xy 1.016 1.905)
            (xy 0 1.524)
            (xy -1.016 1.143)
            (xy 0 0.762)
          )
          (stroke (width 0) (type default) (color 0 0 0 0))
          (fill (type none))
        )
      )
      (symbol "R_US_1_1"
        (pin passive line (at 0 3.81 270) (length 1.27)
          (name "~" (effects (font (size 1.27 1.27))))
          (number "1" (effects (font (size 1.27 1.27))))
        )
        (pin passive line (at 0 -3.81 90) (length 1.27)
          (name "~" (effects (font (size 1.27 1.27))))
          (number "2" (effects (font (size 1.27 1.27))))
        )
      )
    )
    (symbol "power:+3.3V" (power) (pin_names (offset 0)) (in_bom yes) (on_board yes)
      (property "Reference" "#PWR" (id 0) (at 0 -3.81 0)
        (effects (font (size 1.27 1.27)) hide)
      )
      (property "Value" "+3.3V" (id 1) (at 0 3.556 0)
        (effects (font (size 1.27 1.27)))
      )
      (property "Footprint" "" (id 2) (at 0 0 0)
        (effects (font (size 1.27 1.27)) hide)
      )
      (property "Datasheet" "" (id 3) (at 0 0 0)
        (effects (font (size 1.27 1.27)) hide)
      )
      (property "ki_keywords" "power-flag" (id 4) (at 0 0 0)
        (effects (font (size 1.27 1.27)) hide)
      )
      (property "ki_description" "Power symbol creates a global label with name \"+3.3V\"" (id 5) (at 0 0 0)
        (effects (font (size 1.27 1.27)) hide)
      )
      (symbol "+3.3V_0_1"
        (polyline
          (pts
            (xy -0.762 1.27)
            (xy 0 2.54)
          )
          (stroke (width 0) (type default) (color 0 0 0 0))
          (fill (type none))
        )
        (polyline
          (pts
            (xy 0 0)
            (xy 0 2.54)
          )
          (stroke (width 0) (type default) (color 0 0 0 0))
          (fill (type none))
        )
        (polyline
          (pts
            (xy 0 2.54)
            (xy 0.762 1.27)
          )
          (stroke (width 0) (type default) (color 0 0 0 0))
          (fill (type none))
        )
      )
      (symbol "+3.3V_1_1"
        (pin power_in line (at 0 0 90) (length 0) hide
          (name "+3V3" (effects (font (size 1.27 1.27))))
          (number "1" (effects (font (size 1.27 1.27))))
        )
      )
    )
    (symbol "power:GND" (power) (pin_names (offset 0)) (in_bom yes) (on_board yes)
      (property "Reference" "#PWR" (id 0) (at 0 -6.35 0)
        (effects (font (size 1.27 1.27)) hide)
      )
      (property "Value" "GND" (id 1) (at 0 -3.81 0)
        (effects (font (size 1.27 1.27)))
      )
      (property "Footprint" "" (id 2) (at 0 0 0)
        (effects (font (size 1.27 1.27)) hide)
      )
      (property "Datasheet" "" (id 3) (at 0 0 0)
        (effects (font (size 1.27 1.27)) hide)
      )
      (property "ki_keywords" "power-flag" (id 4) (at 0 0 0)
        (effects (font (size 1.27 1.27)) hide)
      )
      (property "ki_description" "Power symbol creates a global label with name \"GND\" , ground" (id 5) (at 0 0 0)
        (effects (font (size 1.27 1.27)) hide)
      )
      (symbol "GND_0_1"
        (polyline
          (pts
            (xy 0 0)
            (xy 0 -1.27)
            (xy 1.27 -1.27)
            (xy 0 -2.54)
            (xy -1.27 -1.27)
            (xy 0 -1.27)
          )
          (stroke (width 0) (type default) (color 0 0 0 0))
          (fill (type none))
        )
      )
      (symbol "GND_1_1"
        (pin power_in line (at 0 0 270) (length 0) hide
          (name "GND" (effects (font (size 1.27 1.27))))
          (number "1" (effects (font (size 1.27 1.27))))
        )
      )
    )
    (symbol "roket-rescue:Cap-805_cap" (pin_names (offset 1.016) hide) (in_bom yes) (on_board yes)
      (property "Reference" "C" (id 0) (at 0 3.81 0)
        (effects (font (size 1.27 1.27)) (justify left bottom))
      )
      (property "Value" "Cap-805_cap" (id 1) (at 0 -5.08 0)
        (effects (font (size 1.27 1.27)) (justify left bottom))
      )
      (property "Footprint" "CAPC2012X135N" (id 2) (at 0 0 0)
        (effects (font (size 1.27 1.27)) (justify left bottom) hide)
      )
      (property "Datasheet" "" (id 3) (at 0 0 0)
        (effects (font (size 1.27 1.27)) (justify left bottom) hide)
      )
      (property "ki_locked" "" (id 4) (at 0 0 0)
        (effects (font (size 1.27 1.27)))
      )
      (symbol "Cap-805_cap_0_0"
        (rectangle (start 0 -1.905) (end 0.635 1.905)
          (stroke (width 0) (type default) (color 0 0 0 0))
          (fill (type outline))
        )
        (rectangle (start 1.905 -1.905) (end 2.54 1.905)
          (stroke (width 0) (type default) (color 0 0 0 0))
          (fill (type outline))
        )
        (pin passive line (at 5.08 0 180) (length 2.54)
          (name "~" (effects (font (size 1.016 1.016))))
          (number "1" (effects (font (size 1.016 1.016))))
        )
        (pin passive line (at -2.54 0 0) (length 2.54)
          (name "~" (effects (font (size 1.016 1.016))))
          (number "2" (effects (font (size 1.016 1.016))))
        )
      )
    )
    (symbol "roket-rescue:ESP32-WROOM-32D-ESP32-WROOM-32D" (pin_names (offset 1.016)) (in_bom yes) (on_board yes)
      (property "Reference" "U" (id 0) (at -15.0368 31.5976 0)
        (effects (font (size 1.27 1.27)) (justify left bottom))
      )
      (property "Value" "ESP32-WROOM-32D-ESP32-WROOM-32D" (id 1) (at -15.2908 -35.6616 0)
        (effects (font (size 1.27 1.27)) (justify left bottom))
      )
      (property "Footprint" "MODULE_ESP32-WROOM-32D" (id 2) (at 0 0 0)
        (effects (font (size 1.27 1.27)) (justify left bottom) hide)
      )
      (property "Datasheet" "" (id 3) (at 0 0 0)
        (effects (font (size 1.27 1.27)) (justify left bottom) hide)
      )
      (property "STANDARD" "Manufacturer Recommendations" (id 4) (at 0 0 0)
        (effects (font (size 1.27 1.27)) (justify left bottom) hide)
      )
      (property "MAXIMUM_PACKAGE_HEIGHT" "3.2 mm" (id 5) (at 0 0 0)
        (effects (font (size 1.27 1.27)) (justify left bottom) hide)
      )
      (property "MANUFACTURER" "Espressif Systems" (id 6) (at 0 0 0)
        (effects (font (size 1.27 1.27)) (justify left bottom) hide)
      )
      (property "PARTREV" "1.9" (id 7) (at 0 0 0)
        (effects (font (size 1.27 1.27)) (justify left bottom) hide)
      )
      (property "ki_locked" "" (id 8) (at 0 0 0)
        (effects (font (size 1.27 1.27)))
      )
      (symbol "ESP32-WROOM-32D-ESP32-WROOM-32D_0_0"
        (rectangle (start -15.24 -33.02) (end 15.24 30.48)
          (stroke (width 0.254) (type default) (color 0 0 0 0))
          (fill (type background))
        )
        (pin power_in line (at 20.32 -29.21 180) (length 5.08)
          (name "GND" (effects (font (size 1.016 1.016))))
          (number "1" (effects (font (size 1.016 1.016))))
        )
        (pin bidirectional line (at 20.32 -15.24 180) (length 5.08)
          (name "IO25" (effects (font (size 1.016 1.016))))
          (number "10" (effects (font (size 1.016 1.016))))
        )
        (pin bidirectional line (at 20.32 -17.78 180) (length 5.08)
          (name "IO26" (effects (font (size 1.016 1.016))))
          (number "11" (effects (font (size 1.016 1.016))))
        )
        (pin bidirectional line (at 20.32 -20.32 180) (length 5.08)
          (name "IO27" (effects (font (size 1.016 1.016))))
          (number "12" (effects (font (size 1.016 1.016))))
        )
        (pin bidirectional line (at 20.32 7.62 180) (length 5.08)
          (name "IO14" (effects (font (size 1.016 1.016))))
          (number "13" (effects (font (size 1.016 1.016))))
        )
        (pin bidirectional line (at 20.32 12.7 180) (length 5.08)
          (name "IO12" (effects (font (size 1.016 1.016))))
          (number "14" (effects (font (size 1.016 1.016))))
        )
        (pin power_in line (at 20.32 -29.21 180) (length 5.08)
          (name "GND" (effects (font (size 1.016 1.016))))
          (number "15" (effects (font (size 1.016 1.016))))
        )
        (pin bidirectional line (at 20.32 10.16 180) (length 5.08)
          (name "IO13" (effects (font (size 1.016 1.016))))
          (number "16" (effects (font (size 1.016 1.016))))
        )
        (pin power_in line (at 20.32 27.94 180) (length 5.08)
          (name "3V3" (effects (font (size 1.016 1.016))))
          (number "2" (effects (font (size 1.016 1.016))))
        )
        (pin bidirectional line (at 20.32 5.08 180) (length 5.08)
          (name "IO15" (effects (font (size 1.016 1.016))))
          (number "23" (effects (font (size 1.016 1.016))))
        )
        (pin bidirectional line (at 20.32 20.32 180) (length 5.08)
          (name "IO2" (effects (font (size 1.016 1.016))))
          (number "24" (effects (font (size 1.016 1.016))))
        )
        (pin bidirectional line (at 20.32 22.86 180) (length 5.08)
          (name "IO0" (effects (font (size 1.016 1.016))))
          (number "25" (effects (font (size 1.016 1.016))))
        )
        (pin bidirectional line (at 20.32 17.78 180) (length 5.08)
          (name "IO4" (effects (font (size 1.016 1.016))))
          (number "26" (effects (font (size 1.016 1.016))))
        )
        (pin bidirectional line (at 20.32 2.54 180) (length 5.08)
          (name "IO16" (effects (font (size 1.016 1.016))))
          (number "27" (effects (font (size 1.016 1.016))))
        )
        (pin bidirectional line (at 20.32 0 180) (length 5.08)
          (name "IO17" (effects (font (size 1.016 1.016))))
          (number "28" (effects (font (size 1.016 1.016))))
        )
        (pin bidirectional line (at 20.32 15.24 180) (length 5.08)
          (name "IO5" (effects (font (size 1.016 1.016))))
          (number "29" (effects (font (size 1.016 1.016))))
        )
        (pin input line (at -20.32 22.86 0) (length 5.08)
          (name "EN" (effects (font (size 1.016 1.016))))
          (number "3" (effects (font (size 1.016 1.016))))
        )
        (pin bidirectional line (at 20.32 -2.54 180) (length 5.08)
          (name "IO18" (effects (font (size 1.016 1.016))))
          (number "30" (effects (font (size 1.016 1.016))))
        )
        (pin bidirectional line (at 20.32 -5.08 180) (length 5.08)
          (name "IO19" (effects (font (size 1.016 1.016))))
          (number "31" (effects (font (size 1.016 1.016))))
        )
        (pin bidirectional line (at 20.32 -7.62 180) (length 5.08)
          (name "IO21" (effects (font (size 1.016 1.016))))
          (number "33" (effects (font (size 1.016 1.016))))
        )
        (pin bidirectional line (at -20.32 -2.54 0) (length 5.08)
          (name "RXD0" (effects (font (size 1.016 1.016))))
          (number "34" (effects (font (size 1.016 1.016))))
        )
        (pin bidirectional line (at -20.32 0 0) (length 5.08)
          (name "TXD0" (effects (font (size 1.016 1.016))))
          (number "35" (effects (font (size 1.016 1.016))))
        )
        (pin bidirectional line (at 20.32 -10.16 180) (length 5.08)
          (name "IO22" (effects (font (size 1.016 1.016))))
          (number "36" (effects (font (size 1.016 1.016))))
        )
        (pin bidirectional line (at 20.32 -12.7 180) (length 5.08)
          (name "IO23" (effects (font (size 1.016 1.016))))
          (number "37" (effects (font (size 1.016 1.016))))
        )
        (pin power_in line (at 20.32 -29.21 180) (length 5.08)
          (name "GND" (effects (font (size 1.016 1.016))))
          (number "38" (effects (font (size 1.016 1.016))))
        )
        (pin input line (at -20.32 15.24 0) (length 5.08)
          (name "SENSOR_VP" (effects (font (size 1.016 1.016))))
          (number "4" (effects (font (size 1.016 1.016))))
        )
        (pin input line (at -20.32 12.7 0) (length 5.08)
          (name "SENSOR_VN" (effects (font (size 1.016 1.016))))
          (number "5" (effects (font (size 1.016 1.016))))
        )
        (pin input line (at -20.32 7.62 0) (length 5.08)
          (name "IO34" (effects (font (size 1.016 1.016))))
          (number "6" (effects (font (size 1.016 1.016))))
        )
        (pin input line (at -20.32 5.08 0) (length 5.08)
          (name "IO35" (effects (font (size 1.016 1.016))))
          (number "7" (effects (font (size 1.016 1.016))))
        )
        (pin bidirectional line (at 20.32 -22.86 180) (length 5.08)
          (name "IO32" (effects (font (size 1.016 1.016))))
          (number "8" (effects (font (size 1.016 1.016))))
        )
        (pin bidirectional line (at 20.32 -25.4 180) (length 5.08)
          (name "IO33" (effects (font (size 1.016 1.016))))
          (number "9" (effects (font (size 1.016 1.016))))
        )
      )
    )
  )

  (junction (at 205.74 66.04) (diameter 0) (color 0 0 0 0)
    (uuid 5e7c3a32-8dda-4e6a-9838-c94d1f165575)
  )
  (junction (at 195.58 66.04) (diameter 0) (color 0 0 0 0)
    (uuid 5f31b97b-d794-46d6-bbd9-7a5638bcf704)
  )
  (junction (at 111.76 69.85) (diameter 0) (color 0 0 0 0)
    (uuid 70d34adf-9bd8-469e-8c77-5c0d7adf511e)
  )
  (junction (at 205.74 74.93) (diameter 0) (color 0 0 0 0)
    (uuid 84d4e166-b429-409a-ab37-c6a10fd82ff5)
  )
  (junction (at 111.76 71.12) (diameter 0) (color 0 0 0 0)
    (uuid a0e7a81b-2259-4f8d-8368-ba75f2004714)
  )

  (wire (pts (xy 181.61 71.12) (xy 177.8 71.12))
    (stroke (width 0) (type default) (color 0 0 0 0))
    (uuid 0cc9bf07-55b9-458f-b8aa-41b2f51fa940)
  )
  (wire (pts (xy 137.16 86.36) (xy 134.62 86.36))
    (stroke (width 0) (type default) (color 0 0 0 0))
    (uuid 212bf70c-2324-47d9-8700-59771063baeb)
  )
  (wire (pts (xy 205.74 77.47) (xy 205.74 74.93))
    (stroke (width 0) (type default) (color 0 0 0 0))
    (uuid 2165c9a4-eb84-4cb6-a870-2fdc39d2511b)
  )
  (wire (pts (xy 181.61 73.66) (xy 177.8 73.66))
    (stroke (width 0) (type default) (color 0 0 0 0))
    (uuid 241e0c85-4796-48eb-a5a0-1c0f2d6e5910)
  )
  (wire (pts (xy 181.61 123.19) (xy 181.61 124.46))
    (stroke (width 0) (type default) (color 0 0 0 0))
    (uuid 2de1ffee-2174-41d2-8969-68b8d21e5a7d)
  )
  (wire (pts (xy 111.76 60.96) (xy 111.76 58.42))
    (stroke (width 0) (type default) (color 0 0 0 0))
    (uuid 347562f5-b152-4e7b-8a69-40ca6daaaad4)
  )
  (wire (pts (xy 181.61 109.22) (xy 177.8 109.22))
    (stroke (width 0) (type default) (color 0 0 0 0))
    (uuid 34c0bee6-7425-4435-8857-d1fe8dfb6d89)
  )
  (wire (pts (xy 181.61 93.98) (xy 177.8 93.98))
    (stroke (width 0) (type default) (color 0 0 0 0))
    (uuid 363945f6-fbef-42be-99cf-4a8a48434d92)
  )
  (wire (pts (xy 181.61 76.2) (xy 177.8 76.2))
    (stroke (width 0) (type default) (color 0 0 0 0))
    (uuid 386ad9e3-71fa-420f-8722-88548b024fc5)
  )
  (wire (pts (xy 195.58 66.04) (xy 205.74 66.04))
    (stroke (width 0) (type default) (color 0 0 0 0))
    (uuid 3c9169cc-3a77-4ae0-8afc-cbfc472a28c5)
  )
  (wire (pts (xy 195.58 73.66) (xy 195.58 74.93))
    (stroke (width 0) (type default) (color 0 0 0 0))
    (uuid 3e57b728-64e6-4470-8f27-a43c0dd85050)
  )
  (wire (pts (xy 111.76 69.85) (xy 109.22 69.85))
    (stroke (width 0) (type default) (color 0 0 0 0))
    (uuid 3efa2ece-8f3f-4a8c-96e9-6ab3ec6f1f70)
  )
  (wire (pts (xy 111.76 71.12) (xy 111.76 73.66))
    (stroke (width 0) (type default) (color 0 0 0 0))
    (uuid 430d6d73-9de6-41ca-b788-178d709f4aae)
  )
  (wire (pts (xy 137.16 88.9) (xy 134.62 88.9))
    (stroke (width 0) (type default) (color 0 0 0 0))
    (uuid 44035e53-ff94-45ad-801f-55a1ce042a0d)
  )
  (wire (pts (xy 181.61 83.82) (xy 177.8 83.82))
    (stroke (width 0) (type default) (color 0 0 0 0))
    (uuid 5d49e9a6-41dd-4072-adde-ef1036c1979b)
  )
  (wire (pts (xy 111.76 83.82) (xy 111.76 81.28))
    (stroke (width 0) (type default) (color 0 0 0 0))
    (uuid 6a2bcc72-047b-4846-8583-1109e3552669)
  )
  (wire (pts (xy 181.61 106.68) (xy 177.8 106.68))
    (stroke (width 0) (type default) (color 0 0 0 0))
    (uuid 6cb535a7-247d-4f99-997d-c21b160eadfa)
  )
  (wire (pts (xy 181.61 114.3) (xy 177.8 114.3))
    (stroke (width 0) (type default) (color 0 0 0 0))
    (uuid 6cb93665-0bcd-4104-8633-fffd1811eee0)
  )
  (wire (pts (xy 205.74 74.93) (xy 205.74 73.66))
    (stroke (width 0) (type default) (color 0 0 0 0))
    (uuid 75b944f9-bf25-4dc7-8104-e9f80b4f359b)
  )
  (wire (pts (xy 111.76 68.58) (xy 111.76 69.85))
    (stroke (width 0) (type default) (color 0 0 0 0))
    (uuid 775e8983-a723-43c5-bf00-61681f0840f3)
  )
  (wire (pts (xy 181.61 101.6) (xy 177.8 101.6))
    (stroke (width 0) (type default) (color 0 0 0 0))
    (uuid 7c5f3091-7791-43b3-8d50-43f6a72274c9)
  )
  (wire (pts (xy 181.61 116.84) (xy 177.8 116.84))
    (stroke (width 0) (type default) (color 0 0 0 0))
    (uuid 7f2b3ce3-2f20-426d-b769-e0329b6a8111)
  )
  (wire (pts (xy 181.61 91.44) (xy 177.8 91.44))
    (stroke (width 0) (type default) (color 0 0 0 0))
    (uuid 7f9683c1-2203-43df-8fa1-719a0dc360df)
  )
  (wire (pts (xy 181.61 81.28) (xy 177.8 81.28))
    (stroke (width 0) (type default) (color 0 0 0 0))
    (uuid 87a1984f-543d-4f2e-ad8a-7a3a24ee6047)
  )
  (wire (pts (xy 181.61 99.06) (xy 177.8 99.06))
    (stroke (width 0) (type default) (color 0 0 0 0))
    (uuid 8ac400bf-c9b3-4af4-b0a7-9aa9ab4ad17e)
  )
  (wire (pts (xy 181.61 78.74) (xy 177.8 78.74))
    (stroke (width 0) (type default) (color 0 0 0 0))
    (uuid 8cb2cd3a-4ef9-4ae5-b6bc-2b1d16f657d6)
  )
  (wire (pts (xy 111.76 71.12) (xy 137.16 71.12))
    (stroke (width 0) (type default) (color 0 0 0 0))
    (uuid 8e295ed4-82cb-4d9f-8888-7ad2dd4d5129)
  )
  (wire (pts (xy 181.61 96.52) (xy 177.8 96.52))
    (stroke (width 0) (type default) (color 0 0 0 0))
    (uuid 97dcf785-3264-40a1-a36e-8842acab24fb)
  )
  (wire (pts (xy 177.8 66.04) (xy 195.58 66.04))
    (stroke (width 0) (type default) (color 0 0 0 0))
    (uuid 98861672-254d-432b-8e5a-10d885a5ffdc)
  )
  (wire (pts (xy 181.61 119.38) (xy 177.8 119.38))
    (stroke (width 0) (type default) (color 0 0 0 0))
    (uuid a7f2e97b-29f3-44fd-bf8a-97a3c1528b61)
  )
  (wire (pts (xy 181.61 88.9) (xy 177.8 88.9))
    (stroke (width 0) (type default) (color 0 0 0 0))
    (uuid b0054ce1-b60e-41de-a6a2-bf712784dd39)
  )
  (wire (pts (xy 195.58 74.93) (xy 205.74 74.93))
    (stroke (width 0) (type default) (color 0 0 0 0))
    (uuid bac7c5b3-99df-445a-ade9-1e608bbbe27e)
  )
  (wire (pts (xy 137.16 81.28) (xy 134.62 81.28))
    (stroke (width 0) (type default) (color 0 0 0 0))
    (uuid be2983fa-f06e-485e-bea1-3dd96b916ec5)
  )
  (wire (pts (xy 205.74 62.23) (xy 205.74 66.04))
    (stroke (width 0) (type default) (color 0 0 0 0))
    (uuid be41ac9e-b8ba-4089-983b-b84269707f1c)
  )
  (wire (pts (xy 137.16 96.52) (xy 134.62 96.52))
    (stroke (width 0) (type default) (color 0 0 0 0))
    (uuid c873689a-d206-42f5-aead-9199b4d63f51)
  )
  (wire (pts (xy 181.61 86.36) (xy 177.8 86.36))
    (stroke (width 0) (type default) (color 0 0 0 0))
    (uuid c8ab8246-b2bb-4b06-b45e-2548482466fd)
  )
  (wire (pts (xy 111.76 69.85) (xy 111.76 71.12))
    (stroke (width 0) (type default) (color 0 0 0 0))
    (uuid cb083d38-4f11-4a80-8b19-ab751c405e4a)
  )
  (wire (pts (xy 137.16 93.98) (xy 134.62 93.98))
    (stroke (width 0) (type default) (color 0 0 0 0))
    (uuid cee2f43a-7d22-4585-a857-73949bd17a9d)
  )
  (wire (pts (xy 137.16 78.74) (xy 134.62 78.74))
    (stroke (width 0) (type default) (color 0 0 0 0))
    (uuid dc1d84c8-33da-4489-be8e-2a1de3001779)
  )
  (wire (pts (xy 181.61 111.76) (xy 177.8 111.76))
    (stroke (width 0) (type default) (color 0 0 0 0))
    (uuid e0830067-5b66-4ce1-b2d1-aaa8af20baf7)
  )
  (wire (pts (xy 177.8 123.19) (xy 181.61 123.19))
    (stroke (width 0) (type default) (color 0 0 0 0))
    (uuid e87738fc-e372-4c48-9de9-398fd8b4874c)
  )
  (wire (pts (xy 181.61 104.14) (xy 177.8 104.14))
    (stroke (width 0) (type default) (color 0 0 0 0))
    (uuid f5c43e09-08d6-4a29-a53a-3b9ea7fb34cd)
  )

  (hierarchical_label "IO27" (shape input) (at 181.61 114.3 0)
    (effects (font (size 1.27 1.27)) (justify left))
    (uuid 02538207-54a8-4266-8d51-23871852b2ff)
  )
  (hierarchical_label "IO4" (shape input) (at 181.61 76.2 0)
    (effects (font (size 1.27 1.27)) (justify left))
    (uuid 051b8cb0-ae77-4e09-98a7-bf2103319e66)
  )
  (hierarchical_label "EN" (shape input) (at 109.22 69.85 180)
    (effects (font (size 1.27 1.27)) (justify right))
    (uuid 083becc8-e25d-4206-9636-55457650bbe3)
  )
  (hierarchical_label "IO17" (shape input) (at 181.61 93.98 0)
    (effects (font (size 1.27 1.27)) (justify left))
    (uuid 0d993e48-cea3-4104-9c5a-d8f97b64a3ac)
  )
  (hierarchical_label "IO33" (shape input) (at 181.61 119.38 0)
    (effects (font (size 1.27 1.27)) (justify left))
    (uuid 0f560957-a8c5-442f-b20c-c2d88613742c)
  )
  (hierarchical_label "IO32" (shape input) (at 181.61 116.84 0)
    (effects (font (size 1.27 1.27)) (justify left))
    (uuid 17ed3508-fa2e-4593-a799-bfd39a6cc14d)
  )
  (hierarchical_label "IO22" (shape input) (at 181.61 104.14 0)
    (effects (font (size 1.27 1.27)) (justify left))
    (uuid 1c9f6fea-1796-4a2d-80b3-ae22ce51c8f5)
  )
  (hierarchical_label "IO15" (shape input) (at 181.61 88.9 0)
    (effects (font (size 1.27 1.27)) (justify left))
    (uuid 20901d7e-a300-4069-8967-a6a7e97a68bc)
  )
  (hierarchical_label "IO5" (shape input) (at 181.61 78.74 0)
    (effects (font (size 1.27 1.27)) (justify left))
    (uuid 35c09d1f-2914-4d1e-a002-df30af772f3b)
  )
  (hierarchical_label "IO14" (shape input) (at 181.61 86.36 0)
    (effects (font (size 1.27 1.27)) (justify left))
    (uuid 422b10b9-e829-44a2-8808-05edd8cb3050)
  )
  (hierarchical_label "IO34" (shape input) (at 134.62 86.36 180)
    (effects (font (size 1.27 1.27)) (justify right))
    (uuid 4a7e3849-3bc9-4bb3-b16a-fab2f5cee0e5)
  )
  (hierarchical_label "IO25" (shape input) (at 181.61 109.22 0)
    (effects (font (size 1.27 1.27)) (justify left))
    (uuid 73fbe87f-3928-49c2-bf87-839d907c6aef)
  )
  (hierarchical_label "SENSOR_VN" (shape input) (at 134.62 81.28 180)
    (effects (font (size 1.27 1.27)) (justify right))
    (uuid 79451892-db6b-4999-916d-6392174ee493)
  )
  (hierarchical_label "SENSOR_VP" (shape input) (at 134.62 78.74 180)
    (effects (font (size 1.27 1.27)) (justify right))
    (uuid 7acd513a-187b-4936-9f93-2e521ce33ad5)
  )
  (hierarchical_label "IO23" (shape input) (at 181.61 106.68 0)
    (effects (font (size 1.27 1.27)) (justify left))
    (uuid 86ad0555-08b3-4dde-9a3e-c1e5e29b6615)
  )
  (hierarchical_label "IO35" (shape input) (at 134.62 88.9 180)
    (effects (font (size 1.27 1.27)) (justify right))
    (uuid 888fd7cb-2fc6-480c-bcfa-0b71303087d3)
  )
  (hierarchical_label "IO2" (shape input) (at 181.61 73.66 0)
    (effects (font (size 1.27 1.27)) (justify left))
    (uuid 974c48bf-534e-4335-98e1-b0426c783e99)
  )
  (hierarchical_label "TXD0" (shape input) (at 134.62 93.98 180)
    (effects (font (size 1.27 1.27)) (justify right))
    (uuid a92f3b72-ed6d-4d99-9da6-35771bec3c77)
  )
  (hierarchical_label "RXD0" (shape input) (at 134.62 96.52 180)
    (effects (font (size 1.27 1.27)) (justify right))
    (uuid aa1c6f47-cbd4-4cbd-8265-e5ac08b7ffc8)
  )
  (hierarchical_label "IO18" (shape input) (at 181.61 96.52 0)
    (effects (font (size 1.27 1.27)) (justify left))
    (uuid b12e5309-5d01-40ef-a9c3-8453e00a555e)
  )
  (hierarchical_label "IO19" (shape input) (at 181.61 99.06 0)
    (effects (font (size 1.27 1.27)) (justify left))
    (uuid be6b17f9-34f5-44e9-a4c7-725d2e274a9d)
  )
  (hierarchical_label "IO16" (shape input) (at 181.61 91.44 0)
    (effects (font (size 1.27 1.27)) (justify left))
    (uuid cf21dfe3-ab4f-4ad9-b7cf-dc892d833b13)
  )
  (hierarchical_label "IO26" (shape input) (at 181.61 111.76 0)
    (effects (font (size 1.27 1.27)) (justify left))
    (uuid dd334895-c8ff-4719-bac4-c0b289bb5899)
  )
  (hierarchical_label "IO12" (shape input) (at 181.61 81.28 0)
    (effects (font (size 1.27 1.27)) (justify left))
    (uuid e2b24e25-1a0d-434a-876b-c595b47d80d2)
  )
  (hierarchical_label "IO0" (shape input) (at 181.61 71.12 0)
    (effects (font (size 1.27 1.27)) (justify left))
    (uuid f28e56e7-283b-4b9a-ae27-95e89770fbf8)
  )
  (hierarchical_label "IO21" (shape input) (at 181.61 101.6 0)
    (effects (font (size 1.27 1.27)) (justify left))
    (uuid f56d244f-1fa4-4475-ac1d-f41eed31a48b)
  )
  (hierarchical_label "IO13" (shape input) (at 181.61 83.82 0)
    (effects (font (size 1.27 1.27)) (justify left))
    (uuid fad4c712-0a2e-465d-a9f8-83d26bd66e37)
  )

  (symbol (lib_id "power:+3.3V") (at 205.74 62.23 0) (unit 1)
    (in_bom yes) (on_board yes)
    (uuid 00000000-0000-0000-0000-00006093cb48)
    (property "Reference" "#PWR014" (id 0) (at 205.74 66.04 0)
      (effects (font (size 1.27 1.27)) hide)
    )
    (property "Value" "+3.3V" (id 1) (at 206.121 57.8358 0))
    (property "Footprint" "" (id 2) (at 205.74 62.23 0)
      (effects (font (size 1.27 1.27)) hide)
    )
    (property "Datasheet" "" (id 3) (at 205.74 62.23 0)
      (effects (font (size 1.27 1.27)) hide)
    )
    (pin "1" (uuid 2749e17a-f156-44ff-8d7f-2806762d6379))
  )

  (symbol (lib_id "power:+3.3V") (at 111.76 58.42 0) (unit 1)
    (in_bom yes) (on_board yes)
    (uuid 00000000-0000-0000-0000-00006093d8d8)
    (property "Reference" "#PWR011" (id 0) (at 111.76 62.23 0)
      (effects (font (size 1.27 1.27)) hide)
    )
    (property "Value" "+3.3V" (id 1) (at 112.141 54.0258 0))
    (property "Footprint" "" (id 2) (at 111.76 58.42 0)
      (effects (font (size 1.27 1.27)) hide)
    )
    (property "Datasheet" "" (id 3) (at 111.76 58.42 0)
      (effects (font (size 1.27 1.27)) hide)
    )
    (pin "1" (uuid a5caf9f6-e03e-450e-bccc-1a8c713e9865))
  )

  (symbol (lib_id "power:GND") (at 181.61 124.46 0) (unit 1)
    (in_bom yes) (on_board yes)
    (uuid 00000000-0000-0000-0000-00006093dfce)
    (property "Reference" "#PWR013" (id 0) (at 181.61 130.81 0)
      (effects (font (size 1.27 1.27)) hide)
    )
    (property "Value" "GND" (id 1) (at 181.737 128.8542 0))
    (property "Footprint" "" (id 2) (at 181.61 124.46 0)
      (effects (font (size 1.27 1.27)) hide)
    )
    (property "Datasheet" "" (id 3) (at 181.61 124.46 0)
      (effects (font (size 1.27 1.27)) hide)
    )
    (pin "1" (uuid 2648508c-1099-4ff7-b09b-1f9b78c989ed))
  )

  (symbol (lib_id "roket-rescue:Cap-805_cap") (at 195.58 68.58 270) (unit 1)
    (in_bom yes) (on_board yes)
    (uuid 00000000-0000-0000-0000-00006093f1b1)
    (property "Reference" "C3" (id 0) (at 198.1962 68.6816 90)
      (effects (font (size 1.27 1.27)) (justify left))
    )
    (property "Value" "22uF" (id 1) (at 198.1962 70.993 90)
      (effects (font (size 1.27 1.27)) (justify left))
    )
    (property "Footprint" "others:C_0805_2012Metric" (id 2) (at 195.58 68.58 0)
      (effects (font (size 1.27 1.27)) (justify left bottom) hide)
    )
    (property "Datasheet" "" (id 3) (at 195.58 68.58 0)
      (effects (font (size 1.27 1.27)) (justify left bottom) hide)
    )
    (pin "1" (uuid 9239a495-8167-4d90-b629-2c94a8d4581c))
    (pin "2" (uuid ca5c2dbe-aad1-4009-8460-d2c5eb2b32be))
  )

  (symbol (lib_id "roket-rescue:Cap-805_cap") (at 205.74 68.58 270) (unit 1)
    (in_bom yes) (on_board yes)
    (uuid 00000000-0000-0000-0000-00006093fd89)
    (property "Reference" "C4" (id 0) (at 208.3562 68.6816 90)
      (effects (font (size 1.27 1.27)) (justify left))
    )
    (property "Value" "0.1uF" (id 1) (at 208.3562 70.993 90)
      (effects (font (size 1.27 1.27)) (justify left))
    )
    (property "Footprint" "others:C_0805_2012Metric" (id 2) (at 205.74 68.58 0)
      (effects (font (size 1.27 1.27)) (justify left bottom) hide)
    )
    (property "Datasheet" "" (id 3) (at 205.74 68.58 0)
      (effects (font (size 1.27 1.27)) (justify left bottom) hide)
    )
    (pin "1" (uuid 6c2260eb-bee8-41c1-91ea-999bf990e667))
    (pin "2" (uuid 93754451-2258-4f34-9ebf-2f82b4d95e08))
  )

  (symbol (lib_id "roket-rescue:Cap-805_cap") (at 111.76 76.2 270) (unit 1)
    (in_bom yes) (on_board yes)
    (uuid 00000000-0000-0000-0000-0000609405b2)
    (property "Reference" "C2" (id 0) (at 114.3762 76.3016 90)
      (effects (font (size 1.27 1.27)) (justify left))
    )
    (property "Value" "0.1uF" (id 1) (at 114.3762 78.613 90)
      (effects (font (size 1.27 1.27)) (justify left))
    )
    (property "Footprint" "others:C_0805_2012Metric" (id 2) (at 111.76 76.2 0)
      (effects (font (size 1.27 1.27)) (justify left bottom) hide)
    )
    (property "Datasheet" "" (id 3) (at 111.76 76.2 0)
      (effects (font (size 1.27 1.27)) (justify left bottom) hide)
    )
    (pin "1" (uuid 45cd075f-5583-4436-8cfc-bd48581e1064))
    (pin "2" (uuid 641b0539-a19e-4f91-ad44-9a0d1b8478f4))
  )

  (symbol (lib_id "Device:R_US") (at 111.76 64.77 0) (unit 1)
    (in_bom yes) (on_board yes)
    (uuid 00000000-0000-0000-0000-000060941843)
    (property "Reference" "R5" (id 0) (at 113.4872 63.6016 0)
      (effects (font (size 1.27 1.27)) (justify left))
    )
    (property "Value" "10K" (id 1) (at 113.4872 65.913 0)
      (effects (font (size 1.27 1.27)) (justify left))
    )
    (property "Footprint" "Resistor_SMD:R_0805_2012Metric" (id 2) (at 112.776 65.024 90)
      (effects (font (size 1.27 1.27)) hide)
    )
    (property "Datasheet" "~" (id 3) (at 111.76 64.77 0)
      (effects (font (size 1.27 1.27)) hide)
    )
    (pin "1" (uuid 4c07a785-0b7a-4e64-a11c-be47a0168d59))
    (pin "2" (uuid e53dbb6a-d65d-44d2-bbce-bb43e3bb5547))
  )

  (symbol (lib_id "power:GND") (at 111.76 83.82 0) (unit 1)
    (in_bom yes) (on_board yes)
    (uuid 00000000-0000-0000-0000-000060942f63)
    (property "Reference" "#PWR012" (id 0) (at 111.76 90.17 0)
      (effects (font (size 1.27 1.27)) hide)
    )
    (property "Value" "GND" (id 1) (at 111.887 88.2142 0))
    (property "Footprint" "" (id 2) (at 111.76 83.82 0)
      (effects (font (size 1.27 1.27)) hide)
    )
    (property "Datasheet" "" (id 3) (at 111.76 83.82 0)
      (effects (font (size 1.27 1.27)) hide)
    )
    (pin "1" (uuid 1c3cde3e-1593-4b4a-81a7-233904584a50))
  )

  (symbol (lib_id "power:GND") (at 205.74 77.47 0) (unit 1)
    (in_bom yes) (on_board yes)
    (uuid 00000000-0000-0000-0000-000060946688)
    (property "Reference" "#PWR015" (id 0) (at 205.74 83.82 0)
      (effects (font (size 1.27 1.27)) hide)
    )
    (property "Value" "GND" (id 1) (at 205.867 81.8642 0))
    (property "Footprint" "" (id 2) (at 205.74 77.47 0)
      (effects (font (size 1.27 1.27)) hide)
    )
    (property "Datasheet" "" (id 3) (at 205.74 77.47 0)
      (effects (font (size 1.27 1.27)) hide)
    )
    (pin "1" (uuid 8974d6ce-05d3-4be6-9678-d0054aa0b32f))
  )

  (symbol (lib_id "roket-rescue:ESP32-WROOM-32D-ESP32-WROOM-32D") (at 157.48 93.98 0) (unit 1)
    (in_bom yes) (on_board yes)
    (uuid d6338e99-c56c-4b79-a408-3a4171ac9d24)
    (property "Reference" "U2" (id 0) (at 157.48 59.2582 0))
    (property "Value" "ESP32-WROOM-32D" (id 1) (at 157.48 61.5696 0))
    (property "Footprint" "others:ESP32-WROOM-32D" (id 2) (at 157.48 93.98 0)
      (effects (font (size 1.27 1.27)) (justify left bottom) hide)
    )
    (property "Datasheet" "" (id 3) (at 157.48 93.98 0)
      (effects (font (size 1.27 1.27)) (justify left bottom) hide)
    )
    (property "STANDARD" "Manufacturer Recommendations" (id 4) (at 157.48 93.98 0)
      (effects (font (size 1.27 1.27)) (justify left bottom) hide)
    )
    (property "MAXIMUM_PACKAGE_HEIGHT" "3.2 mm" (id 5) (at 157.48 93.98 0)
      (effects (font (size 1.27 1.27)) (justify left bottom) hide)
    )
    (property "MANUFACTURER" "Espressif Systems" (id 6) (at 157.48 93.98 0)
      (effects (font (size 1.27 1.27)) (justify left bottom) hide)
    )
    (property "PARTREV" "1.9" (id 7) (at 157.48 93.98 0)
      (effects (font (size 1.27 1.27)) (justify left bottom) hide)
    )
    (pin "1" (uuid 75d235a8-dc57-4f9d-a137-9747864e0816))
    (pin "10" (uuid f9d85a0f-676c-40a0-9ad9-755eacb7d699))
    (pin "11" (uuid aba53243-da3f-4824-9d85-aa6b6feae0d0))
    (pin "12" (uuid 9af43033-64a2-43c0-a7c9-25c895f41763))
    (pin "13" (uuid 38dc1222-8876-4a43-aeac-9a57750b2e26))
    (pin "14" (uuid 88df5c50-660c-4f56-a770-ffe066d61a72))
    (pin "15" (uuid 32e7648c-e2f1-4bcb-ad37-820e92a0f229))
    (pin "16" (uuid 7b160fd0-9175-463f-955f-b4a8f725ceb4))
    (pin "2" (uuid 45e2ff1d-a830-4e8c-8bc6-8947bd353757))
    (pin "23" (uuid 33b4dc87-d23a-4997-8b3d-76bbaa6cb0ef))
    (pin "24" (uuid 44048cd3-a551-4c86-aa00-bb3a1f8b622d))
    (pin "25" (uuid ad862eec-ef06-4947-8775-115e3b8eb85e))
    (pin "26" (uuid 01a3bd09-e865-4665-90b9-1da67bc8b691))
    (pin "27" (uuid cc005bd1-bc57-4622-ad3e-ca6b7dec9d59))
    (pin "28" (uuid 6f6a14ce-ee8a-4c70-8b30-f5347a9387a0))
    (pin "29" (uuid 971ca94f-20a3-491d-a912-63df8cfbcc5b))
    (pin "3" (uuid 2f513496-0da5-460d-9b65-76c049916c84))
    (pin "30" (uuid 383448c1-6705-4584-908d-2c0799953bbb))
    (pin "31" (uuid c2446aa4-101e-4bfd-8322-61b12be179bc))
    (pin "33" (uuid be20703b-1e59-4c78-b4ab-5c4a215643c7))
    (pin "34" (uuid b1aca234-159f-442b-b063-d9d784570f1c))
    (pin "35" (uuid 47bd6518-4ca0-4d65-8427-d230d0ee8856))
    (pin "36" (uuid d11b59c3-439c-4dac-a2f1-003765c335bd))
    (pin "37" (uuid c31eff0b-3742-41f9-9e11-ba2d6accc7fa))
    (pin "38" (uuid d38de86f-b66a-45cb-97d8-99b3fb04d582))
    (pin "4" (uuid 8cd1c86f-8b1c-42a2-b3ee-2c559248405f))
    (pin "5" (uuid c4f5677c-0382-4a26-8aad-cf029e176fdd))
    (pin "6" (uuid 66a7c90d-0d12-4607-aa94-775b74835ae4))
    (pin "7" (uuid 5a07dbc4-e34c-44f8-9cb5-459d8ccbafc0))
    (pin "8" (uuid a1577c95-be92-4bbb-8ef1-5eb410fb09ba))
    (pin "9" (uuid af4f9b82-e4d5-41b9-b958-8893bb1e317a))
  )
)
