(kicad_sch (version 20211123) (generator eeschema)

  (uuid 541721d1-074b-496e-a833-813044b3e8ca)

  (paper "A4")

  (lib_symbols
    (symbol "MS5611-cache:MS5611-01BA" (in_bom yes) (on_board yes)
      (property "Reference" "U" (id 0) (at -6.35 8.89 0)
        (effects (font (size 1.27 1.27)))
      )
      (property "Value" "MS5611-01BA" (id 1) (at 7.62 8.89 0)
        (effects (font (size 1.27 1.27)))
      )
      (property "Footprint" "Package_LGA:LGA-8_3x5mm_P1.25mm" (id 2) (at 1.27 -8.89 0)
        (effects (font (size 1.27 1.27)) hide)
      )
      (property "Datasheet" "" (id 3) (at 0 0 0)
        (effects (font (size 1.27 1.27)) hide)
      )
      (property "ki_fp_filters" "LGA*3x5mm*P1.25mm*" (id 4) (at 0 0 0)
        (effects (font (size 1.27 1.27)) hide)
      )
      (symbol "MS5611-01BA_0_1"
        (rectangle (start -7.62 7.62) (end 7.62 -7.62)
          (stroke (width 0.254) (type default) (color 0 0 0 0))
          (fill (type background))
        )
      )
      (symbol "MS5611-01BA_1_1"
        (pin power_in line (at 10.16 5.08 180) (length 2.54)
          (name "VDD" (effects (font (size 1.27 1.27))))
          (number "1" (effects (font (size 1.27 1.27))))
        )
        (pin input line (at -10.16 -5.08 0) (length 2.54)
          (name "PS" (effects (font (size 1.27 1.27))))
          (number "2" (effects (font (size 1.27 1.27))))
        )
        (pin power_in line (at 10.16 -5.08 180) (length 2.54)
          (name "GND" (effects (font (size 1.27 1.27))))
          (number "3" (effects (font (size 1.27 1.27))))
        )
        (pin input line (at -10.16 -2.54 0) (length 2.54)
          (name "CSB" (effects (font (size 1.27 1.27))))
          (number "4" (effects (font (size 1.27 1.27))))
        )
        (pin input line (at -10.16 -2.54 0) (length 2.54) hide
          (name "CSB" (effects (font (size 1.27 1.27))))
          (number "5" (effects (font (size 1.27 1.27))))
        )
        (pin output line (at -10.16 5.08 0) (length 2.54)
          (name "SDO" (effects (font (size 1.27 1.27))))
          (number "6" (effects (font (size 1.27 1.27))))
        )
        (pin bidirectional line (at -10.16 2.54 0) (length 2.54)
          (name "SDI/SDA" (effects (font (size 1.27 1.27))))
          (number "7" (effects (font (size 1.27 1.27))))
        )
        (pin input line (at -10.16 0 0) (length 2.54)
          (name "SCLK" (effects (font (size 1.27 1.27))))
          (number "8" (effects (font (size 1.27 1.27))))
        )
      )
    )
    (symbol "power:+3.3V" (power) (pin_names (offset 0)) (in_bom yes) (on_board yes)
      (property "Reference" "#PWR" (id 0) (at 0 -3.81 0)
        (effects (font (size 1.27 1.27)) hide)
      )
      (property "Value" "+3.3V" (id 1) (at 0 3.556 0)
        (effects (font (size 1.27 1.27)))
      )
      (property "Footprint" "" (id 2) (at 0 0 0)
        (effects (font (size 1.27 1.27)) hide)
      )
      (property "Datasheet" "" (id 3) (at 0 0 0)
        (effects (font (size 1.27 1.27)) hide)
      )
      (property "ki_keywords" "power-flag" (id 4) (at 0 0 0)
        (effects (font (size 1.27 1.27)) hide)
      )
      (property "ki_description" "Power symbol creates a global label with name \"+3.3V\"" (id 5) (at 0 0 0)
        (effects (font (size 1.27 1.27)) hide)
      )
      (symbol "+3.3V_0_1"
        (polyline
          (pts
            (xy -0.762 1.27)
            (xy 0 2.54)
          )
          (stroke (width 0) (type default) (color 0 0 0 0))
          (fill (type none))
        )
        (polyline
          (pts
            (xy 0 0)
            (xy 0 2.54)
          )
          (stroke (width 0) (type default) (color 0 0 0 0))
          (fill (type none))
        )
        (polyline
          (pts
            (xy 0 2.54)
            (xy 0.762 1.27)
          )
          (stroke (width 0) (type default) (color 0 0 0 0))
          (fill (type none))
        )
      )
      (symbol "+3.3V_1_1"
        (pin power_in line (at 0 0 90) (length 0) hide
          (name "+3V3" (effects (font (size 1.27 1.27))))
          (number "1" (effects (font (size 1.27 1.27))))
        )
      )
    )
    (symbol "power:GND" (power) (pin_names (offset 0)) (in_bom yes) (on_board yes)
      (property "Reference" "#PWR" (id 0) (at 0 -6.35 0)
        (effects (font (size 1.27 1.27)) hide)
      )
      (property "Value" "GND" (id 1) (at 0 -3.81 0)
        (effects (font (size 1.27 1.27)))
      )
      (property "Footprint" "" (id 2) (at 0 0 0)
        (effects (font (size 1.27 1.27)) hide)
      )
      (property "Datasheet" "" (id 3) (at 0 0 0)
        (effects (font (size 1.27 1.27)) hide)
      )
      (property "ki_keywords" "power-flag" (id 4) (at 0 0 0)
        (effects (font (size 1.27 1.27)) hide)
      )
      (property "ki_description" "Power symbol creates a global label with name \"GND\" , ground" (id 5) (at 0 0 0)
        (effects (font (size 1.27 1.27)) hide)
      )
      (symbol "GND_0_1"
        (polyline
          (pts
            (xy 0 0)
            (xy 0 -1.27)
            (xy 1.27 -1.27)
            (xy 0 -2.54)
            (xy -1.27 -1.27)
            (xy 0 -1.27)
          )
          (stroke (width 0) (type default) (color 0 0 0 0))
          (fill (type none))
        )
      )
      (symbol "GND_1_1"
        (pin power_in line (at 0 0 270) (length 0) hide
          (name "GND" (effects (font (size 1.27 1.27))))
          (number "1" (effects (font (size 1.27 1.27))))
        )
      )
    )
    (symbol "roket-rescue:Cap-805_cap" (pin_names (offset 1.016) hide) (in_bom yes) (on_board yes)
      (property "Reference" "C" (id 0) (at 0 3.81 0)
        (effects (font (size 1.27 1.27)) (justify left bottom))
      )
      (property "Value" "Cap-805_cap" (id 1) (at 0 -5.08 0)
        (effects (font (size 1.27 1.27)) (justify left bottom))
      )
      (property "Footprint" "CAPC2012X135N" (id 2) (at 0 0 0)
        (effects (font (size 1.27 1.27)) (justify left bottom) hide)
      )
      (property "Datasheet" "" (id 3) (at 0 0 0)
        (effects (font (size 1.27 1.27)) (justify left bottom) hide)
      )
      (property "ki_locked" "" (id 4) (at 0 0 0)
        (effects (font (size 1.27 1.27)))
      )
      (symbol "Cap-805_cap_0_0"
        (rectangle (start 0 -1.905) (end 0.635 1.905)
          (stroke (width 0) (type default) (color 0 0 0 0))
          (fill (type outline))
        )
        (rectangle (start 1.905 -1.905) (end 2.54 1.905)
          (stroke (width 0) (type default) (color 0 0 0 0))
          (fill (type outline))
        )
        (pin passive line (at 5.08 0 180) (length 2.54)
          (name "~" (effects (font (size 1.016 1.016))))
          (number "1" (effects (font (size 1.016 1.016))))
        )
        (pin passive line (at -2.54 0 0) (length 2.54)
          (name "~" (effects (font (size 1.016 1.016))))
          (number "2" (effects (font (size 1.016 1.016))))
        )
      )
    )
  )

  (junction (at 161.29 96.52) (diameter 0) (color 0 0 0 0)
    (uuid 17ff35b3-d658-499b-9a46-ea36063fed4e)
  )
  (junction (at 161.29 86.36) (diameter 0) (color 0 0 0 0)
    (uuid f4a1ab68-998b-43e3-aa33-40b58210bc99)
  )

  (wire (pts (xy 134.62 88.9) (xy 133.35 88.9))
    (stroke (width 0) (type default) (color 0 0 0 0))
    (uuid 0ba17a9b-d889-426c-b4fe-048bed6b6be8)
  )
  (wire (pts (xy 161.29 86.36) (xy 161.29 83.82))
    (stroke (width 0) (type default) (color 0 0 0 0))
    (uuid 12fa3c3f-3d14-451a-a6a8-884fd1b32fa7)
  )
  (wire (pts (xy 161.29 96.52) (xy 161.29 97.79))
    (stroke (width 0) (type default) (color 0 0 0 0))
    (uuid 3993c707-5291-41b6-83c0-d1c09cb3833a)
  )
  (wire (pts (xy 133.35 96.52) (xy 133.35 97.79))
    (stroke (width 0) (type default) (color 0 0 0 0))
    (uuid 7233cb6b-d8fd-4fcd-9b4f-8b0ed19b1b12)
  )
  (wire (pts (xy 134.62 91.44) (xy 133.35 91.44))
    (stroke (width 0) (type default) (color 0 0 0 0))
    (uuid 761c8e29-382a-475c-a37a-7201cc9cd0f5)
  )
  (wire (pts (xy 161.29 93.98) (xy 161.29 96.52))
    (stroke (width 0) (type default) (color 0 0 0 0))
    (uuid 78b44915-d68e-4488-a873-34767153ef98)
  )
  (wire (pts (xy 133.35 93.98) (xy 134.62 93.98))
    (stroke (width 0) (type default) (color 0 0 0 0))
    (uuid 8305dff8-a8db-4c1f-9a95-f7378d5c404e)
  )
  (wire (pts (xy 154.94 86.36) (xy 161.29 86.36))
    (stroke (width 0) (type default) (color 0 0 0 0))
    (uuid b7aa0362-7c9e-4a42-b191-ab15a38bf3c5)
  )
  (wire (pts (xy 134.62 96.52) (xy 133.35 96.52))
    (stroke (width 0) (type default) (color 0 0 0 0))
    (uuid e50c80c5-80c4-46a3-8c1e-c9c3a71a0934)
  )
  (wire (pts (xy 154.94 96.52) (xy 161.29 96.52))
    (stroke (width 0) (type default) (color 0 0 0 0))
    (uuid e76ec524-408a-4daa-89f6-0edfdbcfb621)
  )
  (wire (pts (xy 134.62 86.36) (xy 133.35 86.36))
    (stroke (width 0) (type default) (color 0 0 0 0))
    (uuid f33ec0db-ef0f-4576-8054-2833161a8f30)
  )

  (hierarchical_label "SCLK" (shape input) (at 133.35 91.44 180)
    (effects (font (size 1.27 1.27)) (justify right))
    (uuid 1317ff66-8ecf-46c9-9612-8d2eae03c537)
  )
  (hierarchical_label "MISO" (shape input) (at 133.35 86.36 180)
    (effects (font (size 1.27 1.27)) (justify right))
    (uuid 1755646e-fc08-4e43-a301-d9b3ea704cf6)
  )
  (hierarchical_label "CS" (shape input) (at 133.35 93.98 180)
    (effects (font (size 1.27 1.27)) (justify right))
    (uuid ef4533db-6ea4-4b68-b436-8e9575be570d)
  )
  (hierarchical_label "MOSI" (shape input) (at 133.35 88.9 180)
    (effects (font (size 1.27 1.27)) (justify right))
    (uuid fd5f7d77-0f73-4021-88a8-0641f0fe8d98)
  )

  (symbol (lib_id "roket-rescue:Cap-805_cap") (at 161.29 88.9 270) (unit 1)
    (in_bom yes) (on_board yes)
    (uuid 00000000-0000-0000-0000-000060aceebe)
    (property "Reference" "C1" (id 0) (at 163.9062 89.0016 90)
      (effects (font (size 1.27 1.27)) (justify left))
    )
    (property "Value" "0.1uF" (id 1) (at 163.9062 91.313 90)
      (effects (font (size 1.27 1.27)) (justify left))
    )
    (property "Footprint" "others:C_0805_2012Metric" (id 2) (at 161.29 88.9 0)
      (effects (font (size 1.27 1.27)) (justify left bottom) hide)
    )
    (property "Datasheet" "" (id 3) (at 161.29 88.9 0)
      (effects (font (size 1.27 1.27)) (justify left bottom) hide)
    )
    (pin "1" (uuid 79040896-b9bb-4d4d-a9a2-0c9f5cea410a))
    (pin "2" (uuid f8260743-c4bd-43e1-9872-bdc0280c56a1))
  )

  (symbol (lib_id "power:GND") (at 161.29 97.79 0) (unit 1)
    (in_bom yes) (on_board yes)
    (uuid 00000000-0000-0000-0000-000060aceecc)
    (property "Reference" "#PWR010" (id 0) (at 161.29 104.14 0)
      (effects (font (size 1.27 1.27)) hide)
    )
    (property "Value" "GND" (id 1) (at 161.417 102.1842 0))
    (property "Footprint" "" (id 2) (at 161.29 97.79 0)
      (effects (font (size 1.27 1.27)) hide)
    )
    (property "Datasheet" "" (id 3) (at 161.29 97.79 0)
      (effects (font (size 1.27 1.27)) hide)
    )
    (pin "1" (uuid 4fe8d429-01d7-4800-8fce-100f3ca97655))
  )

  (symbol (lib_id "power:+3.3V") (at 161.29 83.82 0) (unit 1)
    (in_bom yes) (on_board yes)
    (uuid 00000000-0000-0000-0000-000060aceed2)
    (property "Reference" "#PWR09" (id 0) (at 161.29 87.63 0)
      (effects (font (size 1.27 1.27)) hide)
    )
    (property "Value" "+3.3V" (id 1) (at 161.671 79.4258 0))
    (property "Footprint" "" (id 2) (at 161.29 83.82 0)
      (effects (font (size 1.27 1.27)) hide)
    )
    (property "Datasheet" "" (id 3) (at 161.29 83.82 0)
      (effects (font (size 1.27 1.27)) hide)
    )
    (pin "1" (uuid d071ac9b-4090-4ecf-81e4-cedb87e96ef7))
  )

  (symbol (lib_id "MS5611-cache:MS5611-01BA") (at 144.78 91.44 0) (unit 1)
    (in_bom yes) (on_board yes)
    (uuid 00000000-0000-0000-0000-000061605d72)
    (property "Reference" "U1" (id 0) (at 144.78 79.5782 0))
    (property "Value" "MS5611-01BA" (id 1) (at 144.78 81.8896 0))
    (property "Footprint" "Package_LGA:LGA-8_3x5mm_P1.25mm" (id 2) (at 146.05 100.33 0)
      (effects (font (size 1.27 1.27)) hide)
    )
    (property "Datasheet" "" (id 3) (at 144.78 91.44 0)
      (effects (font (size 1.27 1.27)) hide)
    )
    (pin "1" (uuid 73ec292a-5ca5-4ac3-8cda-129415d651b1))
    (pin "2" (uuid 285d3b92-7942-4a70-9c84-2570cf0038f4))
    (pin "3" (uuid 8acc5e44-a2a4-4eca-ae7a-14b158ede767))
    (pin "4" (uuid 54aba7f9-713f-4b0c-b7e8-cfe71d9d4230))
    (pin "5" (uuid cefa58ac-6c7f-4482-82e9-3196d831c014))
    (pin "6" (uuid e080946b-11f2-49f7-a907-a5898cf531fe))
    (pin "7" (uuid 3f3d7260-3e85-4037-97f7-501ede8e97c5))
    (pin "8" (uuid 227544f8-d03a-4712-9341-bfc14e00289c))
  )

  (symbol (lib_id "power:GND") (at 133.35 97.79 0) (unit 1)
    (in_bom yes) (on_board yes)
    (uuid 00000000-0000-0000-0000-000061606e38)
    (property "Reference" "#PWR08" (id 0) (at 133.35 104.14 0)
      (effects (font (size 1.27 1.27)) hide)
    )
    (property "Value" "GND" (id 1) (at 133.477 102.1842 0))
    (property "Footprint" "" (id 2) (at 133.35 97.79 0)
      (effects (font (size 1.27 1.27)) hide)
    )
    (property "Datasheet" "" (id 3) (at 133.35 97.79 0)
      (effects (font (size 1.27 1.27)) hide)
    )
    (pin "1" (uuid 1f4937c0-cd65-488e-8d69-bce37bb092b8))
  )
)
