(kicad_sch (version 20211123) (generator eeschema)

  (uuid 9dcdc92b-2219-4a4a-8954-45f02cc3ab25)

  (paper "A4")

  (lib_symbols
  )

  (junction (at 99.06 55.88) (diameter 0) (color 0 0 0 0)
    (uuid f447e585-df78-4239-b8cb-4653b3837bb1)
  )
  (junction (at 96.52 58.42) (diameter 0) (color 0 0 0 0)
    (uuid f44d04c5-0d17-4d52-8328-ef3b4fdfba5f)
  )

  (wire (pts (xy 167.64 62.23) (xy 175.26 62.23))
    (stroke (width 0) (type default) (color 0 0 0 0))
    (uuid 008da5b9-6f95-4113-b7d0-d93ac62efd33)
  )
  (wire (pts (xy 193.04 69.85) (xy 200.66 69.85))
    (stroke (width 0) (type default) (color 0 0 0 0))
    (uuid 07d160b6-23e1-4aa0-95cb-440482e6fc15)
  )
  (wire (pts (xy 200.66 64.77) (xy 193.04 64.77))
    (stroke (width 0) (type default) (color 0 0 0 0))
    (uuid 0ceb97d6-1b0f-4b71-921e-b0955c30c998)
  )
  (wire (pts (xy 92.71 58.42) (xy 96.52 58.42))
    (stroke (width 0) (type default) (color 0 0 0 0))
    (uuid 0fc5db66-6188-4c1f-bb14-0868bef113eb)
  )
  (wire (pts (xy 200.66 67.31) (xy 193.04 67.31))
    (stroke (width 0) (type default) (color 0 0 0 0))
    (uuid 1241b7f2-e266-4f5c-8a97-9f0f9d0eef37)
  )
  (wire (pts (xy 92.71 72.39) (xy 99.06 72.39))
    (stroke (width 0) (type default) (color 0 0 0 0))
    (uuid 20caf6d2-76a7-497e-ac56-f6d31eb9027b)
  )
  (wire (pts (xy 99.06 72.39) (xy 99.06 55.88))
    (stroke (width 0) (type default) (color 0 0 0 0))
    (uuid 2f291a4b-4ecb-4692-9ad2-324f9784c0d4)
  )
  (wire (pts (xy 92.71 55.88) (xy 99.06 55.88))
    (stroke (width 0) (type default) (color 0 0 0 0))
    (uuid 3d6cdd62-5634-4e30-acf8-1b9c1dbf6653)
  )
  (wire (pts (xy 92.71 78.74) (xy 106.68 78.74))
    (stroke (width 0) (type default) (color 0 0 0 0))
    (uuid 5cae74f7-3cde-4587-993f-0ee8d98402c4)
  )
  (wire (pts (xy 167.64 64.77) (xy 175.26 64.77))
    (stroke (width 0) (type default) (color 0 0 0 0))
    (uuid 5d3d7893-1d11-4f1d-9052-85cf0e07d281)
  )
  (wire (pts (xy 175.26 69.85) (xy 167.64 69.85))
    (stroke (width 0) (type default) (color 0 0 0 0))
    (uuid 626679e8-6101-4722-ac57-5b8d9dab4c8b)
  )
  (wire (pts (xy 99.06 55.88) (xy 106.68 55.88))
    (stroke (width 0) (type default) (color 0 0 0 0))
    (uuid 62a1f3d4-027d-4ecf-a37a-6fcf4263e9d2)
  )
  (wire (pts (xy 106.68 52.07) (xy 92.71 52.07))
    (stroke (width 0) (type default) (color 0 0 0 0))
    (uuid 72508b1f-1505-46cb-9d37-2081c5a12aca)
  )
  (wire (pts (xy 96.52 58.42) (xy 106.68 58.42))
    (stroke (width 0) (type default) (color 0 0 0 0))
    (uuid 759788bd-3cb9-4d38-b58c-5cb10b7dca6b)
  )
  (wire (pts (xy 175.26 67.31) (xy 167.64 67.31))
    (stroke (width 0) (type default) (color 0 0 0 0))
    (uuid 79476267-290e-445f-995b-0afd0e11a4b5)
  )
  (wire (pts (xy 193.04 62.23) (xy 200.66 62.23))
    (stroke (width 0) (type default) (color 0 0 0 0))
    (uuid 7d0dab95-9e7a-486e-a1d7-fc48860fd57d)
  )
  (wire (pts (xy 106.68 113.03) (xy 93.98 113.03))
    (stroke (width 0) (type default) (color 0 0 0 0))
    (uuid 7d76d925-f900-42af-a03f-bb32d2381b09)
  )
  (wire (pts (xy 93.98 101.6) (xy 106.68 101.6))
    (stroke (width 0) (type default) (color 0 0 0 0))
    (uuid 9335792a-550e-47cd-96ce-1db36e6a43a2)
  )
  (wire (pts (xy 106.68 124.46) (xy 93.98 124.46))
    (stroke (width 0) (type default) (color 0 0 0 0))
    (uuid 98fe66f3-ec8b-4515-ae34-617f2124a7ec)
  )
  (wire (pts (xy 93.98 130.81) (xy 106.68 130.81))
    (stroke (width 0) (type default) (color 0 0 0 0))
    (uuid a4c88eb7-6752-46f1-9852-1ff8454dc841)
  )
  (wire (pts (xy 93.98 133.35) (xy 106.68 133.35))
    (stroke (width 0) (type default) (color 0 0 0 0))
    (uuid ae1418fa-f841-4342-b1c8-d2397088d6c9)
  )
  (wire (pts (xy 92.71 69.85) (xy 96.52 69.85))
    (stroke (width 0) (type default) (color 0 0 0 0))
    (uuid bb59b92a-e4d0-4b9e-82cd-26304f5c15b8)
  )
  (wire (pts (xy 92.71 76.2) (xy 106.68 76.2))
    (stroke (width 0) (type default) (color 0 0 0 0))
    (uuid d5106b60-b56c-4f88-b55e-53548875bdb0)
  )
  (wire (pts (xy 106.68 49.53) (xy 92.71 49.53))
    (stroke (width 0) (type default) (color 0 0 0 0))
    (uuid eed466bf-cd88-4860-9abf-41a594ca08bd)
  )
  (wire (pts (xy 96.52 69.85) (xy 96.52 58.42))
    (stroke (width 0) (type default) (color 0 0 0 0))
    (uuid f6983918-fe05-46ea-b355-bc522ec53440)
  )
  (wire (pts (xy 106.68 127) (xy 93.98 127))
    (stroke (width 0) (type default) (color 0 0 0 0))
    (uuid fc3d51c1-8b35-4da3-a742-0ebe104989d7)
  )

  (label "MOSI" (at 175.26 64.77 0)
    (effects (font (size 1.27 1.27)) (justify left bottom))
    (uuid 04cf2f2c-74bf-400d-b4f6-201720df00ed)
  )
  (label "IO0" (at 101.6 58.42 0)
    (effects (font (size 1.27 1.27)) (justify left bottom))
    (uuid 18c61c95-8af1-4986-b67e-c7af9c15ab6b)
  )
  (label "SCLK" (at 175.26 67.31 0)
    (effects (font (size 1.27 1.27)) (justify left bottom))
    (uuid 1bdd5841-68b7-42e2-9447-cbdb608d8a08)
  )
  (label "MISO" (at 193.04 64.77 180)
    (effects (font (size 1.27 1.27)) (justify right bottom))
    (uuid 35ef9c4a-35f6-467b-a704-b1d9354880cf)
  )
  (label "CS_2" (at 193.04 69.85 180)
    (effects (font (size 1.27 1.27)) (justify right bottom))
    (uuid 4da2e60c-eabc-45d7-8560-c8a1a496d984)
  )
  (label "MISO" (at 175.26 62.23 0)
    (effects (font (size 1.27 1.27)) (justify left bottom))
    (uuid 955cc99e-a129-42cf-abc7-aa99813fdb5f)
  )
  (label "SCLK" (at 193.04 62.23 180)
    (effects (font (size 1.27 1.27)) (justify right bottom))
    (uuid a7f25f41-0b4c-4430-b6cd-b2160b2db099)
  )
  (label "MOSI" (at 193.04 67.31 180)
    (effects (font (size 1.27 1.27)) (justify right bottom))
    (uuid b8b961e9-8a60-45fc-999a-a7a3baff4e0d)
  )
  (label "CS_2" (at 175.26 69.85 0)
    (effects (font (size 1.27 1.27)) (justify left bottom))
    (uuid ccc4cc25-ac17-45ef-825c-e079951ffb21)
  )

  (sheet (at 81.28 110.49) (size 12.7 5.08) (fields_autoplaced)
    (stroke (width 0) (type solid) (color 0 0 0 0))
    (fill (color 0 0 0 0.0000))
    (uuid 00000000-0000-0000-0000-00006092fbf4)
    (property "Sheet name" "power" (id 0) (at 81.28 109.7784 0)
      (effects (font (size 1.27 1.27)) (justify left bottom))
    )
    (property "Sheet file" "power.kicad_sch" (id 1) (at 81.28 116.1546 0)
      (effects (font (size 1.27 1.27)) (justify left top))
    )
    (pin "Bat_D" input (at 93.98 113.03 0)
      (effects (font (size 1.27 1.27)) (justify right))
      (uuid 92035a88-6c95-4a61-bd8a-cb8dd9e5018a)
    )
  )

  (sheet (at 106.68 45.72) (size 60.96 92.71) (fields_autoplaced)
    (stroke (width 0) (type solid) (color 0 0 0 0))
    (fill (color 0 0 0 0.0000))
    (uuid 00000000-0000-0000-0000-0000609302c0)
    (property "Sheet name" "Mcu" (id 0) (at 106.68 45.0084 0)
      (effects (font (size 1.27 1.27)) (justify left bottom))
    )
    (property "Sheet file" "Mcu.kicad_sch" (id 1) (at 106.68 139.0146 0)
      (effects (font (size 1.27 1.27)) (justify left top))
    )
    (pin "EN" input (at 106.68 55.88 180)
      (effects (font (size 1.27 1.27)) (justify left))
      (uuid 25bc3602-3fb4-4a04-94e3-21ba22562c24)
    )
    (pin "SENSOR_VP" input (at 106.68 127 180)
      (effects (font (size 1.27 1.27)) (justify left))
      (uuid 7760a75a-d74b-4185-b34e-cbc7b2c339b6)
    )
    (pin "SENSOR_VN" input (at 106.68 124.46 180)
      (effects (font (size 1.27 1.27)) (justify left))
      (uuid c1bac86f-cbf6-4c5b-b60d-c26fa73d9c09)
    )
    (pin "IO34" input (at 167.64 109.22 0)
      (effects (font (size 1.27 1.27)) (justify right))
      (uuid 283c990c-ae5a-4e41-a3ad-b40ca29fe90e)
    )
    (pin "IO35" input (at 106.68 113.03 180)
      (effects (font (size 1.27 1.27)) (justify left))
      (uuid 49575217-40b0-4890-8acf-12982cca52b5)
    )
    (pin "TXD0" input (at 106.68 52.07 180)
      (effects (font (size 1.27 1.27)) (justify left))
      (uuid 4cafb73d-1ad8-4d24-acf7-63d78095ae46)
    )
    (pin "RXD0" input (at 106.68 49.53 180)
      (effects (font (size 1.27 1.27)) (justify left))
      (uuid be4b72db-0e02-4d9b-844a-aff689b4e648)
    )
    (pin "IO0" input (at 106.68 58.42 180)
      (effects (font (size 1.27 1.27)) (justify left))
      (uuid 5889287d-b845-4684-b23e-663811b25d27)
    )
    (pin "IO2" input (at 167.64 101.6 0)
      (effects (font (size 1.27 1.27)) (justify right))
      (uuid 38cfe839-c630-43d3-a9ec-6a89ba9e318a)
    )
    (pin "IO4" input (at 167.64 93.98 0)
      (effects (font (size 1.27 1.27)) (justify right))
      (uuid 269f19c3-6824-45a8-be29-fa58d70cbb42)
    )
    (pin "IO5" input (at 167.64 69.85 0)
      (effects (font (size 1.27 1.27)) (justify right))
      (uuid da481376-0e49-44d3-91b8-aaa39b869dd1)
    )
    (pin "IO12" input (at 167.64 99.06 0)
      (effects (font (size 1.27 1.27)) (justify right))
      (uuid f988d6ea-11c5-4837-b1d1-5c292ded50c6)
    )
    (pin "IO13" input (at 167.64 127 0)
      (effects (font (size 1.27 1.27)) (justify right))
      (uuid d3e133b7-2c84-4206-a2b1-e693cb57fe56)
    )
    (pin "IO14" input (at 167.64 104.14 0)
      (effects (font (size 1.27 1.27)) (justify right))
      (uuid 9aaeec6e-84fe-4644-b0bc-5de24626ff48)
    )
    (pin "IO15" input (at 167.64 129.54 0)
      (effects (font (size 1.27 1.27)) (justify right))
      (uuid 2e0a9f64-1b78-4597-8d50-d12d2268a95a)
    )
    (pin "IO16" input (at 106.68 133.35 180)
      (effects (font (size 1.27 1.27)) (justify left))
      (uuid 582622a2-fad4-4737-9a80-be9fffbba8ab)
    )
    (pin "IO17" input (at 106.68 76.2 180)
      (effects (font (size 1.27 1.27)) (justify left))
      (uuid 1dfbf353-5b24-4c0f-8322-8fcd514ae75e)
    )
    (pin "IO18" input (at 167.64 67.31 0)
      (effects (font (size 1.27 1.27)) (justify right))
      (uuid e0c7ddff-8c90-465f-be62-21fb49b059fa)
    )
    (pin "IO19" input (at 167.64 62.23 0)
      (effects (font (size 1.27 1.27)) (justify right))
      (uuid 337e8520-cbd2-42c0-8d17-743bab17cbbd)
    )
    (pin "IO21" input (at 106.68 101.6 180)
      (effects (font (size 1.27 1.27)) (justify left))
      (uuid fdc60c06-30fa-4dfb-96b4-809b755999e1)
    )
    (pin "IO22" input (at 167.64 116.84 0)
      (effects (font (size 1.27 1.27)) (justify right))
      (uuid f0ff5d1c-5481-4958-b844-4f68a17d4166)
    )
    (pin "IO23" input (at 167.64 64.77 0)
      (effects (font (size 1.27 1.27)) (justify right))
      (uuid 96db52e2-6336-4f5e-846e-528c594d0509)
    )
    (pin "IO25" input (at 106.68 78.74 180)
      (effects (font (size 1.27 1.27)) (justify left))
      (uuid 59fc765e-1357-4c94-9529-5635418c7d73)
    )
    (pin "IO26" input (at 167.64 114.3 0)
      (effects (font (size 1.27 1.27)) (justify right))
      (uuid 89a8e170-a222-41c0-b545-c9f4c5604011)
    )
    (pin "IO27" input (at 167.64 111.76 0)
      (effects (font (size 1.27 1.27)) (justify right))
      (uuid 9529c01f-e1cd-40be-b7f0-83780a544249)
    )
    (pin "IO32" input (at 106.68 130.81 180)
      (effects (font (size 1.27 1.27)) (justify left))
      (uuid d68e5ddb-039c-483f-88a3-1b0b7964b482)
    )
    (pin "IO33" input (at 167.64 121.92 0)
      (effects (font (size 1.27 1.27)) (justify right))
      (uuid 6f580eb1-88cc-489d-a7ca-9efa5e590715)
    )
  )

  (sheet (at 80.01 46.99) (size 12.7 13.97) (fields_autoplaced)
    (stroke (width 0) (type solid) (color 0 0 0 0))
    (fill (color 0 0 0 0.0000))
    (uuid 00000000-0000-0000-0000-0000609302f8)
    (property "Sheet name" "Programmer" (id 0) (at 80.01 46.2784 0)
      (effects (font (size 1.27 1.27)) (justify left bottom))
    )
    (property "Sheet file" "Programmer.kicad_sch" (id 1) (at 80.01 61.5446 0)
      (effects (font (size 1.27 1.27)) (justify left top))
    )
    (pin "RXD0" input (at 92.71 49.53 0)
      (effects (font (size 1.27 1.27)) (justify right))
      (uuid 2db910a0-b943-40b4-b81f-068ba5265f56)
    )
    (pin "TXD0" input (at 92.71 52.07 0)
      (effects (font (size 1.27 1.27)) (justify right))
      (uuid f8bd6470-fafd-47f2-8ed5-9449988187ce)
    )
    (pin "EN" input (at 92.71 55.88 0)
      (effects (font (size 1.27 1.27)) (justify right))
      (uuid 22bb6c80-05a9-4d89-98b0-f4c23fe6c1ce)
    )
    (pin "I0O" input (at 92.71 58.42 0)
      (effects (font (size 1.27 1.27)) (justify right))
      (uuid 802c2dc3-ca9f-491e-9d66-7893e89ac34c)
    )
  )

  (sheet (at 81.28 99.06) (size 12.7 5.08) (fields_autoplaced)
    (stroke (width 0) (type solid) (color 0 0 0 0))
    (fill (color 0 0 0 0.0000))
    (uuid 00000000-0000-0000-0000-0000609303b5)
    (property "Sheet name" "Buzzer" (id 0) (at 81.28 98.3484 0)
      (effects (font (size 1.27 1.27)) (justify left bottom))
    )
    (property "Sheet file" "Buzzer.kicad_sch" (id 1) (at 81.28 104.7246 0)
      (effects (font (size 1.27 1.27)) (justify left top))
    )
    (pin "Buzzer" input (at 93.98 101.6 0)
      (effects (font (size 1.27 1.27)) (justify right))
      (uuid 8458d41c-5d62-455d-b6e1-9f718c0faac9)
    )
  )

  (sheet (at 81.28 121.92) (size 12.7 13.97) (fields_autoplaced)
    (stroke (width 0) (type solid) (color 0 0 0 0))
    (fill (color 0 0 0 0.0000))
    (uuid 00000000-0000-0000-0000-00006093043f)
    (property "Sheet name" "Mosfet" (id 0) (at 81.28 121.2084 0)
      (effects (font (size 1.27 1.27)) (justify left bottom))
    )
    (property "Sheet file" "Mosfet.kicad_sch" (id 1) (at 81.28 136.4746 0)
      (effects (font (size 1.27 1.27)) (justify left top))
    )
    (pin "P2_Oku" input (at 93.98 127 0)
      (effects (font (size 1.27 1.27)) (justify right))
      (uuid a8b4bc7e-da32-4fb8-b71a-d7b47c6f741f)
    )
    (pin "P1_Oku" input (at 93.98 124.46 0)
      (effects (font (size 1.27 1.27)) (justify right))
      (uuid 0fd35a3e-b394-4aae-875a-fac843f9cbb7)
    )
    (pin "P1_Ates" input (at 93.98 130.81 0)
      (effects (font (size 1.27 1.27)) (justify right))
      (uuid c088f712-1abe-4cac-9a8b-d564931395aa)
    )
    (pin "P2_Ates" input (at 93.98 133.35 0)
      (effects (font (size 1.27 1.27)) (justify right))
      (uuid ea6fde00-59dc-4a79-a647-7e38199fae0e)
    )
  )

  (sheet (at 80.01 67.31) (size 12.7 13.97) (fields_autoplaced)
    (stroke (width 0) (type solid) (color 0 0 0 0))
    (fill (color 0 0 0 0.0000))
    (uuid 00000000-0000-0000-0000-0000609304a1)
    (property "Sheet name" "Led_Buton" (id 0) (at 80.01 66.5984 0)
      (effects (font (size 1.27 1.27)) (justify left bottom))
    )
    (property "Sheet file" "Led_Buton.kicad_sch" (id 1) (at 80.01 81.8646 0)
      (effects (font (size 1.27 1.27)) (justify left top))
    )
    (pin "Led1" input (at 92.71 76.2 0)
      (effects (font (size 1.27 1.27)) (justify right))
      (uuid 3e915099-a18e-49f4-89bb-abe64c2dade5)
    )
    (pin "Led2" input (at 92.71 78.74 0)
      (effects (font (size 1.27 1.27)) (justify right))
      (uuid 30317bf0-88bb-49e7-bf8b-9f3883982225)
    )
    (pin "IO0" input (at 92.71 69.85 0)
      (effects (font (size 1.27 1.27)) (justify right))
      (uuid f959907b-1cef-4760-b043-4260a660a2ae)
    )
    (pin "EN" input (at 92.71 72.39 0)
      (effects (font (size 1.27 1.27)) (justify right))
      (uuid cb721686-5255-4788-a3b0-ce4312e32eb7)
    )
  )

  (sheet (at 200.66 59.69) (size 17.78 12.7) (fields_autoplaced)
    (stroke (width 0) (type solid) (color 0 0 0 0))
    (fill (color 0 0 0 0.0000))
    (uuid 00000000-0000-0000-0000-0000609305fe)
    (property "Sheet name" "MS5611" (id 0) (at 200.66 58.9784 0)
      (effects (font (size 1.27 1.27)) (justify left bottom))
    )
    (property "Sheet file" "MS5611.kicad_sch" (id 1) (at 200.66 72.9746 0)
      (effects (font (size 1.27 1.27)) (justify left top))
    )
    (pin "MOSI" input (at 200.66 67.31 180)
      (effects (font (size 1.27 1.27)) (justify left))
      (uuid 0a1a4d88-972a-46ce-b25e-6cb796bd41f7)
    )
    (pin "MISO" input (at 200.66 64.77 180)
      (effects (font (size 1.27 1.27)) (justify left))
      (uuid c9b9e62d-dede-4d1a-9a05-275614f8bdb2)
    )
    (pin "SCLK" input (at 200.66 62.23 180)
      (effects (font (size 1.27 1.27)) (justify left))
      (uuid bdf40d30-88ff-4479-bad1-69529464b61b)
    )
    (pin "CS" input (at 200.66 69.85 180)
      (effects (font (size 1.27 1.27)) (justify left))
      (uuid 57276367-9ce4-4738-88d7-6e8cb94c966c)
    )
  )

  (sheet_instances
    (path "/" (page "1"))
    (path "/00000000-0000-0000-0000-0000609303b5" (page "3"))
    (path "/00000000-0000-0000-0000-0000609304a1" (page "7"))
    (path "/00000000-0000-0000-0000-0000609305fe" (page "9"))
    (path "/00000000-0000-0000-0000-0000609302c0" (page "10"))
    (path "/00000000-0000-0000-0000-00006093043f" (page "11"))
    (path "/00000000-0000-0000-0000-0000609302f8" (page "13"))
    (path "/00000000-0000-0000-0000-00006092fbf4" (page "15"))
  )

  (symbol_instances
    (path "/00000000-0000-0000-0000-0000609303b5/00000000-0000-0000-0000-000060982608"
      (reference "#PWR01") (unit 1) (value "GND") (footprint "")
    )
    (path "/00000000-0000-0000-0000-0000609304a1/00000000-0000-0000-0000-0000609797f4"
      (reference "#PWR02") (unit 1) (value "GND") (footprint "")
    )
    (path "/00000000-0000-0000-0000-0000609304a1/00000000-0000-0000-0000-000060979ab3"
      (reference "#PWR03") (unit 1) (value "GND") (footprint "")
    )
    (path "/00000000-0000-0000-0000-0000609304a1/00000000-0000-0000-0000-0000617c40b8"
      (reference "#PWR04") (unit 1) (value "GND") (footprint "")
    )
    (path "/00000000-0000-0000-0000-0000609304a1/00000000-0000-0000-0000-0000617c3cdd"
      (reference "#PWR05") (unit 1) (value "GND") (footprint "")
    )
    (path "/00000000-0000-0000-0000-0000609304a1/00000000-0000-0000-0000-0000614239cf"
      (reference "#PWR06") (unit 1) (value "GND") (footprint "")
    )
    (path "/00000000-0000-0000-0000-0000609304a1/ea2f98b7-8d05-446f-994d-27ca2b1098b2"
      (reference "#PWR07") (unit 1) (value "+3.3V") (footprint "")
    )
    (path "/00000000-0000-0000-0000-0000609305fe/00000000-0000-0000-0000-000061606e38"
      (reference "#PWR08") (unit 1) (value "GND") (footprint "")
    )
    (path "/00000000-0000-0000-0000-0000609305fe/00000000-0000-0000-0000-000060aceed2"
      (reference "#PWR09") (unit 1) (value "+3.3V") (footprint "")
    )
    (path "/00000000-0000-0000-0000-0000609305fe/00000000-0000-0000-0000-000060aceecc"
      (reference "#PWR010") (unit 1) (value "GND") (footprint "")
    )
    (path "/00000000-0000-0000-0000-0000609302c0/00000000-0000-0000-0000-00006093d8d8"
      (reference "#PWR011") (unit 1) (value "+3.3V") (footprint "")
    )
    (path "/00000000-0000-0000-0000-0000609302c0/00000000-0000-0000-0000-000060942f63"
      (reference "#PWR012") (unit 1) (value "GND") (footprint "")
    )
    (path "/00000000-0000-0000-0000-0000609302c0/00000000-0000-0000-0000-00006093dfce"
      (reference "#PWR013") (unit 1) (value "GND") (footprint "")
    )
    (path "/00000000-0000-0000-0000-0000609302c0/00000000-0000-0000-0000-00006093cb48"
      (reference "#PWR014") (unit 1) (value "+3.3V") (footprint "")
    )
    (path "/00000000-0000-0000-0000-0000609302c0/00000000-0000-0000-0000-000060946688"
      (reference "#PWR015") (unit 1) (value "GND") (footprint "")
    )
    (path "/00000000-0000-0000-0000-00006093043f/00000000-0000-0000-0000-000060acbbdf"
      (reference "#PWR016") (unit 1) (value "GND") (footprint "")
    )
    (path "/00000000-0000-0000-0000-00006093043f/00000000-0000-0000-0000-000060b73c84"
      (reference "#PWR017") (unit 1) (value "+BATT") (footprint "")
    )
    (path "/00000000-0000-0000-0000-00006093043f/00000000-0000-0000-0000-000061770eac"
      (reference "#PWR018") (unit 1) (value "GND") (footprint "")
    )
    (path "/00000000-0000-0000-0000-00006093043f/00000000-0000-0000-0000-00006170e0eb"
      (reference "#PWR019") (unit 1) (value "GND") (footprint "")
    )
    (path "/00000000-0000-0000-0000-00006093043f/00000000-0000-0000-0000-0000609a76c4"
      (reference "#PWR020") (unit 1) (value "GND") (footprint "")
    )
    (path "/00000000-0000-0000-0000-00006093043f/00000000-0000-0000-0000-0000609a76d0"
      (reference "#PWR021") (unit 1) (value "GND") (footprint "")
    )
    (path "/00000000-0000-0000-0000-00006093043f/00000000-0000-0000-0000-0000609a76b8"
      (reference "#PWR022") (unit 1) (value "GND") (footprint "")
    )
    (path "/00000000-0000-0000-0000-00006093043f/00000000-0000-0000-0000-0000609a76b2"
      (reference "#PWR023") (unit 1) (value "GND") (footprint "")
    )
    (path "/00000000-0000-0000-0000-0000609302f8/00000000-0000-0000-0000-0000617d28c8"
      (reference "#PWR024") (unit 1) (value "VCC") (footprint "")
    )
    (path "/00000000-0000-0000-0000-0000609302f8/00000000-0000-0000-0000-000060a407f6"
      (reference "#PWR025") (unit 1) (value "GND") (footprint "")
    )
    (path "/00000000-0000-0000-0000-0000609302f8/00000000-0000-0000-0000-000060987d11"
      (reference "#PWR026") (unit 1) (value "GND") (footprint "")
    )
    (path "/00000000-0000-0000-0000-0000609302f8/00000000-0000-0000-0000-000060a44d30"
      (reference "#PWR027") (unit 1) (value "+3.3V") (footprint "")
    )
    (path "/00000000-0000-0000-0000-0000609302f8/00000000-0000-0000-0000-000061429282"
      (reference "#PWR028") (unit 1) (value "+3.3V") (footprint "")
    )
    (path "/00000000-0000-0000-0000-0000609302f8/00000000-0000-0000-0000-000060a4273f"
      (reference "#PWR029") (unit 1) (value "GND") (footprint "")
    )
    (path "/00000000-0000-0000-0000-0000609302f8/00000000-0000-0000-0000-000060a221de"
      (reference "#PWR030") (unit 1) (value "GND") (footprint "")
    )
    (path "/00000000-0000-0000-0000-0000609302f8/00000000-0000-0000-0000-000060a245b3"
      (reference "#PWR031") (unit 1) (value "+3.3V") (footprint "")
    )
    (path "/00000000-0000-0000-0000-0000609302f8/00000000-0000-0000-0000-000060a22488"
      (reference "#PWR032") (unit 1) (value "GND") (footprint "")
    )
    (path "/00000000-0000-0000-0000-00006092fbf4/00000000-0000-0000-0000-000060abd311"
      (reference "#PWR033") (unit 1) (value "VCC") (footprint "")
    )
    (path "/00000000-0000-0000-0000-00006092fbf4/00000000-0000-0000-0000-000060ab576e"
      (reference "#PWR034") (unit 1) (value "GND") (footprint "")
    )
    (path "/00000000-0000-0000-0000-00006092fbf4/00000000-0000-0000-0000-000060ab5689"
      (reference "#PWR035") (unit 1) (value "GND") (footprint "")
    )
    (path "/00000000-0000-0000-0000-00006092fbf4/00000000-0000-0000-0000-000060ab54f3"
      (reference "#PWR036") (unit 1) (value "GND") (footprint "")
    )
    (path "/00000000-0000-0000-0000-00006092fbf4/00000000-0000-0000-0000-000060ab732e"
      (reference "#PWR037") (unit 1) (value "GND") (footprint "")
    )
    (path "/00000000-0000-0000-0000-00006092fbf4/00000000-0000-0000-0000-000060ab4052"
      (reference "#PWR038") (unit 1) (value "GND") (footprint "")
    )
    (path "/00000000-0000-0000-0000-00006092fbf4/00000000-0000-0000-0000-000060ab5318"
      (reference "#PWR039") (unit 1) (value "GND") (footprint "")
    )
    (path "/00000000-0000-0000-0000-00006092fbf4/00000000-0000-0000-0000-000060ab4cda"
      (reference "#PWR040") (unit 1) (value "GND") (footprint "")
    )
    (path "/00000000-0000-0000-0000-00006092fbf4/00000000-0000-0000-0000-000060ab4dd5"
      (reference "#PWR041") (unit 1) (value "GND") (footprint "")
    )
    (path "/00000000-0000-0000-0000-00006092fbf4/117e7080-234f-49cb-bea2-1e181ff0e17a"
      (reference "#PWR042") (unit 1) (value "+3.3V") (footprint "")
    )
    (path "/00000000-0000-0000-0000-00006092fbf4/00000000-0000-0000-0000-000060ab50cb"
      (reference "#PWR043") (unit 1) (value "GND") (footprint "")
    )
    (path "/00000000-0000-0000-0000-00006092fbf4/00000000-0000-0000-0000-000060abe964"
      (reference "#PWR044") (unit 1) (value "+BATT") (footprint "")
    )
    (path "/00000000-0000-0000-0000-00006092fbf4/00000000-0000-0000-0000-000060a2a7ec"
      (reference "#PWR045") (unit 1) (value "GND") (footprint "")
    )
    (path "/00000000-0000-0000-0000-00006092fbf4/00000000-0000-0000-0000-000060abe055"
      (reference "#PWR046") (unit 1) (value "VCC") (footprint "")
    )
    (path "/00000000-0000-0000-0000-00006092fbf4/00000000-0000-0000-0000-000060acabd1"
      (reference "#PWR047") (unit 1) (value "+BATT") (footprint "")
    )
    (path "/00000000-0000-0000-0000-00006092fbf4/00000000-0000-0000-0000-000060aca01e"
      (reference "#PWR048") (unit 1) (value "GND") (footprint "")
    )
    (path "/00000000-0000-0000-0000-0000609305fe/00000000-0000-0000-0000-000060aceebe"
      (reference "C1") (unit 1) (value "0.1uF") (footprint "others:C_0805_2012Metric")
    )
    (path "/00000000-0000-0000-0000-0000609302c0/00000000-0000-0000-0000-0000609405b2"
      (reference "C2") (unit 1) (value "0.1uF") (footprint "others:C_0805_2012Metric")
    )
    (path "/00000000-0000-0000-0000-0000609302c0/00000000-0000-0000-0000-00006093f1b1"
      (reference "C3") (unit 1) (value "22uF") (footprint "others:C_0805_2012Metric")
    )
    (path "/00000000-0000-0000-0000-0000609302c0/00000000-0000-0000-0000-00006093fd89"
      (reference "C4") (unit 1) (value "0.1uF") (footprint "others:C_0805_2012Metric")
    )
    (path "/00000000-0000-0000-0000-0000609302f8/00000000-0000-0000-0000-000060a221d8"
      (reference "C5") (unit 1) (value "0.1uF") (footprint "others:C_0805_2012Metric")
    )
    (path "/00000000-0000-0000-0000-0000609302f8/00000000-0000-0000-0000-000060a22482"
      (reference "C6") (unit 1) (value "4.7uF") (footprint "others:C_0805_2012Metric")
    )
    (path "/00000000-0000-0000-0000-00006092fbf4/00000000-0000-0000-0000-000060ab2118"
      (reference "C7") (unit 1) (value "22uF") (footprint "others:C_0805_2012Metric")
    )
    (path "/00000000-0000-0000-0000-00006092fbf4/00000000-0000-0000-0000-000060ab236d"
      (reference "C8") (unit 1) (value "10uF") (footprint "others:C_0805_2012Metric")
    )
    (path "/00000000-0000-0000-0000-00006092fbf4/00000000-0000-0000-0000-000060ab24e7"
      (reference "C9") (unit 1) (value "0.1uF") (footprint "others:C_0805_2012Metric")
    )
    (path "/00000000-0000-0000-0000-00006092fbf4/00000000-0000-0000-0000-000060ab1ec5"
      (reference "C10") (unit 1) (value "10uF") (footprint "others:C_0805_2012Metric")
    )
    (path "/00000000-0000-0000-0000-00006092fbf4/00000000-0000-0000-0000-000060aaf6fc"
      (reference "C11") (unit 1) (value "22uF") (footprint "others:C_0805_2012Metric")
    )
    (path "/00000000-0000-0000-0000-00006092fbf4/00000000-0000-0000-0000-000060ab0a25"
      (reference "C12") (unit 1) (value "22uF") (footprint "others:C_0805_2012Metric")
    )
    (path "/00000000-0000-0000-0000-00006092fbf4/00000000-0000-0000-0000-000060ab0c66"
      (reference "C13") (unit 1) (value "22uF") (footprint "others:C_0805_2012Metric")
    )
    (path "/00000000-0000-0000-0000-00006092fbf4/00000000-0000-0000-0000-000060a273b2"
      (reference "C14") (unit 1) (value "UWT1C681MNL1GS") (footprint "others:CAPAE1030X1000N")
    )
    (path "/00000000-0000-0000-0000-0000609304a1/00000000-0000-0000-0000-000060975cbe"
      (reference "D1") (unit 1) (value "LED") (footprint "LED_SMD:LED_0805_2012Metric")
    )
    (path "/00000000-0000-0000-0000-0000609304a1/00000000-0000-0000-0000-00006142304c"
      (reference "D2") (unit 1) (value "LED") (footprint "LED_SMD:LED_0805_2012Metric")
    )
    (path "/00000000-0000-0000-0000-0000609304a1/00000000-0000-0000-0000-0000614239db"
      (reference "D3") (unit 1) (value "LED") (footprint "LED_SMD:LED_0805_2012Metric")
    )
    (path "/00000000-0000-0000-0000-0000609302f8/d6669ff8-4835-4a73-9f5d-55f70ffee610"
      (reference "D4") (unit 1) (value "SS14") (footprint "digikey-footprints:DO-214AC")
    )
    (path "/00000000-0000-0000-0000-00006092fbf4/05937dbb-75d3-4538-8605-04de4b581ef0"
      (reference "D5") (unit 1) (value "SS14") (footprint "digikey-footprints:DO-214AC")
    )
    (path "/00000000-0000-0000-0000-0000609302f8/b9c8d817-eb2a-4fdf-9f38-0b4d5a6ff40e"
      (reference "H1") (unit 1) (value "MountingHole") (footprint "MountingHole:MountingHole_3.2mm_M3")
    )
    (path "/00000000-0000-0000-0000-0000609302f8/4ee90588-d551-4c78-9667-d9c508d3e2c4"
      (reference "H2") (unit 1) (value "MountingHole") (footprint "MountingHole:MountingHole_3.2mm_M3")
    )
    (path "/00000000-0000-0000-0000-0000609302f8/110f49b3-bcf8-4b6e-aae7-42e81d73508c"
      (reference "H3") (unit 1) (value "MountingHole") (footprint "MountingHole:MountingHole_3.2mm_M3")
    )
    (path "/00000000-0000-0000-0000-0000609302f8/c3931e38-18de-4218-86f5-56ae231a9af8"
      (reference "H4") (unit 1) (value "MountingHole") (footprint "MountingHole:MountingHole_3.2mm_M3")
    )
    (path "/00000000-0000-0000-0000-00006093043f/68ebe4ac-3a94-4fc0-bf91-e636ad72e96f"
      (reference "J1") (unit 1) (value "Screw_Terminal_01x05") (footprint "TerminalBlock_4Ucon:TerminalBlock_4Ucon_1x05_P3.50mm_Vertical")
    )
    (path "/00000000-0000-0000-0000-0000609302f8/00000000-0000-0000-0000-000060970dfa"
      (reference "J2") (unit 1) (value "10118194-0001LF") (footprint "digikey-footprints:USB_Micro_B_Female_10118194-0001LF")
    )
    (path "/00000000-0000-0000-0000-00006092fbf4/00000000-0000-0000-0000-000060aac7a2"
      (reference "L1") (unit 1) (value "XFL4020-102MEC") (footprint "others:XFL4020-102MEC")
    )
    (path "/00000000-0000-0000-0000-0000609303b5/00000000-0000-0000-0000-00006097f8e8"
      (reference "LS1") (unit 1) (value "SMI-1027-T-5V-R") (footprint "others:SMI-1027-T-5V-R")
    )
    (path "/00000000-0000-0000-0000-0000609302f8/00000000-0000-0000-0000-000060a18e8c"
      (reference "Q1") (unit 1) (value "SS8050-G") (footprint "digikey-footprints:SOT-23-3")
    )
    (path "/00000000-0000-0000-0000-0000609302f8/00000000-0000-0000-0000-000060a195e8"
      (reference "Q2") (unit 1) (value "SS8050-G") (footprint "digikey-footprints:SOT-23-3")
    )
    (path "/00000000-0000-0000-0000-0000609303b5/00000000-0000-0000-0000-00006098260e"
      (reference "R1") (unit 1) (value "50") (footprint "Resistor_SMD:R_0805_2012Metric")
    )
    (path "/00000000-0000-0000-0000-0000609304a1/00000000-0000-0000-0000-00006097530f"
      (reference "R2") (unit 1) (value "1K") (footprint "Resistor_SMD:R_0805_2012Metric")
    )
    (path "/00000000-0000-0000-0000-0000609304a1/00000000-0000-0000-0000-000061423046"
      (reference "R3") (unit 1) (value "1K") (footprint "Resistor_SMD:R_0805_2012Metric")
    )
    (path "/00000000-0000-0000-0000-0000609304a1/00000000-0000-0000-0000-0000614239d5"
      (reference "R4") (unit 1) (value "1K") (footprint "Resistor_SMD:R_0805_2012Metric")
    )
    (path "/00000000-0000-0000-0000-0000609302c0/00000000-0000-0000-0000-000060941843"
      (reference "R5") (unit 1) (value "10K") (footprint "Resistor_SMD:R_0805_2012Metric")
    )
    (path "/00000000-0000-0000-0000-00006093043f/00000000-0000-0000-0000-0000609a7693"
      (reference "R6") (unit 1) (value "100") (footprint "Resistor_SMD:R_0805_2012Metric")
    )
    (path "/00000000-0000-0000-0000-00006093043f/00000000-0000-0000-0000-0000609a769f"
      (reference "R7") (unit 1) (value "100") (footprint "Resistor_SMD:R_0805_2012Metric")
    )
    (path "/00000000-0000-0000-0000-00006093043f/00000000-0000-0000-0000-00006176d978"
      (reference "R8") (unit 1) (value "100k") (footprint "Resistor_SMD:R_0805_2012Metric")
    )
    (path "/00000000-0000-0000-0000-00006093043f/00000000-0000-0000-0000-0000609a768d"
      (reference "R9") (unit 1) (value "100K") (footprint "Resistor_SMD:R_0805_2012Metric")
    )
    (path "/00000000-0000-0000-0000-00006093043f/00000000-0000-0000-0000-0000609a7681"
      (reference "R10") (unit 1) (value "560K") (footprint "Resistor_SMD:R_0805_2012Metric")
    )
    (path "/00000000-0000-0000-0000-00006093043f/00000000-0000-0000-0000-0000609a7687"
      (reference "R11") (unit 1) (value "100K") (footprint "Resistor_SMD:R_0805_2012Metric")
    )
    (path "/00000000-0000-0000-0000-00006093043f/00000000-0000-0000-0000-0000609a7675"
      (reference "R12") (unit 1) (value "560K") (footprint "Resistor_SMD:R_0805_2012Metric")
    )
    (path "/00000000-0000-0000-0000-00006093043f/00000000-0000-0000-0000-0000609a767b"
      (reference "R13") (unit 1) (value "100K") (footprint "Resistor_SMD:R_0805_2012Metric")
    )
    (path "/00000000-0000-0000-0000-0000609302f8/00000000-0000-0000-0000-000060a22d31"
      (reference "R14") (unit 1) (value "10K") (footprint "Resistor_SMD:R_0805_2012Metric")
    )
    (path "/00000000-0000-0000-0000-0000609302f8/00000000-0000-0000-0000-000060a22ea8"
      (reference "R15") (unit 1) (value "10K") (footprint "Resistor_SMD:R_0805_2012Metric")
    )
    (path "/00000000-0000-0000-0000-0000609302f8/00000000-0000-0000-0000-000060a43ee1"
      (reference "R16") (unit 1) (value "2K") (footprint "Resistor_SMD:R_0805_2012Metric")
    )
    (path "/00000000-0000-0000-0000-00006092fbf4/00000000-0000-0000-0000-000060ab2fab"
      (reference "R17") (unit 1) (value "10K") (footprint "Resistor_SMD:R_0805_2012Metric")
    )
    (path "/00000000-0000-0000-0000-00006092fbf4/00000000-0000-0000-0000-000060ab02a2"
      (reference "R18") (unit 1) (value "470K") (footprint "Resistor_SMD:R_0805_2012Metric")
    )
    (path "/00000000-0000-0000-0000-00006092fbf4/00000000-0000-0000-0000-000060ab2d62"
      (reference "R19") (unit 1) (value "150K") (footprint "Resistor_SMD:R_0805_2012Metric")
    )
    (path "/00000000-0000-0000-0000-00006092fbf4/00000000-0000-0000-0000-000060aca012"
      (reference "R20") (unit 1) (value "560K") (footprint "Resistor_SMD:R_0805_2012Metric")
    )
    (path "/00000000-0000-0000-0000-00006092fbf4/00000000-0000-0000-0000-000060aca018"
      (reference "R21") (unit 1) (value "100K") (footprint "Resistor_SMD:R_0805_2012Metric")
    )
    (path "/00000000-0000-0000-0000-0000609304a1/00000000-0000-0000-0000-000060974072"
      (reference "S1") (unit 1) (value "TL1015AF160QG") (footprint "others:TL1015AF160QG")
    )
    (path "/00000000-0000-0000-0000-0000609304a1/00000000-0000-0000-0000-0000609748f7"
      (reference "S2") (unit 1) (value "TL1015AF160QG") (footprint "others:TL1015AF160QG")
    )
    (path "/00000000-0000-0000-0000-0000609305fe/00000000-0000-0000-0000-000061605d72"
      (reference "U1") (unit 1) (value "MS5611-01BA") (footprint "Package_LGA:LGA-8_3x5mm_P1.25mm")
    )
    (path "/00000000-0000-0000-0000-0000609302c0/d6338e99-c56c-4b79-a408-3a4171ac9d24"
      (reference "U2") (unit 1) (value "ESP32-WROOM-32D") (footprint "others:ESP32-WROOM-32D")
    )
    (path "/00000000-0000-0000-0000-00006093043f/00000000-0000-0000-0000-0000609a766f"
      (reference "U3") (unit 1) (value "SI4202DY-T1-GE3") (footprint "others:SI4202DY-T1-GE3")
    )
    (path "/00000000-0000-0000-0000-0000609302f8/00000000-0000-0000-0000-000060a1778d"
      (reference "U4") (unit 1) (value "CP2102N-A01-GQFN28") (footprint "Package_DFN_QFN:QFN-28-1EP_5x5mm_P0.5mm_EP3.35x3.35mm")
    )
    (path "/00000000-0000-0000-0000-00006092fbf4/00000000-0000-0000-0000-000060aaa908"
      (reference "U5") (unit 1) (value "TPS630702RNMR") (footprint "others:TPS63070RNMT")
    )
  )
)
