(kicad_sch (version 20211123) (generator eeschema)

  (uuid 1bf7d0f9-0dcf-4d7c-b58c-318e3dc42bc9)

  (paper "A4")

  (lib_symbols
    (symbol "BNO080:BNO080" (pin_names (offset 1.016)) (in_bom yes) (on_board yes)
      (property "Reference" "U" (id 0) (at -20.32 26.67 0)
        (effects (font (size 1.27 1.27)) (justify left bottom))
      )
      (property "Value" "BNO080" (id 1) (at -20.32 -29.21 0)
        (effects (font (size 1.27 1.27)) (justify left bottom))
      )
      (property "Footprint" "IC_BNO080" (id 2) (at 0 0 0)
        (effects (font (size 1.27 1.27)) (justify left bottom) hide)
      )
      (property "Datasheet" "" (id 3) (at 0 0 0)
        (effects (font (size 1.27 1.27)) (justify left bottom) hide)
      )
      (property "PARTREV" "1.6" (id 4) (at 0 0 0)
        (effects (font (size 1.27 1.27)) (justify left bottom) hide)
      )
      (property "MANUFACTURER" "Hillcrest Laboratories, Inc." (id 5) (at 0 0 0)
        (effects (font (size 1.27 1.27)) (justify left bottom) hide)
      )
      (property "MAXIMUM_PACKAGE_HEIGHT" "1.180 mm" (id 6) (at 0 0 0)
        (effects (font (size 1.27 1.27)) (justify left bottom) hide)
      )
      (property "STANDARD" "Manufacturer Recommendations" (id 7) (at 0 0 0)
        (effects (font (size 1.27 1.27)) (justify left bottom) hide)
      )
      (property "ki_locked" "" (id 8) (at 0 0 0)
        (effects (font (size 1.27 1.27)))
      )
      (symbol "BNO080_0_0"
        (rectangle (start -20.32 -25.4) (end 20.32 25.4)
          (stroke (width 0.1524) (type default) (color 0 0 0 0))
          (fill (type background))
        )
        (pin input line (at 25.4 -17.78 180) (length 5.08)
          (name "CLKSEL0" (effects (font (size 1.016 1.016))))
          (number "10" (effects (font (size 1.016 1.016))))
        )
        (pin input line (at 25.4 1.27 180) (length 5.08)
          (name "~{RST}" (effects (font (size 1.016 1.016))))
          (number "11" (effects (font (size 1.016 1.016))))
        )
        (pin output line (at 25.4 3.81 180) (length 5.08)
          (name "~{H_INT}" (effects (font (size 1.016 1.016))))
          (number "14" (effects (font (size 1.016 1.016))))
        )
        (pin bidirectional clock (at -25.4 -2.54 0) (length 5.08)
          (name "ENV_SCL" (effects (font (size 1.016 1.016))))
          (number "15" (effects (font (size 1.016 1.016))))
        )
        (pin bidirectional line (at -25.4 0 0) (length 5.08)
          (name "ENV_SDA" (effects (font (size 1.016 1.016))))
          (number "16" (effects (font (size 1.016 1.016))))
        )
        (pin input line (at 25.4 8.89 180) (length 5.08)
          (name "SA0/H_MOSI" (effects (font (size 1.016 1.016))))
          (number "17" (effects (font (size 1.016 1.016))))
        )
        (pin input line (at 25.4 6.35 180) (length 5.08)
          (name "~{H_CS}" (effects (font (size 1.016 1.016))))
          (number "18" (effects (font (size 1.016 1.016))))
        )
        (pin bidirectional line (at 25.4 13.97 180) (length 5.08)
          (name "H_SCL/SCK/RX" (effects (font (size 1.016 1.016))))
          (number "19" (effects (font (size 1.016 1.016))))
        )
        (pin power_in line (at 25.4 -22.86 180) (length 5.08)
          (name "GND" (effects (font (size 1.016 1.016))))
          (number "2" (effects (font (size 1.016 1.016))))
        )
        (pin bidirectional line (at 25.4 11.43 180) (length 5.08)
          (name "H_SDA/H_MISO/TX" (effects (font (size 1.016 1.016))))
          (number "20" (effects (font (size 1.016 1.016))))
        )
        (pin power_in line (at 25.4 -20.32 180) (length 5.08)
          (name "GNDIO" (effects (font (size 1.016 1.016))))
          (number "25" (effects (font (size 1.016 1.016))))
        )
        (pin output line (at 25.4 -12.7 180) (length 5.08)
          (name "XOUT32/CLKSEL1" (effects (font (size 1.016 1.016))))
          (number "26" (effects (font (size 1.016 1.016))))
        )
        (pin input line (at 25.4 -10.16 180) (length 5.08)
          (name "XIN32" (effects (font (size 1.016 1.016))))
          (number "27" (effects (font (size 1.016 1.016))))
        )
        (pin power_in line (at 25.4 20.32 180) (length 5.08)
          (name "VDDIO" (effects (font (size 1.016 1.016))))
          (number "28" (effects (font (size 1.016 1.016))))
        )
        (pin power_in line (at 25.4 22.86 180) (length 5.08)
          (name "VDD" (effects (font (size 1.016 1.016))))
          (number "3" (effects (font (size 1.016 1.016))))
        )
        (pin input line (at -25.4 15.24 0) (length 5.08)
          (name "~{BOOT}" (effects (font (size 1.016 1.016))))
          (number "4" (effects (font (size 1.016 1.016))))
        )
        (pin input line (at -25.4 22.86 0) (length 5.08)
          (name "PS1" (effects (font (size 1.016 1.016))))
          (number "5" (effects (font (size 1.016 1.016))))
        )
        (pin input line (at -25.4 20.32 0) (length 5.08)
          (name "PS0/WAKE" (effects (font (size 1.016 1.016))))
          (number "6" (effects (font (size 1.016 1.016))))
        )
        (pin passive line (at -25.4 -21.59 0) (length 5.08)
          (name "CAP" (effects (font (size 1.016 1.016))))
          (number "9" (effects (font (size 1.016 1.016))))
        )
      )
    )
    (symbol "Device:R_US" (pin_numbers hide) (pin_names (offset 0)) (in_bom yes) (on_board yes)
      (property "Reference" "R" (id 0) (at 2.54 0 90)
        (effects (font (size 1.27 1.27)))
      )
      (property "Value" "R_US" (id 1) (at -2.54 0 90)
        (effects (font (size 1.27 1.27)))
      )
      (property "Footprint" "" (id 2) (at 1.016 -0.254 90)
        (effects (font (size 1.27 1.27)) hide)
      )
      (property "Datasheet" "~" (id 3) (at 0 0 0)
        (effects (font (size 1.27 1.27)) hide)
      )
      (property "ki_keywords" "R res resistor" (id 4) (at 0 0 0)
        (effects (font (size 1.27 1.27)) hide)
      )
      (property "ki_description" "Resistor, US symbol" (id 5) (at 0 0 0)
        (effects (font (size 1.27 1.27)) hide)
      )
      (property "ki_fp_filters" "R_*" (id 6) (at 0 0 0)
        (effects (font (size 1.27 1.27)) hide)
      )
      (symbol "R_US_0_1"
        (polyline
          (pts
            (xy 0 -2.286)
            (xy 0 -2.54)
          )
          (stroke (width 0) (type default) (color 0 0 0 0))
          (fill (type none))
        )
        (polyline
          (pts
            (xy 0 2.286)
            (xy 0 2.54)
          )
          (stroke (width 0) (type default) (color 0 0 0 0))
          (fill (type none))
        )
        (polyline
          (pts
            (xy 0 -0.762)
            (xy 1.016 -1.143)
            (xy 0 -1.524)
            (xy -1.016 -1.905)
            (xy 0 -2.286)
          )
          (stroke (width 0) (type default) (color 0 0 0 0))
          (fill (type none))
        )
        (polyline
          (pts
            (xy 0 0.762)
            (xy 1.016 0.381)
            (xy 0 0)
            (xy -1.016 -0.381)
            (xy 0 -0.762)
          )
          (stroke (width 0) (type default) (color 0 0 0 0))
          (fill (type none))
        )
        (polyline
          (pts
            (xy 0 2.286)
            (xy 1.016 1.905)
            (xy 0 1.524)
            (xy -1.016 1.143)
            (xy 0 0.762)
          )
          (stroke (width 0) (type default) (color 0 0 0 0))
          (fill (type none))
        )
      )
      (symbol "R_US_1_1"
        (pin passive line (at 0 3.81 270) (length 1.27)
          (name "~" (effects (font (size 1.27 1.27))))
          (number "1" (effects (font (size 1.27 1.27))))
        )
        (pin passive line (at 0 -3.81 90) (length 1.27)
          (name "~" (effects (font (size 1.27 1.27))))
          (number "2" (effects (font (size 1.27 1.27))))
        )
      )
    )
    (symbol "SparkFun-Clocks:CRYSTAL-32.768KHZSMD-3.2X1.5" (pin_numbers hide) (pin_names (offset 1.016) hide) (in_bom yes) (on_board yes)
      (property "Reference" "Y" (id 0) (at 0 2.54 0)
        (effects (font (size 1.143 1.143)) (justify left bottom))
      )
      (property "Value" "SparkFun-Clocks_CRYSTAL-32.768KHZSMD-3.2X1.5" (id 1) (at 0 -3.81 0)
        (effects (font (size 1.143 1.143)) (justify left bottom))
      )
      (property "Footprint" "CRYSTAL-SMD-3.2X1.5MM" (id 2) (at 0 5.08 0)
        (effects (font (size 0.508 0.508)) hide)
      )
      (property "Datasheet" "" (id 3) (at 0 0 0)
        (effects (font (size 1.27 1.27)) hide)
      )
      (property "Field4" "XTAL-13062" (id 4) (at 0 6.35 0)
        (effects (font (size 1.524 1.524)))
      )
      (property "ki_locked" "" (id 5) (at 0 0 0)
        (effects (font (size 1.27 1.27)))
      )
      (property "ki_fp_filters" "*CRYSTAL-SMD-3.2X1.5MM*" (id 6) (at 0 0 0)
        (effects (font (size 1.27 1.27)) hide)
      )
      (symbol "CRYSTAL-32.768KHZSMD-3.2X1.5_1_0"
        (polyline
          (pts
            (xy -2.54 0)
            (xy -1.016 0)
          )
          (stroke (width 0) (type default) (color 0 0 0 0))
          (fill (type none))
        )
        (polyline
          (pts
            (xy -1.016 1.778)
            (xy -1.016 -1.778)
          )
          (stroke (width 0) (type default) (color 0 0 0 0))
          (fill (type none))
        )
        (polyline
          (pts
            (xy 1.016 0)
            (xy 2.54 0)
          )
          (stroke (width 0) (type default) (color 0 0 0 0))
          (fill (type none))
        )
        (polyline
          (pts
            (xy 1.016 1.778)
            (xy 1.016 -1.778)
          )
          (stroke (width 0) (type default) (color 0 0 0 0))
          (fill (type none))
        )
        (text "1" (at -1.8288 -0.7874 0)
          (effects (font (size 0.6858 0.6858)))
        )
        (text "2" (at 1.8542 -0.7874 0)
          (effects (font (size 0.6858 0.6858)))
        )
      )
      (symbol "CRYSTAL-32.768KHZSMD-3.2X1.5_1_1"
        (polyline
          (pts
            (xy -0.381 1.524)
            (xy -0.381 -1.524)
            (xy 0.381 -1.524)
            (xy 0.381 1.524)
            (xy -0.381 1.524)
          )
          (stroke (width 0) (type default) (color 0 0 0 0))
          (fill (type background))
        )
        (pin passive line (at -2.54 0 0) (length 0)
          (name "1" (effects (font (size 1.016 1.016))))
          (number "P$1" (effects (font (size 1.016 1.016))))
        )
        (pin passive line (at 2.54 0 180) (length 0)
          (name "2" (effects (font (size 1.016 1.016))))
          (number "P$2" (effects (font (size 1.016 1.016))))
        )
      )
    )
    (symbol "power:+3.3V" (power) (pin_names (offset 0)) (in_bom yes) (on_board yes)
      (property "Reference" "#PWR" (id 0) (at 0 -3.81 0)
        (effects (font (size 1.27 1.27)) hide)
      )
      (property "Value" "+3.3V" (id 1) (at 0 3.556 0)
        (effects (font (size 1.27 1.27)))
      )
      (property "Footprint" "" (id 2) (at 0 0 0)
        (effects (font (size 1.27 1.27)) hide)
      )
      (property "Datasheet" "" (id 3) (at 0 0 0)
        (effects (font (size 1.27 1.27)) hide)
      )
      (property "ki_keywords" "power-flag" (id 4) (at 0 0 0)
        (effects (font (size 1.27 1.27)) hide)
      )
      (property "ki_description" "Power symbol creates a global label with name \"+3.3V\"" (id 5) (at 0 0 0)
        (effects (font (size 1.27 1.27)) hide)
      )
      (symbol "+3.3V_0_1"
        (polyline
          (pts
            (xy -0.762 1.27)
            (xy 0 2.54)
          )
          (stroke (width 0) (type default) (color 0 0 0 0))
          (fill (type none))
        )
        (polyline
          (pts
            (xy 0 0)
            (xy 0 2.54)
          )
          (stroke (width 0) (type default) (color 0 0 0 0))
          (fill (type none))
        )
        (polyline
          (pts
            (xy 0 2.54)
            (xy 0.762 1.27)
          )
          (stroke (width 0) (type default) (color 0 0 0 0))
          (fill (type none))
        )
      )
      (symbol "+3.3V_1_1"
        (pin power_in line (at 0 0 90) (length 0) hide
          (name "+3V3" (effects (font (size 1.27 1.27))))
          (number "1" (effects (font (size 1.27 1.27))))
        )
      )
    )
    (symbol "power:GND" (power) (pin_names (offset 0)) (in_bom yes) (on_board yes)
      (property "Reference" "#PWR" (id 0) (at 0 -6.35 0)
        (effects (font (size 1.27 1.27)) hide)
      )
      (property "Value" "GND" (id 1) (at 0 -3.81 0)
        (effects (font (size 1.27 1.27)))
      )
      (property "Footprint" "" (id 2) (at 0 0 0)
        (effects (font (size 1.27 1.27)) hide)
      )
      (property "Datasheet" "" (id 3) (at 0 0 0)
        (effects (font (size 1.27 1.27)) hide)
      )
      (property "ki_keywords" "power-flag" (id 4) (at 0 0 0)
        (effects (font (size 1.27 1.27)) hide)
      )
      (property "ki_description" "Power symbol creates a global label with name \"GND\" , ground" (id 5) (at 0 0 0)
        (effects (font (size 1.27 1.27)) hide)
      )
      (symbol "GND_0_1"
        (polyline
          (pts
            (xy 0 0)
            (xy 0 -1.27)
            (xy 1.27 -1.27)
            (xy 0 -2.54)
            (xy -1.27 -1.27)
            (xy 0 -1.27)
          )
          (stroke (width 0) (type default) (color 0 0 0 0))
          (fill (type none))
        )
      )
      (symbol "GND_1_1"
        (pin power_in line (at 0 0 270) (length 0) hide
          (name "GND" (effects (font (size 1.27 1.27))))
          (number "1" (effects (font (size 1.27 1.27))))
        )
      )
    )
    (symbol "roket-rescue:Cap-805_cap" (pin_names (offset 1.016) hide) (in_bom yes) (on_board yes)
      (property "Reference" "C" (id 0) (at 0 3.81 0)
        (effects (font (size 1.27 1.27)) (justify left bottom))
      )
      (property "Value" "Cap-805_cap" (id 1) (at 0 -5.08 0)
        (effects (font (size 1.27 1.27)) (justify left bottom))
      )
      (property "Footprint" "CAPC2012X135N" (id 2) (at 0 0 0)
        (effects (font (size 1.27 1.27)) (justify left bottom) hide)
      )
      (property "Datasheet" "" (id 3) (at 0 0 0)
        (effects (font (size 1.27 1.27)) (justify left bottom) hide)
      )
      (property "ki_locked" "" (id 4) (at 0 0 0)
        (effects (font (size 1.27 1.27)))
      )
      (symbol "Cap-805_cap_0_0"
        (rectangle (start 0 -1.905) (end 0.635 1.905)
          (stroke (width 0) (type default) (color 0 0 0 0))
          (fill (type outline))
        )
        (rectangle (start 1.905 -1.905) (end 2.54 1.905)
          (stroke (width 0) (type default) (color 0 0 0 0))
          (fill (type outline))
        )
        (pin passive line (at 5.08 0 180) (length 2.54)
          (name "~" (effects (font (size 1.016 1.016))))
          (number "1" (effects (font (size 1.016 1.016))))
        )
        (pin passive line (at -2.54 0 0) (length 2.54)
          (name "~" (effects (font (size 1.016 1.016))))
          (number "2" (effects (font (size 1.016 1.016))))
        )
      )
    )
  )

  (junction (at 196.85 111.76) (diameter 0) (color 0 0 0 0)
    (uuid 15189cef-9045-423b-b4f6-a763d4e75704)
  )
  (junction (at 185.42 111.76) (diameter 0) (color 0 0 0 0)
    (uuid 2a4111b7-8149-4814-9344-3b8119cd75e4)
  )
  (junction (at 176.53 121.92) (diameter 0) (color 0 0 0 0)
    (uuid 35fb7c56-dc85-43f7-b954-81b8040a8500)
  )
  (junction (at 176.53 74.93) (diameter 0) (color 0 0 0 0)
    (uuid 92a23ed4-a5ea-4cea-bc33-0a83191a0d32)
  )
  (junction (at 176.53 76.2) (diameter 0) (color 0 0 0 0)
    (uuid 9de304ba-fba7-4896-b969-9d87a3522d74)
  )
  (junction (at 191.77 124.46) (diameter 0) (color 0 0 0 0)
    (uuid a239fd1d-dfbb-49fd-b565-8c3de9dcf42b)
  )
  (junction (at 125.73 76.2) (diameter 0) (color 0 0 0 0)
    (uuid b1ba92d5-0d41-4be9-b483-47d08dc1785d)
  )
  (junction (at 176.53 119.38) (diameter 0) (color 0 0 0 0)
    (uuid ba116096-3ccc-4cc8-a185-5325439e4e24)
  )
  (junction (at 123.19 71.12) (diameter 0) (color 0 0 0 0)
    (uuid da862bae-4511-4bb9-b18d-fa60a2737feb)
  )

  (no_connect (at 125.73 101.6) (uuid 09bbea88-8bd7-48ec-baae-1b4a9a11a40e))
  (no_connect (at 125.73 99.06) (uuid 41c18011-40db-4384-9ba4-c0158d0d9d6a))

  (wire (pts (xy 185.42 124.46) (xy 191.77 124.46))
    (stroke (width 0) (type default) (color 0 0 0 0))
    (uuid 06665bf8-cef1-4e75-8d5b-1537b3c1b090)
  )
  (wire (pts (xy 196.85 111.76) (xy 193.04 111.76))
    (stroke (width 0) (type default) (color 0 0 0 0))
    (uuid 0e32af77-726b-4e11-9f99-2e2484ba9e9b)
  )
  (wire (pts (xy 187.96 111.76) (xy 185.42 111.76))
    (stroke (width 0) (type default) (color 0 0 0 0))
    (uuid 152cd84e-bbed-4df5-a866-d1ab977b0966)
  )
  (wire (pts (xy 176.53 74.93) (xy 176.53 76.2))
    (stroke (width 0) (type default) (color 0 0 0 0))
    (uuid 165f4d8d-26a9-4cf2-a8d6-9936cd983be4)
  )
  (wire (pts (xy 191.77 83.82) (xy 191.77 82.55))
    (stroke (width 0) (type default) (color 0 0 0 0))
    (uuid 2ee28fa9-d785-45a1-9a1b-1be02ad8cd0b)
  )
  (wire (pts (xy 120.65 120.65) (xy 120.65 123.19))
    (stroke (width 0) (type default) (color 0 0 0 0))
    (uuid 319c683d-aed6-4e7d-aee2-ff9871746d52)
  )
  (wire (pts (xy 176.53 116.84) (xy 176.53 119.38))
    (stroke (width 0) (type default) (color 0 0 0 0))
    (uuid 3e87b259-dfc1-4885-8dcf-7e7ae39674ed)
  )
  (wire (pts (xy 176.53 124.46) (xy 176.53 121.92))
    (stroke (width 0) (type default) (color 0 0 0 0))
    (uuid 4e677390-a246-4ca0-954c-746e0870f88f)
  )
  (wire (pts (xy 185.42 111.76) (xy 185.42 115.57))
    (stroke (width 0) (type default) (color 0 0 0 0))
    (uuid 560d05a7-84e4-403a-80d1-f287a4032b8a)
  )
  (wire (pts (xy 125.73 120.65) (xy 120.65 120.65))
    (stroke (width 0) (type default) (color 0 0 0 0))
    (uuid 56d2bc5d-fd72-4542-ab0f-053a5fd60efa)
  )
  (wire (pts (xy 176.53 78.74) (xy 176.53 76.2))
    (stroke (width 0) (type default) (color 0 0 0 0))
    (uuid 58cc7831-f944-4d33-8c61-2fd5bebc61e0)
  )
  (wire (pts (xy 185.42 123.19) (xy 185.42 124.46))
    (stroke (width 0) (type default) (color 0 0 0 0))
    (uuid 62f15a9a-9893-486e-9ad0-ea43f88fc9e7)
  )
  (wire (pts (xy 176.53 109.22) (xy 196.85 109.22))
    (stroke (width 0) (type default) (color 0 0 0 0))
    (uuid 637e9edf-ffed-49a2-8408-fa110c9a4c79)
  )
  (wire (pts (xy 123.19 71.12) (xy 125.73 71.12))
    (stroke (width 0) (type default) (color 0 0 0 0))
    (uuid 645bdbdc-8f65-42ef-a021-2d3e7d74a739)
  )
  (wire (pts (xy 176.53 74.93) (xy 191.77 74.93))
    (stroke (width 0) (type default) (color 0 0 0 0))
    (uuid 73ee7e03-97a8-4121-b568-c25f3934a935)
  )
  (wire (pts (xy 196.85 111.76) (xy 196.85 115.57))
    (stroke (width 0) (type default) (color 0 0 0 0))
    (uuid 8a427111-6480-4b0c-b097-d8b6a0ee1819)
  )
  (wire (pts (xy 120.65 71.12) (xy 120.65 73.66))
    (stroke (width 0) (type default) (color 0 0 0 0))
    (uuid 8b963561-586b-4575-b721-87e7914602c6)
  )
  (wire (pts (xy 176.53 72.39) (xy 176.53 74.93))
    (stroke (width 0) (type default) (color 0 0 0 0))
    (uuid 9fdca5c2-1fbd-4774-a9c3-8795a40c206d)
  )
  (wire (pts (xy 176.53 119.38) (xy 176.53 121.92))
    (stroke (width 0) (type default) (color 0 0 0 0))
    (uuid a0d52767-051a-423c-a600-928281f27952)
  )
  (wire (pts (xy 196.85 111.76) (xy 196.85 109.22))
    (stroke (width 0) (type default) (color 0 0 0 0))
    (uuid a686ed7c-c2d1-4d29-9d54-727faf9fd6bf)
  )
  (wire (pts (xy 196.85 124.46) (xy 196.85 123.19))
    (stroke (width 0) (type default) (color 0 0 0 0))
    (uuid b2b363dd-8e47-4a76-a142-e00e28334875)
  )
  (wire (pts (xy 176.53 111.76) (xy 185.42 111.76))
    (stroke (width 0) (type default) (color 0 0 0 0))
    (uuid b456cffc-d9d7-4c91-91f2-36ec9a65dd1b)
  )
  (wire (pts (xy 120.65 81.28) (xy 120.65 83.82))
    (stroke (width 0) (type default) (color 0 0 0 0))
    (uuid b7c09c15-282b-4731-8942-008851172201)
  )
  (wire (pts (xy 123.19 71.12) (xy 120.65 71.12))
    (stroke (width 0) (type default) (color 0 0 0 0))
    (uuid b8c8c7a1-d546-4878-9de9-463ec76dff98)
  )
  (wire (pts (xy 125.73 71.12) (xy 125.73 76.2))
    (stroke (width 0) (type default) (color 0 0 0 0))
    (uuid bf6104a1-a529-4c00-b4ae-92001543f7ec)
  )
  (wire (pts (xy 191.77 125.73) (xy 191.77 124.46))
    (stroke (width 0) (type default) (color 0 0 0 0))
    (uuid c15b2f75-2e10-4b71-bebb-e2b872171b92)
  )
  (wire (pts (xy 120.65 132.08) (xy 120.65 130.81))
    (stroke (width 0) (type default) (color 0 0 0 0))
    (uuid c512fed3-9770-476b-b048-e781b4f3cd72)
  )
  (wire (pts (xy 191.77 124.46) (xy 196.85 124.46))
    (stroke (width 0) (type default) (color 0 0 0 0))
    (uuid d32956af-146b-4a09-a053-d9d64b8dd86d)
  )
  (wire (pts (xy 125.73 83.82) (xy 120.65 83.82))
    (stroke (width 0) (type default) (color 0 0 0 0))
    (uuid ef94502b-f22d-4da7-a17f-4100090b03a1)
  )
  (wire (pts (xy 125.73 76.2) (xy 125.73 78.74))
    (stroke (width 0) (type default) (color 0 0 0 0))
    (uuid f6a3288e-9575-42bb-af05-a920d59aded8)
  )

  (hierarchical_label "CS" (shape input) (at 176.53 92.71 0)
    (effects (font (size 1.27 1.27)) (justify left))
    (uuid 59f60168-cced-43c9-aaa5-41a1a8a2f631)
  )
  (hierarchical_label "MISO" (shape input) (at 176.53 87.63 0)
    (effects (font (size 1.27 1.27)) (justify left))
    (uuid 74855e0d-40e4-4940-a544-edae9207b2ea)
  )
  (hierarchical_label "RST" (shape input) (at 176.53 97.79 0)
    (effects (font (size 1.27 1.27)) (justify left))
    (uuid 7f064424-06a6-4f5b-87d6-1970ae527766)
  )
  (hierarchical_label "SCLK" (shape input) (at 176.53 85.09 0)
    (effects (font (size 1.27 1.27)) (justify left))
    (uuid 8e697b96-cf4c-43ef-b321-8c2422b088bf)
  )
  (hierarchical_label "INT" (shape input) (at 176.53 95.25 0)
    (effects (font (size 1.27 1.27)) (justify left))
    (uuid a2a0f5cc-b5aa-4e3e-8d85-23bdc2f59aec)
  )
  (hierarchical_label "MOSI" (shape input) (at 176.53 90.17 0)
    (effects (font (size 1.27 1.27)) (justify left))
    (uuid d68dca9b-48b3-498b-9b5f-3b3838250f82)
  )

  (symbol (lib_id "roket-rescue:Cap-805_cap") (at 120.65 125.73 90) (mirror x)
    (in_bom yes) (on_board yes)
    (uuid 00000000-0000-0000-0000-000060a368c2)
    (property "Reference" "C21" (id 0) (at 118.0338 125.8316 90)
      (effects (font (size 1.27 1.27)) (justify left))
    )
    (property "Value" "0.1uF" (id 1) (at 118.0338 128.143 90)
      (effects (font (size 1.27 1.27)) (justify left))
    )
    (property "Footprint" "Capacitor_SMD:C_0805_2012Metric" (id 2) (at 120.65 125.73 0)
      (effects (font (size 1.27 1.27)) (justify left bottom) hide)
    )
    (property "Datasheet" "" (id 3) (at 120.65 125.73 0)
      (effects (font (size 1.27 1.27)) (justify left bottom) hide)
    )
    (pin "1" (uuid 5bfbfc49-7111-4b81-9ca8-3bd4ef9e5a8e))
    (pin "2" (uuid 4060aa99-8f2f-4518-a228-7a4d62315cea))
  )

  (symbol (lib_id "power:GND") (at 120.65 132.08 0) (mirror y) (unit 1)
    (in_bom yes) (on_board yes)
    (uuid 00000000-0000-0000-0000-000060a37801)
    (property "Reference" "#PWR069" (id 0) (at 120.65 138.43 0)
      (effects (font (size 1.27 1.27)) hide)
    )
    (property "Value" "GND" (id 1) (at 120.523 136.4742 0))
    (property "Footprint" "" (id 2) (at 120.65 132.08 0)
      (effects (font (size 1.27 1.27)) hide)
    )
    (property "Datasheet" "" (id 3) (at 120.65 132.08 0)
      (effects (font (size 1.27 1.27)) hide)
    )
    (pin "1" (uuid bb9f461f-6b8c-4d3e-a7a5-82cedb959909))
  )

  (symbol (lib_id "power:+3.3V") (at 176.53 72.39 0) (unit 1)
    (in_bom yes) (on_board yes)
    (uuid 00000000-0000-0000-0000-000060a54860)
    (property "Reference" "#PWR065" (id 0) (at 176.53 76.2 0)
      (effects (font (size 1.27 1.27)) hide)
    )
    (property "Value" "+3.3V" (id 1) (at 176.911 67.9958 0))
    (property "Footprint" "" (id 2) (at 176.53 72.39 0)
      (effects (font (size 1.27 1.27)) hide)
    )
    (property "Datasheet" "" (id 3) (at 176.53 72.39 0)
      (effects (font (size 1.27 1.27)) hide)
    )
    (pin "1" (uuid 0ab0ef08-facb-4705-8b82-cfaf7e133261))
  )

  (symbol (lib_id "power:GND") (at 176.53 124.46 0) (unit 1)
    (in_bom yes) (on_board yes)
    (uuid 00000000-0000-0000-0000-000060a559b4)
    (property "Reference" "#PWR067" (id 0) (at 176.53 130.81 0)
      (effects (font (size 1.27 1.27)) hide)
    )
    (property "Value" "GND" (id 1) (at 176.657 128.8542 0))
    (property "Footprint" "" (id 2) (at 176.53 124.46 0)
      (effects (font (size 1.27 1.27)) hide)
    )
    (property "Datasheet" "" (id 3) (at 176.53 124.46 0)
      (effects (font (size 1.27 1.27)) hide)
    )
    (pin "1" (uuid eac2abfb-b921-4d3f-ace0-a5324afef99a))
  )

  (symbol (lib_id "roket-rescue:Cap-805_cap") (at 185.42 118.11 270)
    (in_bom yes) (on_board yes)
    (uuid 00000000-0000-0000-0000-000060a583c9)
    (property "Reference" "C19" (id 0) (at 188.0362 118.2116 90)
      (effects (font (size 1.27 1.27)) (justify left))
    )
    (property "Value" "22pF" (id 1) (at 188.0362 120.523 90)
      (effects (font (size 1.27 1.27)) (justify left))
    )
    (property "Footprint" "Capacitor_SMD:C_0805_2012Metric" (id 2) (at 185.42 118.11 0)
      (effects (font (size 1.27 1.27)) (justify left bottom) hide)
    )
    (property "Datasheet" "" (id 3) (at 185.42 118.11 0)
      (effects (font (size 1.27 1.27)) (justify left bottom) hide)
    )
    (pin "1" (uuid 8aca9fb8-940b-41a3-a0f9-2dd3237a0c27))
    (pin "2" (uuid a3fb90e3-ac89-447a-8b70-fc5712ec8136))
  )

  (symbol (lib_id "roket-rescue:Cap-805_cap") (at 196.85 118.11 270)
    (in_bom yes) (on_board yes)
    (uuid 00000000-0000-0000-0000-000060a583cf)
    (property "Reference" "C20" (id 0) (at 199.4662 118.2116 90)
      (effects (font (size 1.27 1.27)) (justify left))
    )
    (property "Value" "22pF" (id 1) (at 199.4662 120.523 90)
      (effects (font (size 1.27 1.27)) (justify left))
    )
    (property "Footprint" "Capacitor_SMD:C_0805_2012Metric" (id 2) (at 196.85 118.11 0)
      (effects (font (size 1.27 1.27)) (justify left bottom) hide)
    )
    (property "Datasheet" "" (id 3) (at 196.85 118.11 0)
      (effects (font (size 1.27 1.27)) (justify left bottom) hide)
    )
    (pin "1" (uuid 21bba121-79c4-45d0-9265-ddc2938dbd4c))
    (pin "2" (uuid 7b215d69-dcfd-4121-8a8b-75c26eeebbc5))
  )

  (symbol (lib_id "power:GND") (at 191.77 125.73 0)
    (in_bom yes) (on_board yes)
    (uuid 00000000-0000-0000-0000-000060a583da)
    (property "Reference" "#PWR068" (id 0) (at 191.77 132.08 0)
      (effects (font (size 1.27 1.27)) hide)
    )
    (property "Value" "GND" (id 1) (at 191.897 130.1242 0))
    (property "Footprint" "" (id 2) (at 191.77 125.73 0)
      (effects (font (size 1.27 1.27)) hide)
    )
    (property "Datasheet" "" (id 3) (at 191.77 125.73 0)
      (effects (font (size 1.27 1.27)) hide)
    )
    (pin "1" (uuid 249fcf0c-f09d-45b4-9847-b0e82f7e4176))
  )

  (symbol (lib_id "BNO080:BNO080") (at 151.13 99.06 0) (unit 1)
    (in_bom yes) (on_board yes)
    (uuid 00000000-0000-0000-0000-000060bbd1a8)
    (property "Reference" "U8" (id 0) (at 151.13 69.469 0))
    (property "Value" "BNO080" (id 1) (at 151.13 71.7804 0))
    (property "Footprint" "digikey-footprints:LGA-28_5.2x3.8mm_BNO0055" (id 2) (at 151.13 99.06 0)
      (effects (font (size 1.27 1.27)) (justify left bottom) hide)
    )
    (property "Datasheet" "" (id 3) (at 151.13 99.06 0)
      (effects (font (size 1.27 1.27)) (justify left bottom) hide)
    )
    (property "PARTREV" "1.6" (id 4) (at 151.13 99.06 0)
      (effects (font (size 1.27 1.27)) (justify left bottom) hide)
    )
    (property "MANUFACTURER" "Hillcrest Laboratories, Inc." (id 5) (at 151.13 99.06 0)
      (effects (font (size 1.27 1.27)) (justify left bottom) hide)
    )
    (property "MAXIMUM_PACKAGE_HEIGHT" "1.180 mm" (id 6) (at 151.13 99.06 0)
      (effects (font (size 1.27 1.27)) (justify left bottom) hide)
    )
    (property "STANDARD" "Manufacturer Recommendations" (id 7) (at 151.13 99.06 0)
      (effects (font (size 1.27 1.27)) (justify left bottom) hide)
    )
    (pin "10" (uuid 1aa0ed50-d50d-47fd-aa20-a431dcd15b41))
    (pin "11" (uuid c0bd1545-59cd-44cf-988b-e20f15f0765b))
    (pin "14" (uuid 631fad6b-39ab-4683-8f03-06d96c2cffa8))
    (pin "15" (uuid 124ce659-22a5-4a84-b30d-e5ec849b4e60))
    (pin "16" (uuid 6cbd23ab-044d-4d6c-a58a-ab9085806702))
    (pin "17" (uuid 5158bc2b-d130-4003-9a1e-6e7dc969b41a))
    (pin "18" (uuid 8e4efdf1-bfbc-4eff-961a-3caef13ce3f8))
    (pin "19" (uuid 370f34de-8b3d-462d-a13b-4bf97a89f644))
    (pin "2" (uuid 8ecbb16e-d36a-4e37-8f9e-39c9c5389bef))
    (pin "20" (uuid 03940f99-6547-4af8-9390-8aa7fa1cd510))
    (pin "25" (uuid 886bb10f-bc5f-4156-93d5-325be32e05e2))
    (pin "26" (uuid fb0d1576-10ad-44ab-a8ce-b6565f8a0aaf))
    (pin "27" (uuid fa43200a-eaa8-402b-b606-99668b44dc12))
    (pin "28" (uuid 03b230d8-cf29-41fe-a22c-db7483944d37))
    (pin "3" (uuid 93281dcd-2548-47fa-896a-a960429efc33))
    (pin "4" (uuid e48cf48e-261e-4f0d-9133-26673e28e77d))
    (pin "5" (uuid f76bafbd-6dd5-45ba-8a74-aeca1dbc8b97))
    (pin "6" (uuid 50b40da7-2cf5-4918-9114-62fc321e13dc))
    (pin "9" (uuid f18a99fb-36b9-4fcd-90e8-9a7275086ec2))
  )

  (symbol (lib_id "roket-rescue:Cap-805_cap") (at 191.77 77.47 270)
    (in_bom yes) (on_board yes)
    (uuid 00000000-0000-0000-0000-000060bcc618)
    (property "Reference" "C18" (id 0) (at 194.3862 77.5716 90)
      (effects (font (size 1.27 1.27)) (justify left))
    )
    (property "Value" "0.1uF" (id 1) (at 194.3862 79.883 90)
      (effects (font (size 1.27 1.27)) (justify left))
    )
    (property "Footprint" "Capacitor_SMD:C_0805_2012Metric" (id 2) (at 191.77 77.47 0)
      (effects (font (size 1.27 1.27)) (justify left bottom) hide)
    )
    (property "Datasheet" "" (id 3) (at 191.77 77.47 0)
      (effects (font (size 1.27 1.27)) (justify left bottom) hide)
    )
    (pin "1" (uuid 98b9b82d-2e92-4fe0-ae96-1c6329f6d7c4))
    (pin "2" (uuid f932d73e-00aa-43b0-be31-777f62560224))
  )

  (symbol (lib_id "power:GND") (at 191.77 83.82 0)
    (in_bom yes) (on_board yes)
    (uuid 00000000-0000-0000-0000-000060bccde6)
    (property "Reference" "#PWR066" (id 0) (at 191.77 90.17 0)
      (effects (font (size 1.27 1.27)) hide)
    )
    (property "Value" "GND" (id 1) (at 191.897 88.2142 0))
    (property "Footprint" "" (id 2) (at 191.77 83.82 0)
      (effects (font (size 1.27 1.27)) hide)
    )
    (property "Datasheet" "" (id 3) (at 191.77 83.82 0)
      (effects (font (size 1.27 1.27)) hide)
    )
    (pin "1" (uuid e9e6c355-939f-4e07-9886-4e9b678a3e64))
  )

  (symbol (lib_id "SparkFun-Clocks:CRYSTAL-32.768KHZSMD-3.2X1.5") (at 190.5 111.76 0) (unit 1)
    (in_bom yes) (on_board yes)
    (uuid 00000000-0000-0000-0000-000060be6929)
    (property "Reference" "Y1" (id 0) (at 190.5 103.378 0)
      (effects (font (size 1.143 1.143)))
    )
    (property "Value" "CRYSTAL-32.768KHZSMD-3.2X1.5" (id 1) (at 190.5 105.5116 0)
      (effects (font (size 1.143 1.143)))
    )
    (property "Footprint" "CRYSTAL-SMD-3.2X1.5MM" (id 2) (at 190.5 106.68 0)
      (effects (font (size 0.508 0.508)) hide)
    )
    (property "Datasheet" "" (id 3) (at 190.5 111.76 0)
      (effects (font (size 1.27 1.27)) hide)
    )
    (property "Field4" "XTAL-13062" (id 4) (at 190.5 107.9246 0)
      (effects (font (size 1.524 1.524)))
    )
    (pin "P$1" (uuid 1e74d489-87b1-4bf3-a418-5f88597a5fa3))
    (pin "P$2" (uuid 558e3313-60cd-4cc2-8404-2bfc9ad32d62))
  )

  (symbol (lib_id "Device:R_US") (at 120.65 77.47 180)
    (in_bom yes) (on_board yes)
    (uuid 00000000-0000-0000-0000-0000615f8df0)
    (property "Reference" "R25" (id 0) (at 123.19 80.01 0)
      (effects (font (size 1.27 1.27)) (justify left))
    )
    (property "Value" "10K" (id 1) (at 120.65 73.66 0)
      (effects (font (size 1.27 1.27)) (justify right))
    )
    (property "Footprint" "Resistor_SMD:R_0805_2012Metric" (id 2) (at 119.634 77.216 90)
      (effects (font (size 1.27 1.27)) hide)
    )
    (property "Datasheet" "~" (id 3) (at 120.65 77.47 0)
      (effects (font (size 1.27 1.27)) hide)
    )
    (pin "1" (uuid 0efb60ab-968b-448c-bc7e-1a6ed5f5c35a))
    (pin "2" (uuid 2d43bc39-9b46-44ea-a11b-604cd85edb13))
  )

  (symbol (lib_id "power:+3.3V") (at 123.19 71.12 0) (unit 1)
    (in_bom yes) (on_board yes)
    (uuid 00000000-0000-0000-0000-0000615f9f4b)
    (property "Reference" "#PWR064" (id 0) (at 123.19 74.93 0)
      (effects (font (size 1.27 1.27)) hide)
    )
    (property "Value" "+3.3V" (id 1) (at 123.571 66.7258 0))
    (property "Footprint" "" (id 2) (at 123.19 71.12 0)
      (effects (font (size 1.27 1.27)) hide)
    )
    (property "Datasheet" "" (id 3) (at 123.19 71.12 0)
      (effects (font (size 1.27 1.27)) hide)
    )
    (pin "1" (uuid 36e0febe-ee03-4736-a347-1125cc37f35b))
  )
)
