(kicad_sch (version 20211123) (generator eeschema)

  (uuid 98970bf0-1168-4b4e-a1c9-3b0c8d7eaacf)

  (paper "A4")

  (lib_symbols
    (symbol "power:+3.3V" (power) (pin_names (offset 0)) (in_bom yes) (on_board yes)
      (property "Reference" "#PWR" (id 0) (at 0 -3.81 0)
        (effects (font (size 1.27 1.27)) hide)
      )
      (property "Value" "+3.3V" (id 1) (at 0 3.556 0)
        (effects (font (size 1.27 1.27)))
      )
      (property "Footprint" "" (id 2) (at 0 0 0)
        (effects (font (size 1.27 1.27)) hide)
      )
      (property "Datasheet" "" (id 3) (at 0 0 0)
        (effects (font (size 1.27 1.27)) hide)
      )
      (property "ki_keywords" "power-flag" (id 4) (at 0 0 0)
        (effects (font (size 1.27 1.27)) hide)
      )
      (property "ki_description" "Power symbol creates a global label with name \"+3.3V\"" (id 5) (at 0 0 0)
        (effects (font (size 1.27 1.27)) hide)
      )
      (symbol "+3.3V_0_1"
        (polyline
          (pts
            (xy -0.762 1.27)
            (xy 0 2.54)
          )
          (stroke (width 0) (type default) (color 0 0 0 0))
          (fill (type none))
        )
        (polyline
          (pts
            (xy 0 0)
            (xy 0 2.54)
          )
          (stroke (width 0) (type default) (color 0 0 0 0))
          (fill (type none))
        )
        (polyline
          (pts
            (xy 0 2.54)
            (xy 0.762 1.27)
          )
          (stroke (width 0) (type default) (color 0 0 0 0))
          (fill (type none))
        )
      )
      (symbol "+3.3V_1_1"
        (pin power_in line (at 0 0 90) (length 0) hide
          (name "+3V3" (effects (font (size 1.27 1.27))))
          (number "1" (effects (font (size 1.27 1.27))))
        )
      )
    )
    (symbol "power:GND" (power) (pin_names (offset 0)) (in_bom yes) (on_board yes)
      (property "Reference" "#PWR" (id 0) (at 0 -6.35 0)
        (effects (font (size 1.27 1.27)) hide)
      )
      (property "Value" "GND" (id 1) (at 0 -3.81 0)
        (effects (font (size 1.27 1.27)))
      )
      (property "Footprint" "" (id 2) (at 0 0 0)
        (effects (font (size 1.27 1.27)) hide)
      )
      (property "Datasheet" "" (id 3) (at 0 0 0)
        (effects (font (size 1.27 1.27)) hide)
      )
      (property "ki_keywords" "power-flag" (id 4) (at 0 0 0)
        (effects (font (size 1.27 1.27)) hide)
      )
      (property "ki_description" "Power symbol creates a global label with name \"GND\" , ground" (id 5) (at 0 0 0)
        (effects (font (size 1.27 1.27)) hide)
      )
      (symbol "GND_0_1"
        (polyline
          (pts
            (xy 0 0)
            (xy 0 -1.27)
            (xy 1.27 -1.27)
            (xy 0 -2.54)
            (xy -1.27 -1.27)
            (xy 0 -1.27)
          )
          (stroke (width 0) (type default) (color 0 0 0 0))
          (fill (type none))
        )
      )
      (symbol "GND_1_1"
        (pin power_in line (at 0 0 270) (length 0) hide
          (name "GND" (effects (font (size 1.27 1.27))))
          (number "1" (effects (font (size 1.27 1.27))))
        )
      )
    )
    (symbol "roket-rescue:Cap-805_cap" (pin_names (offset 1.016) hide) (in_bom yes) (on_board yes)
      (property "Reference" "C" (id 0) (at 0 3.81 0)
        (effects (font (size 1.27 1.27)) (justify left bottom))
      )
      (property "Value" "Cap-805_cap" (id 1) (at 0 -5.08 0)
        (effects (font (size 1.27 1.27)) (justify left bottom))
      )
      (property "Footprint" "CAPC2012X135N" (id 2) (at 0 0 0)
        (effects (font (size 1.27 1.27)) (justify left bottom) hide)
      )
      (property "Datasheet" "" (id 3) (at 0 0 0)
        (effects (font (size 1.27 1.27)) (justify left bottom) hide)
      )
      (property "ki_locked" "" (id 4) (at 0 0 0)
        (effects (font (size 1.27 1.27)))
      )
      (symbol "Cap-805_cap_0_0"
        (rectangle (start 0 -1.905) (end 0.635 1.905)
          (stroke (width 0) (type default) (color 0 0 0 0))
          (fill (type outline))
        )
        (rectangle (start 1.905 -1.905) (end 2.54 1.905)
          (stroke (width 0) (type default) (color 0 0 0 0))
          (fill (type outline))
        )
        (pin passive line (at 5.08 0 180) (length 2.54)
          (name "~" (effects (font (size 1.016 1.016))))
          (number "1" (effects (font (size 1.016 1.016))))
        )
        (pin passive line (at -2.54 0 0) (length 2.54)
          (name "~" (effects (font (size 1.016 1.016))))
          (number "2" (effects (font (size 1.016 1.016))))
        )
      )
    )
    (symbol "roket-rescue:H3LIS331DL-H3LIS331DL" (pin_names (offset 1.016)) (in_bom yes) (on_board yes)
      (property "Reference" "U" (id 0) (at -12.7254 10.8204 0)
        (effects (font (size 1.27 1.27)) (justify left bottom))
      )
      (property "Value" "H3LIS331DL-H3LIS331DL" (id 1) (at -12.7254 -12.7254 0)
        (effects (font (size 1.27 1.27)) (justify left bottom))
      )
      (property "Footprint" "QFN300X300X100-16N" (id 2) (at 0 0 0)
        (effects (font (size 1.27 1.27)) (justify left bottom) hide)
      )
      (property "Datasheet" "" (id 3) (at 0 0 0)
        (effects (font (size 1.27 1.27)) (justify left bottom) hide)
      )
      (property "AVAILABILITY" "Good" (id 4) (at 0 0 0)
        (effects (font (size 1.27 1.27)) (justify left bottom) hide)
      )
      (property "MP" "H3LIS331DL" (id 5) (at 0 0 0)
        (effects (font (size 1.27 1.27)) (justify left bottom) hide)
      )
      (property "PACKAGE" "QFN300X300X100-16N" (id 6) (at 0 0 0)
        (effects (font (size 1.27 1.27)) (justify left bottom) hide)
      )
      (property "MF" "STMicroelectronics" (id 7) (at 0 0 0)
        (effects (font (size 1.27 1.27)) (justify left bottom) hide)
      )
      (property "PRICE" "$6.93 USD" (id 8) (at 0 0 0)
        (effects (font (size 1.27 1.27)) (justify left bottom) hide)
      )
      (property "ki_locked" "" (id 9) (at 0 0 0)
        (effects (font (size 1.27 1.27)))
      )
      (symbol "H3LIS331DL-H3LIS331DL_0_0"
        (rectangle (start -12.7 -10.16) (end 12.7 10.16)
          (stroke (width 0.254) (type default) (color 0 0 0 0))
          (fill (type background))
        )
        (pin power_in line (at 17.78 7.62 180) (length 5.08)
          (name "VDD_IO" (effects (font (size 1.016 1.016))))
          (number "1" (effects (font (size 1.016 1.016))))
        )
        (pin power_in line (at 17.78 -7.62 180) (length 5.08)
          (name "GND" (effects (font (size 1.016 1.016))))
          (number "10" (effects (font (size 1.016 1.016))))
        )
        (pin output line (at 17.78 0 180) (length 5.08)
          (name "INT1" (effects (font (size 1.016 1.016))))
          (number "11" (effects (font (size 1.016 1.016))))
        )
        (pin power_in line (at 17.78 -7.62 180) (length 5.08)
          (name "GND" (effects (font (size 1.016 1.016))))
          (number "12" (effects (font (size 1.016 1.016))))
        )
        (pin power_in line (at 17.78 -7.62 180) (length 5.08)
          (name "GND" (effects (font (size 1.016 1.016))))
          (number "13" (effects (font (size 1.016 1.016))))
        )
        (pin power_in line (at 17.78 5.08 180) (length 5.08)
          (name "VDD" (effects (font (size 1.016 1.016))))
          (number "14" (effects (font (size 1.016 1.016))))
        )
        (pin power_in line (at 17.78 5.08 180) (length 5.08)
          (name "VDD" (effects (font (size 1.016 1.016))))
          (number "15" (effects (font (size 1.016 1.016))))
        )
        (pin power_in line (at 17.78 -7.62 180) (length 5.08)
          (name "GND" (effects (font (size 1.016 1.016))))
          (number "16" (effects (font (size 1.016 1.016))))
        )
        (pin input clock (at -17.78 -5.08 0) (length 5.08)
          (name "SCL/SPC" (effects (font (size 1.016 1.016))))
          (number "4" (effects (font (size 1.016 1.016))))
        )
        (pin power_in line (at 17.78 -7.62 180) (length 5.08)
          (name "GND" (effects (font (size 1.016 1.016))))
          (number "5" (effects (font (size 1.016 1.016))))
        )
        (pin bidirectional line (at -17.78 -7.62 0) (length 5.08)
          (name "SDA/SDI/SDO" (effects (font (size 1.016 1.016))))
          (number "6" (effects (font (size 1.016 1.016))))
        )
        (pin bidirectional line (at -17.78 5.08 0) (length 5.08)
          (name "SDO/SA0" (effects (font (size 1.016 1.016))))
          (number "7" (effects (font (size 1.016 1.016))))
        )
        (pin input line (at -17.78 7.62 0) (length 5.08)
          (name "CS" (effects (font (size 1.016 1.016))))
          (number "8" (effects (font (size 1.016 1.016))))
        )
        (pin output line (at 17.78 -2.54 180) (length 5.08)
          (name "INT2" (effects (font (size 1.016 1.016))))
          (number "9" (effects (font (size 1.016 1.016))))
        )
      )
    )
  )

  (junction (at 172.72 77.47) (diameter 0) (color 0 0 0 0)
    (uuid 4fd9bc4f-0ae3-42d4-a1b4-9fb1b2a0a7fd)
  )
  (junction (at 180.34 92.71) (diameter 0) (color 0 0 0 0)
    (uuid 92848721-49b5-4e4c-b042-6fd51e1d562f)
  )
  (junction (at 180.34 91.44) (diameter 0) (color 0 0 0 0)
    (uuid c07eebcc-30d2-439d-8030-faea6ade4486)
  )
  (junction (at 180.34 77.47) (diameter 0) (color 0 0 0 0)
    (uuid e69c64f9-717d-4a97-b3df-80325ec2fa63)
  )

  (no_connect (at 171.45 85.09) (uuid 3d552623-2969-4b15-8623-368144f225e9))
  (no_connect (at 171.45 87.63) (uuid e65bab67-68b7-4b22-a939-6f2c05164d2a))

  (wire (pts (xy 180.34 77.47) (xy 191.77 77.47))
    (stroke (width 0) (type default) (color 0 0 0 0))
    (uuid 02f8904b-a7b2-49dd-b392-764e7e29fb51)
  )
  (wire (pts (xy 171.45 92.71) (xy 180.34 92.71))
    (stroke (width 0) (type default) (color 0 0 0 0))
    (uuid 18f1018d-5857-4c32-a072-f3de80352f74)
  )
  (wire (pts (xy 135.89 80.01) (xy 134.62 80.01))
    (stroke (width 0) (type default) (color 0 0 0 0))
    (uuid 21492bcd-343a-4b2b-b55a-b4586c11bdeb)
  )
  (wire (pts (xy 171.45 77.47) (xy 172.72 77.47))
    (stroke (width 0) (type default) (color 0 0 0 0))
    (uuid 2518d4ea-25cc-4e57-a0d6-8482034e7318)
  )
  (wire (pts (xy 135.89 92.71) (xy 134.62 92.71))
    (stroke (width 0) (type default) (color 0 0 0 0))
    (uuid 46cbe85d-ff47-428e-b187-4ebd50a66e0c)
  )
  (wire (pts (xy 172.72 80.01) (xy 172.72 77.47))
    (stroke (width 0) (type default) (color 0 0 0 0))
    (uuid 71af7b65-0e6b-402e-b1a4-b66be507b4dc)
  )
  (wire (pts (xy 171.45 80.01) (xy 172.72 80.01))
    (stroke (width 0) (type default) (color 0 0 0 0))
    (uuid 799e761c-1426-40e9-a069-1f4cb353bfaa)
  )
  (wire (pts (xy 172.72 77.47) (xy 180.34 77.47))
    (stroke (width 0) (type default) (color 0 0 0 0))
    (uuid 86e98417-f5e4-48ba-8147-ef66cc03dde6)
  )
  (wire (pts (xy 191.77 87.63) (xy 191.77 91.44))
    (stroke (width 0) (type default) (color 0 0 0 0))
    (uuid 8bd46048-cab7-4adf-af9a-bc2710c1894c)
  )
  (wire (pts (xy 135.89 90.17) (xy 134.62 90.17))
    (stroke (width 0) (type default) (color 0 0 0 0))
    (uuid 96315415-cfed-47d2-b3dd-d782358bd0df)
  )
  (wire (pts (xy 191.77 91.44) (xy 180.34 91.44))
    (stroke (width 0) (type default) (color 0 0 0 0))
    (uuid 992a2b00-5e28-4edd-88b5-994891512d8d)
  )
  (wire (pts (xy 180.34 92.71) (xy 180.34 91.44))
    (stroke (width 0) (type default) (color 0 0 0 0))
    (uuid db1ed10a-ef86-43bf-93dc-9be76327f6d2)
  )
  (wire (pts (xy 180.34 87.63) (xy 180.34 91.44))
    (stroke (width 0) (type default) (color 0 0 0 0))
    (uuid db851147-6a1e-4d19-898c-0ba71182359b)
  )
  (wire (pts (xy 180.34 80.01) (xy 180.34 77.47))
    (stroke (width 0) (type default) (color 0 0 0 0))
    (uuid df3dc9a2-ba40-4c3a-87fe-61cc8e23d71b)
  )
  (wire (pts (xy 191.77 77.47) (xy 191.77 80.01))
    (stroke (width 0) (type default) (color 0 0 0 0))
    (uuid e70d061b-28f0-4421-ad15-0598604086e8)
  )
  (wire (pts (xy 135.89 77.47) (xy 134.62 77.47))
    (stroke (width 0) (type default) (color 0 0 0 0))
    (uuid fa20e708-ec85-4e0b-8402-f74a2724f920)
  )

  (hierarchical_label "MOSI" (shape input) (at 134.62 92.71 180)
    (effects (font (size 1.27 1.27)) (justify right))
    (uuid 8aeae536-fd36-430e-be47-1a856eced2fc)
  )
  (hierarchical_label "CS" (shape input) (at 134.62 77.47 180)
    (effects (font (size 1.27 1.27)) (justify right))
    (uuid bc3b3f93-69e0-44a5-b919-319b81d13095)
  )
  (hierarchical_label "SCLK" (shape input) (at 134.62 90.17 180)
    (effects (font (size 1.27 1.27)) (justify right))
    (uuid eb473bfd-fc2d-4cf0-8714-6b7dd95b0a03)
  )
  (hierarchical_label "MISO" (shape input) (at 134.62 80.01 180)
    (effects (font (size 1.27 1.27)) (justify right))
    (uuid fb35e3b1-aff6-41a7-9cf0-52694b95edeb)
  )

  (symbol (lib_id "roket-rescue:H3LIS331DL-H3LIS331DL") (at 153.67 85.09 0) (unit 1)
    (in_bom yes) (on_board yes)
    (uuid 00000000-0000-0000-0000-000060ad2973)
    (property "Reference" "U4" (id 0) (at 153.67 70.6882 0))
    (property "Value" "H3LIS331DL" (id 1) (at 153.67 72.9996 0))
    (property "Footprint" "digikey-footprints:TFLGA-16_3x3mm" (id 2) (at 153.67 85.09 0)
      (effects (font (size 1.27 1.27)) (justify left bottom) hide)
    )
    (property "Datasheet" "" (id 3) (at 153.67 85.09 0)
      (effects (font (size 1.27 1.27)) (justify left bottom) hide)
    )
    (property "AVAILABILITY" "Good" (id 4) (at 153.67 85.09 0)
      (effects (font (size 1.27 1.27)) (justify left bottom) hide)
    )
    (property "MP" "H3LIS331DL" (id 5) (at 153.67 85.09 0)
      (effects (font (size 1.27 1.27)) (justify left bottom) hide)
    )
    (property "PACKAGE" "QFN300X300X100-16N" (id 6) (at 153.67 85.09 0)
      (effects (font (size 1.27 1.27)) (justify left bottom) hide)
    )
    (property "MF" "STMicroelectronics" (id 7) (at 153.67 85.09 0)
      (effects (font (size 1.27 1.27)) (justify left bottom) hide)
    )
    (property "PRICE" "$6.93 USD" (id 8) (at 153.67 85.09 0)
      (effects (font (size 1.27 1.27)) (justify left bottom) hide)
    )
    (pin "1" (uuid 3e2f0641-427b-427e-a57a-6d4fc44c13fd))
    (pin "10" (uuid 9ff3d8ce-e8bc-46df-9c01-5053e905e02f))
    (pin "11" (uuid b490dd7d-6f2a-4467-a3bc-5bf7d1926b4a))
    (pin "12" (uuid 909af301-8cfe-4457-80b0-d3417bb64680))
    (pin "13" (uuid b1c4f5e7-18da-41ce-9dd1-cd6e740715cd))
    (pin "14" (uuid 31376a87-1492-4078-bf43-893d73621233))
    (pin "15" (uuid b3cb1289-0f30-41a8-8f2d-446efaf29034))
    (pin "16" (uuid 451241aa-3d4a-43eb-b3fb-93a4b27ed0e6))
    (pin "4" (uuid 8abe0792-1b86-4352-8efb-dfb581d6498d))
    (pin "5" (uuid d6a0f32c-eb1a-40f1-86c0-610cb21d6037))
    (pin "6" (uuid 979751fe-01df-4e9b-b4e2-5bdf43877e5f))
    (pin "7" (uuid 6513eebf-655f-4e9e-ae5f-d9d031f8ed96))
    (pin "8" (uuid ceb8d1d7-5351-4c45-aa55-aae2810c6b65))
    (pin "9" (uuid 796636af-f4a6-47b1-84ae-7067556701e2))
  )

  (symbol (lib_id "roket-rescue:Cap-805_cap") (at 180.34 82.55 270)
    (in_bom yes) (on_board yes)
    (uuid 00000000-0000-0000-0000-000060ad40a9)
    (property "Reference" "C12" (id 0) (at 182.9562 82.6516 90)
      (effects (font (size 1.27 1.27)) (justify left))
    )
    (property "Value" "0.1uF" (id 1) (at 182.9562 84.963 90)
      (effects (font (size 1.27 1.27)) (justify left))
    )
    (property "Footprint" "Capacitor_SMD:C_0805_2012Metric" (id 2) (at 180.34 82.55 0)
      (effects (font (size 1.27 1.27)) (justify left bottom) hide)
    )
    (property "Datasheet" "" (id 3) (at 180.34 82.55 0)
      (effects (font (size 1.27 1.27)) (justify left bottom) hide)
    )
    (pin "1" (uuid ffc55b92-f3fa-4c8b-bea2-60615047c06c))
    (pin "2" (uuid a1f0cfc9-23af-4faa-86fe-1abc768ffe93))
  )

  (symbol (lib_id "power:GND") (at 180.34 92.71 0)
    (in_bom yes) (on_board yes)
    (uuid 00000000-0000-0000-0000-000060ad40b0)
    (property "Reference" "#PWR044" (id 0) (at 180.34 99.06 0)
      (effects (font (size 1.27 1.27)) hide)
    )
    (property "Value" "GND" (id 1) (at 180.467 97.1042 0))
    (property "Footprint" "" (id 2) (at 180.34 92.71 0)
      (effects (font (size 1.27 1.27)) hide)
    )
    (property "Datasheet" "" (id 3) (at 180.34 92.71 0)
      (effects (font (size 1.27 1.27)) hide)
    )
    (pin "1" (uuid 3f2c0df2-c53f-414a-acd2-39fc8529c143))
  )

  (symbol (lib_id "power:+3.3V") (at 180.34 77.47 0)
    (in_bom yes) (on_board yes)
    (uuid 00000000-0000-0000-0000-000060ad40b6)
    (property "Reference" "#PWR043" (id 0) (at 180.34 81.28 0)
      (effects (font (size 1.27 1.27)) hide)
    )
    (property "Value" "+3.3V" (id 1) (at 180.721 73.0758 0))
    (property "Footprint" "" (id 2) (at 180.34 77.47 0)
      (effects (font (size 1.27 1.27)) hide)
    )
    (property "Datasheet" "" (id 3) (at 180.34 77.47 0)
      (effects (font (size 1.27 1.27)) hide)
    )
    (pin "1" (uuid d5009c2d-c2a7-47a2-9b79-ccaa4bf344c4))
  )

  (symbol (lib_id "roket-rescue:Cap-805_cap") (at 191.77 82.55 270)
    (in_bom yes) (on_board yes)
    (uuid 00000000-0000-0000-0000-000060ad4419)
    (property "Reference" "C13" (id 0) (at 194.3862 82.6516 90)
      (effects (font (size 1.27 1.27)) (justify left))
    )
    (property "Value" "10uF" (id 1) (at 194.3862 84.963 90)
      (effects (font (size 1.27 1.27)) (justify left))
    )
    (property "Footprint" "Capacitor_SMD:C_0805_2012Metric" (id 2) (at 191.77 82.55 0)
      (effects (font (size 1.27 1.27)) (justify left bottom) hide)
    )
    (property "Datasheet" "" (id 3) (at 191.77 82.55 0)
      (effects (font (size 1.27 1.27)) (justify left bottom) hide)
    )
    (pin "1" (uuid c63f2811-d783-43cc-b0d9-10ad2ff1304f))
    (pin "2" (uuid 35c4e501-0e47-412c-ac9a-a49394c60fe6))
  )
)
