EESchema Schematic File Version 4
EELAYER 30 0
EELAYER END
$Descr A4 11693 8268
encoding utf-8
Sheet 3 15
Title ""
Date ""
Rev ""
Comp ""
Comment1 ""
Comment2 ""
Comment3 ""
Comment4 ""
$EndDescr
$Comp
L roket-rescue:SMI-1027-T-5V-R-SMI-1027-T-5V-R LS1
U 1 1 6097F8E8
P 5350 3900
F 0 "LS1" H 5455 3946 50  0000 L CNN
F 1 "SMI-1027-T-5V-R" H 5455 3855 50  0000 L CNN
F 2 "others:SMI-1027-T-5V-R" H 5350 3900 50  0001 L BNN
F 3 "" H 5350 3900 50  0001 L BNN
F 4 "CUI INC" H 5350 3900 50  0001 L BNN "MANUFACTURER"
F 5 "1.0" H 5350 3900 50  0001 L BNN "PARTREV"
F 6 "Manufacturer recommendations" H 5350 3900 50  0001 L BNN "STANDARD"
	1    5350 3900
	1    0    0    -1  
$EndComp
$Comp
L power:GND #PWR?
U 1 1 60982608
P 5350 4250
AR Path="/609302C0/60982608" Ref="#PWR?"  Part="1" 
AR Path="/609304A1/60982608" Ref="#PWR?"  Part="1" 
AR Path="/609303B5/60982608" Ref="#PWR022"  Part="1" 
F 0 "#PWR022" H 5350 4000 50  0001 C CNN
F 1 "GND" H 5355 4077 50  0000 C CNN
F 2 "" H 5350 4250 50  0001 C CNN
F 3 "" H 5350 4250 50  0001 C CNN
	1    5350 4250
	1    0    0    -1  
$EndComp
Text HLabel 4800 3500 0    50   Input ~ 0
Buzzer
Wire Wire Line
	4800 3500 5000 3500
Wire Wire Line
	5300 3500 5350 3500
Wire Wire Line
	5350 3500 5350 3700
Wire Wire Line
	5350 4100 5350 4250
$Comp
L Device:R_US R?
U 1 1 6098260E
P 5150 3500
AR Path="/609302C0/6098260E" Ref="R?"  Part="1" 
AR Path="/609304A1/6098260E" Ref="R?"  Part="1" 
AR Path="/609303B5/6098260E" Ref="R7"  Part="1" 
F 0 "R7" V 5218 3546 50  0000 L CNN
F 1 "100" V 5218 3455 50  0000 R CNN
F 2 "Resistor_SMD:R_0805_2012Metric" V 5190 3490 50  0001 C CNN
F 3 "~" H 5150 3500 50  0001 C CNN
	1    5150 3500
	0    -1   -1   0   
$EndComp
$EndSCHEMATC
