(kicad_sch (version 20211123) (generator eeschema)

  (uuid 26a22c19-4cc5-4237-9651-0edc4f854154)

  (paper "A4")

  (lib_symbols
    (symbol "power:+3.3V" (power) (pin_names (offset 0)) (in_bom yes) (on_board yes)
      (property "Reference" "#PWR" (id 0) (at 0 -3.81 0)
        (effects (font (size 1.27 1.27)) hide)
      )
      (property "Value" "+3.3V" (id 1) (at 0 3.556 0)
        (effects (font (size 1.27 1.27)))
      )
      (property "Footprint" "" (id 2) (at 0 0 0)
        (effects (font (size 1.27 1.27)) hide)
      )
      (property "Datasheet" "" (id 3) (at 0 0 0)
        (effects (font (size 1.27 1.27)) hide)
      )
      (property "ki_keywords" "power-flag" (id 4) (at 0 0 0)
        (effects (font (size 1.27 1.27)) hide)
      )
      (property "ki_description" "Power symbol creates a global label with name \"+3.3V\"" (id 5) (at 0 0 0)
        (effects (font (size 1.27 1.27)) hide)
      )
      (symbol "+3.3V_0_1"
        (polyline
          (pts
            (xy -0.762 1.27)
            (xy 0 2.54)
          )
          (stroke (width 0) (type default) (color 0 0 0 0))
          (fill (type none))
        )
        (polyline
          (pts
            (xy 0 0)
            (xy 0 2.54)
          )
          (stroke (width 0) (type default) (color 0 0 0 0))
          (fill (type none))
        )
        (polyline
          (pts
            (xy 0 2.54)
            (xy 0.762 1.27)
          )
          (stroke (width 0) (type default) (color 0 0 0 0))
          (fill (type none))
        )
      )
      (symbol "+3.3V_1_1"
        (pin power_in line (at 0 0 90) (length 0) hide
          (name "+3V3" (effects (font (size 1.27 1.27))))
          (number "1" (effects (font (size 1.27 1.27))))
        )
      )
    )
    (symbol "power:GND" (power) (pin_names (offset 0)) (in_bom yes) (on_board yes)
      (property "Reference" "#PWR" (id 0) (at 0 -6.35 0)
        (effects (font (size 1.27 1.27)) hide)
      )
      (property "Value" "GND" (id 1) (at 0 -3.81 0)
        (effects (font (size 1.27 1.27)))
      )
      (property "Footprint" "" (id 2) (at 0 0 0)
        (effects (font (size 1.27 1.27)) hide)
      )
      (property "Datasheet" "" (id 3) (at 0 0 0)
        (effects (font (size 1.27 1.27)) hide)
      )
      (property "ki_keywords" "power-flag" (id 4) (at 0 0 0)
        (effects (font (size 1.27 1.27)) hide)
      )
      (property "ki_description" "Power symbol creates a global label with name \"GND\" , ground" (id 5) (at 0 0 0)
        (effects (font (size 1.27 1.27)) hide)
      )
      (symbol "GND_0_1"
        (polyline
          (pts
            (xy 0 0)
            (xy 0 -1.27)
            (xy 1.27 -1.27)
            (xy 0 -2.54)
            (xy -1.27 -1.27)
            (xy 0 -1.27)
          )
          (stroke (width 0) (type default) (color 0 0 0 0))
          (fill (type none))
        )
      )
      (symbol "GND_1_1"
        (pin power_in line (at 0 0 270) (length 0) hide
          (name "GND" (effects (font (size 1.27 1.27))))
          (number "1" (effects (font (size 1.27 1.27))))
        )
      )
    )
    (symbol "roket-rescue:oled-oled" (pin_names (offset 1.016)) (in_bom yes) (on_board yes)
      (property "Reference" "J" (id 0) (at -8.128 5.08 0)
        (effects (font (size 1.27 1.27)) (justify left bottom))
      )
      (property "Value" "oled-oled" (id 1) (at -7.62 -5.08 0)
        (effects (font (size 1.27 1.27)) (justify left bottom))
      )
      (property "Footprint" "TE_103185-4" (id 2) (at 0 0 0)
        (effects (font (size 1.27 1.27)) (justify left bottom) hide)
      )
      (property "Datasheet" "" (id 3) (at 0 0 0)
        (effects (font (size 1.27 1.27)) (justify left bottom) hide)
      )
      (property "Number_of_Positions" "4" (id 4) (at 0 0 0)
        (effects (font (size 1.27 1.27)) (justify left bottom) hide)
      )
      (property "Centerline_Pitch" "2.54 mm[.1 in]" (id 5) (at 0 0 0)
        (effects (font (size 1.27 1.27)) (justify left bottom) hide)
      )
      (property "Comment" "103185-4" (id 6) (at 0 0 0)
        (effects (font (size 1.27 1.27)) (justify left bottom) hide)
      )
      (property "EU_RoHS_Compliance" "Not Compliant" (id 7) (at 0 0 0)
        (effects (font (size 1.27 1.27)) (justify left bottom) hide)
      )
      (property "Product_Type" "Connector" (id 8) (at 0 0 0)
        (effects (font (size 1.27 1.27)) (justify left bottom) hide)
      )
      (property "ki_locked" "" (id 9) (at 0 0 0)
        (effects (font (size 1.27 1.27)))
      )
      (symbol "oled-oled_0_0"
        (rectangle (start -7.62 -2.54) (end 7.62 5.08)
          (stroke (width 0.254) (type default) (color 0 0 0 0))
          (fill (type background))
        )
        (pin passive line (at -12.7 2.54 0) (length 5.08)
          (name "VCC" (effects (font (size 1.016 1.016))))
          (number "1" (effects (font (size 1.016 1.016))))
        )
        (pin passive line (at -12.7 0 0) (length 5.08)
          (name "GND" (effects (font (size 1.016 1.016))))
          (number "2" (effects (font (size 1.016 1.016))))
        )
        (pin passive line (at 12.7 2.54 180) (length 5.08)
          (name "SCL" (effects (font (size 1.016 1.016))))
          (number "3" (effects (font (size 1.016 1.016))))
        )
        (pin passive line (at 12.7 0 180) (length 5.08)
          (name "SDA" (effects (font (size 1.016 1.016))))
          (number "4" (effects (font (size 1.016 1.016))))
        )
      )
    )
  )


  (wire (pts (xy 96.52 85.09) (xy 99.06 85.09))
    (stroke (width 0) (type default) (color 0 0 0 0))
    (uuid 1855ca44-ab48-4b76-a210-97fc81d916c4)
  )
  (wire (pts (xy 99.06 87.63) (xy 96.52 87.63))
    (stroke (width 0) (type default) (color 0 0 0 0))
    (uuid 3457afc5-3e4f-4220-81d1-b079f653a722)
  )
  (wire (pts (xy 124.46 87.63) (xy 128.27 87.63))
    (stroke (width 0) (type default) (color 0 0 0 0))
    (uuid 58390862-1833-41dd-9c4e-98073ea0da33)
  )
  (wire (pts (xy 124.46 85.09) (xy 128.27 85.09))
    (stroke (width 0) (type default) (color 0 0 0 0))
    (uuid 5e755161-24a5-4650-a6e3-9836bf074412)
  )
  (wire (pts (xy 96.52 83.82) (xy 96.52 85.09))
    (stroke (width 0) (type default) (color 0 0 0 0))
    (uuid 5f48b0f2-82cf-40ce-afac-440f97643c36)
  )
  (wire (pts (xy 96.52 87.63) (xy 96.52 88.9))
    (stroke (width 0) (type default) (color 0 0 0 0))
    (uuid e86e4fae-9ca7-4857-a93c-bc6a3048f887)
  )

  (hierarchical_label "SDA_OLED" (shape input) (at 128.27 87.63 0)
    (effects (font (size 1.27 1.27)) (justify left))
    (uuid 254f7cc6-cee1-44ca-9afe-939b318201aa)
  )
  (hierarchical_label "SCL_OLED" (shape input) (at 128.27 85.09 0)
    (effects (font (size 1.27 1.27)) (justify left))
    (uuid ca56e1ad-54bf-4df5-a4f7-99f5d61d0de9)
  )

  (symbol (lib_id "roket-rescue:oled-oled") (at 111.76 87.63 0) (unit 1)
    (in_bom yes) (on_board yes)
    (uuid 00000000-0000-0000-0000-000060987007)
    (property "Reference" "J3" (id 0) (at 111.76 78.3082 0))
    (property "Value" "oled" (id 1) (at 111.76 80.6196 0))
    (property "Footprint" "others:oled" (id 2) (at 111.76 87.63 0)
      (effects (font (size 1.27 1.27)) (justify left bottom) hide)
    )
    (property "Datasheet" "" (id 3) (at 111.76 87.63 0)
      (effects (font (size 1.27 1.27)) (justify left bottom) hide)
    )
    (property "Number_of_Positions" "4" (id 4) (at 111.76 87.63 0)
      (effects (font (size 1.27 1.27)) (justify left bottom) hide)
    )
    (property "Centerline_Pitch" "2.54 mm[.1 in]" (id 5) (at 111.76 87.63 0)
      (effects (font (size 1.27 1.27)) (justify left bottom) hide)
    )
    (property "Comment" "103185-4" (id 6) (at 111.76 87.63 0)
      (effects (font (size 1.27 1.27)) (justify left bottom) hide)
    )
    (property "EU_RoHS_Compliance" "Not Compliant" (id 7) (at 111.76 87.63 0)
      (effects (font (size 1.27 1.27)) (justify left bottom) hide)
    )
    (property "Product_Type" "Connector" (id 8) (at 111.76 87.63 0)
      (effects (font (size 1.27 1.27)) (justify left bottom) hide)
    )
    (pin "1" (uuid 97c6113d-2937-43f1-acef-e0f4942bc010))
    (pin "2" (uuid b376a79e-b6af-4397-81cc-a20ece2f8317))
    (pin "3" (uuid 190e5db4-2e78-4247-8e9e-f143f5a2a297))
    (pin "4" (uuid 1c03f022-8246-4922-9c00-dba5f9ac823b))
  )

  (symbol (lib_id "power:GND") (at 96.52 88.9 0) (unit 1)
    (in_bom yes) (on_board yes)
    (uuid 00000000-0000-0000-0000-0000609873ab)
    (property "Reference" "#PWR042" (id 0) (at 96.52 95.25 0)
      (effects (font (size 1.27 1.27)) hide)
    )
    (property "Value" "GND" (id 1) (at 96.647 93.2942 0))
    (property "Footprint" "" (id 2) (at 96.52 88.9 0)
      (effects (font (size 1.27 1.27)) hide)
    )
    (property "Datasheet" "" (id 3) (at 96.52 88.9 0)
      (effects (font (size 1.27 1.27)) hide)
    )
    (pin "1" (uuid 8dfbecbd-3da1-4c88-856b-7786beab9dd3))
  )

  (symbol (lib_id "power:+3.3V") (at 96.52 83.82 0) (unit 1)
    (in_bom yes) (on_board yes)
    (uuid 00000000-0000-0000-0000-0000609878bc)
    (property "Reference" "#PWR041" (id 0) (at 96.52 87.63 0)
      (effects (font (size 1.27 1.27)) hide)
    )
    (property "Value" "+3.3V" (id 1) (at 96.901 79.4258 0))
    (property "Footprint" "" (id 2) (at 96.52 83.82 0)
      (effects (font (size 1.27 1.27)) hide)
    )
    (property "Datasheet" "" (id 3) (at 96.52 83.82 0)
      (effects (font (size 1.27 1.27)) hide)
    )
    (pin "1" (uuid 4eb8e05f-91cc-4487-9bd2-0b3bc618ab23))
  )
)
