(kicad_sch (version 20211123) (generator eeschema)

  (uuid 8ade7975-64a0-440a-8545-11958836bf48)

  (paper "A4")

  (lib_symbols
    (symbol "Device:R_US" (pin_numbers hide) (pin_names (offset 0)) (in_bom yes) (on_board yes)
      (property "Reference" "R" (id 0) (at 2.54 0 90)
        (effects (font (size 1.27 1.27)))
      )
      (property "Value" "R_US" (id 1) (at -2.54 0 90)
        (effects (font (size 1.27 1.27)))
      )
      (property "Footprint" "" (id 2) (at 1.016 -0.254 90)
        (effects (font (size 1.27 1.27)) hide)
      )
      (property "Datasheet" "~" (id 3) (at 0 0 0)
        (effects (font (size 1.27 1.27)) hide)
      )
      (property "ki_keywords" "R res resistor" (id 4) (at 0 0 0)
        (effects (font (size 1.27 1.27)) hide)
      )
      (property "ki_description" "Resistor, US symbol" (id 5) (at 0 0 0)
        (effects (font (size 1.27 1.27)) hide)
      )
      (property "ki_fp_filters" "R_*" (id 6) (at 0 0 0)
        (effects (font (size 1.27 1.27)) hide)
      )
      (symbol "R_US_0_1"
        (polyline
          (pts
            (xy 0 -2.286)
            (xy 0 -2.54)
          )
          (stroke (width 0) (type default) (color 0 0 0 0))
          (fill (type none))
        )
        (polyline
          (pts
            (xy 0 2.286)
            (xy 0 2.54)
          )
          (stroke (width 0) (type default) (color 0 0 0 0))
          (fill (type none))
        )
        (polyline
          (pts
            (xy 0 -0.762)
            (xy 1.016 -1.143)
            (xy 0 -1.524)
            (xy -1.016 -1.905)
            (xy 0 -2.286)
          )
          (stroke (width 0) (type default) (color 0 0 0 0))
          (fill (type none))
        )
        (polyline
          (pts
            (xy 0 0.762)
            (xy 1.016 0.381)
            (xy 0 0)
            (xy -1.016 -0.381)
            (xy 0 -0.762)
          )
          (stroke (width 0) (type default) (color 0 0 0 0))
          (fill (type none))
        )
        (polyline
          (pts
            (xy 0 2.286)
            (xy 1.016 1.905)
            (xy 0 1.524)
            (xy -1.016 1.143)
            (xy 0 0.762)
          )
          (stroke (width 0) (type default) (color 0 0 0 0))
          (fill (type none))
        )
      )
      (symbol "R_US_1_1"
        (pin passive line (at 0 3.81 270) (length 1.27)
          (name "~" (effects (font (size 1.27 1.27))))
          (number "1" (effects (font (size 1.27 1.27))))
        )
        (pin passive line (at 0 -3.81 90) (length 1.27)
          (name "~" (effects (font (size 1.27 1.27))))
          (number "2" (effects (font (size 1.27 1.27))))
        )
      )
    )
    (symbol "dk_Diodes-Rectifiers-Single:SS14" (pin_names (offset 1.016)) (in_bom yes) (on_board yes)
      (property "Reference" "D" (id 0) (at 1.27 2.54 0)
        (effects (font (size 1.27 1.27)))
      )
      (property "Value" "SS14" (id 1) (at 1.27 -2.54 0)
        (effects (font (size 1.27 1.27)))
      )
      (property "Footprint" "digikey-footprints:DO-214AC" (id 2) (at 5.08 5.08 0)
        (effects (font (size 1.524 1.524)) (justify left) hide)
      )
      (property "Datasheet" "https://www.onsemi.com/pub/Collateral/SS19-D.PDF" (id 3) (at 5.08 7.62 0)
        (effects (font (size 1.524 1.524)) (justify left) hide)
      )
      (property "Digi-Key_PN" "SS14CT-ND" (id 4) (at 5.08 10.16 0)
        (effects (font (size 1.524 1.524)) (justify left) hide)
      )
      (property "MPN" "SS14" (id 5) (at 5.08 12.7 0)
        (effects (font (size 1.524 1.524)) (justify left) hide)
      )
      (property "Category" "Discrete Semiconductor Products" (id 6) (at 5.08 15.24 0)
        (effects (font (size 1.524 1.524)) (justify left) hide)
      )
      (property "Family" "Diodes - Rectifiers - Single" (id 7) (at 5.08 17.78 0)
        (effects (font (size 1.524 1.524)) (justify left) hide)
      )
      (property "DK_Datasheet_Link" "https://www.onsemi.com/pub/Collateral/SS19-D.PDF" (id 8) (at 5.08 20.32 0)
        (effects (font (size 1.524 1.524)) (justify left) hide)
      )
      (property "DK_Detail_Page" "/product-detail/en/on-semiconductor/SS14/SS14CT-ND/965729" (id 9) (at 5.08 22.86 0)
        (effects (font (size 1.524 1.524)) (justify left) hide)
      )
      (property "Description" "DIODE SCHOTTKY 40V 1A SMA" (id 10) (at 5.08 25.4 0)
        (effects (font (size 1.524 1.524)) (justify left) hide)
      )
      (property "Manufacturer" "ON Semiconductor" (id 11) (at 5.08 27.94 0)
        (effects (font (size 1.524 1.524)) (justify left) hide)
      )
      (property "Status" "Active" (id 12) (at 5.08 30.48 0)
        (effects (font (size 1.524 1.524)) (justify left) hide)
      )
      (property "ki_keywords" "SS14CT-ND" (id 13) (at 0 0 0)
        (effects (font (size 1.27 1.27)) hide)
      )
      (property "ki_description" "DIODE SCHOTTKY 40V 1A SMA" (id 14) (at 0 0 0)
        (effects (font (size 1.27 1.27)) hide)
      )
      (symbol "SS14_0_1"
        (polyline
          (pts
            (xy 0 0)
            (xy 2.54 0)
          )
          (stroke (width 0) (type default) (color 0 0 0 0))
          (fill (type none))
        )
        (polyline
          (pts
            (xy 0 1.27)
            (xy 0 -1.27)
          )
          (stroke (width 0) (type default) (color 0 0 0 0))
          (fill (type none))
        )
        (polyline
          (pts
            (xy 2.54 1.27)
            (xy 2.54 -1.27)
            (xy 0 0)
            (xy 2.54 1.27)
          )
          (stroke (width 0) (type default) (color 0 0 0 0))
          (fill (type outline))
        )
      )
      (symbol "SS14_1_1"
        (pin passive line (at 5.08 0 180) (length 2.54)
          (name "~" (effects (font (size 1.27 1.27))))
          (number "A" (effects (font (size 1.27 1.27))))
        )
        (pin passive line (at -2.54 0 0) (length 2.54)
          (name "~" (effects (font (size 1.27 1.27))))
          (number "K" (effects (font (size 1.27 1.27))))
        )
      )
    )
    (symbol "power:+3.3V" (power) (pin_names (offset 0)) (in_bom yes) (on_board yes)
      (property "Reference" "#PWR" (id 0) (at 0 -3.81 0)
        (effects (font (size 1.27 1.27)) hide)
      )
      (property "Value" "+3.3V" (id 1) (at 0 3.556 0)
        (effects (font (size 1.27 1.27)))
      )
      (property "Footprint" "" (id 2) (at 0 0 0)
        (effects (font (size 1.27 1.27)) hide)
      )
      (property "Datasheet" "" (id 3) (at 0 0 0)
        (effects (font (size 1.27 1.27)) hide)
      )
      (property "ki_keywords" "power-flag" (id 4) (at 0 0 0)
        (effects (font (size 1.27 1.27)) hide)
      )
      (property "ki_description" "Power symbol creates a global label with name \"+3.3V\"" (id 5) (at 0 0 0)
        (effects (font (size 1.27 1.27)) hide)
      )
      (symbol "+3.3V_0_1"
        (polyline
          (pts
            (xy -0.762 1.27)
            (xy 0 2.54)
          )
          (stroke (width 0) (type default) (color 0 0 0 0))
          (fill (type none))
        )
        (polyline
          (pts
            (xy 0 0)
            (xy 0 2.54)
          )
          (stroke (width 0) (type default) (color 0 0 0 0))
          (fill (type none))
        )
        (polyline
          (pts
            (xy 0 2.54)
            (xy 0.762 1.27)
          )
          (stroke (width 0) (type default) (color 0 0 0 0))
          (fill (type none))
        )
      )
      (symbol "+3.3V_1_1"
        (pin power_in line (at 0 0 90) (length 0) hide
          (name "+3V3" (effects (font (size 1.27 1.27))))
          (number "1" (effects (font (size 1.27 1.27))))
        )
      )
    )
    (symbol "power:GND" (power) (pin_names (offset 0)) (in_bom yes) (on_board yes)
      (property "Reference" "#PWR" (id 0) (at 0 -6.35 0)
        (effects (font (size 1.27 1.27)) hide)
      )
      (property "Value" "GND" (id 1) (at 0 -3.81 0)
        (effects (font (size 1.27 1.27)))
      )
      (property "Footprint" "" (id 2) (at 0 0 0)
        (effects (font (size 1.27 1.27)) hide)
      )
      (property "Datasheet" "" (id 3) (at 0 0 0)
        (effects (font (size 1.27 1.27)) hide)
      )
      (property "ki_keywords" "power-flag" (id 4) (at 0 0 0)
        (effects (font (size 1.27 1.27)) hide)
      )
      (property "ki_description" "Power symbol creates a global label with name \"GND\" , ground" (id 5) (at 0 0 0)
        (effects (font (size 1.27 1.27)) hide)
      )
      (symbol "GND_0_1"
        (polyline
          (pts
            (xy 0 0)
            (xy 0 -1.27)
            (xy 1.27 -1.27)
            (xy 0 -2.54)
            (xy -1.27 -1.27)
            (xy 0 -1.27)
          )
          (stroke (width 0) (type default) (color 0 0 0 0))
          (fill (type none))
        )
      )
      (symbol "GND_1_1"
        (pin power_in line (at 0 0 270) (length 0) hide
          (name "GND" (effects (font (size 1.27 1.27))))
          (number "1" (effects (font (size 1.27 1.27))))
        )
      )
    )
    (symbol "power:VCC" (power) (pin_names (offset 0)) (in_bom yes) (on_board yes)
      (property "Reference" "#PWR" (id 0) (at 0 -3.81 0)
        (effects (font (size 1.27 1.27)) hide)
      )
      (property "Value" "VCC" (id 1) (at 0 3.81 0)
        (effects (font (size 1.27 1.27)))
      )
      (property "Footprint" "" (id 2) (at 0 0 0)
        (effects (font (size 1.27 1.27)) hide)
      )
      (property "Datasheet" "" (id 3) (at 0 0 0)
        (effects (font (size 1.27 1.27)) hide)
      )
      (property "ki_keywords" "power-flag" (id 4) (at 0 0 0)
        (effects (font (size 1.27 1.27)) hide)
      )
      (property "ki_description" "Power symbol creates a global label with name \"VCC\"" (id 5) (at 0 0 0)
        (effects (font (size 1.27 1.27)) hide)
      )
      (symbol "VCC_0_1"
        (polyline
          (pts
            (xy -0.762 1.27)
            (xy 0 2.54)
          )
          (stroke (width 0) (type default) (color 0 0 0 0))
          (fill (type none))
        )
        (polyline
          (pts
            (xy 0 0)
            (xy 0 2.54)
          )
          (stroke (width 0) (type default) (color 0 0 0 0))
          (fill (type none))
        )
        (polyline
          (pts
            (xy 0 2.54)
            (xy 0.762 1.27)
          )
          (stroke (width 0) (type default) (color 0 0 0 0))
          (fill (type none))
        )
      )
      (symbol "VCC_1_1"
        (pin power_in line (at 0 0 90) (length 0) hide
          (name "VCC" (effects (font (size 1.27 1.27))))
          (number "1" (effects (font (size 1.27 1.27))))
        )
      )
    )
    (symbol "roket-rescue:10118194-0001LF-dk_USB-DVI-HDMI-Connectors" (pin_names (offset 1.016)) (in_bom yes) (on_board yes)
      (property "Reference" "J" (id 0) (at -4.445 15.24 0)
        (effects (font (size 1.524 1.524)))
      )
      (property "Value" "10118194-0001LF-dk_USB-DVI-HDMI-Connectors" (id 1) (at -6.35 -7.62 90)
        (effects (font (size 1.524 1.524)))
      )
      (property "Footprint" "digikey-footprints:USB_Micro_B_Female_10118194-0001LF" (id 2) (at 5.08 5.08 0)
        (effects (font (size 1.524 1.524)) (justify left) hide)
      )
      (property "Datasheet" "http://www.amphenol-icc.com/media/wysiwyg/files/drawing/10118194.pdf" (id 3) (at 5.08 7.62 0)
        (effects (font (size 1.524 1.524)) (justify left) hide)
      )
      (property "Digi-Key_PN" "609-4618-1-ND" (id 4) (at 5.08 10.16 0)
        (effects (font (size 1.524 1.524)) (justify left) hide)
      )
      (property "MPN" "10118194-0001LF" (id 5) (at 5.08 12.7 0)
        (effects (font (size 1.524 1.524)) (justify left) hide)
      )
      (property "Category" "Connectors, Interconnects" (id 6) (at 5.08 15.24 0)
        (effects (font (size 1.524 1.524)) (justify left) hide)
      )
      (property "Family" "USB, DVI, HDMI Connectors" (id 7) (at 5.08 17.78 0)
        (effects (font (size 1.524 1.524)) (justify left) hide)
      )
      (property "DK_Datasheet_Link" "http://www.amphenol-icc.com/media/wysiwyg/files/drawing/10118194.pdf" (id 8) (at 5.08 20.32 0)
        (effects (font (size 1.524 1.524)) (justify left) hide)
      )
      (property "DK_Detail_Page" "/product-detail/en/amphenol-icc-fci/10118194-0001LF/609-4618-1-ND/2785382" (id 9) (at 5.08 22.86 0)
        (effects (font (size 1.524 1.524)) (justify left) hide)
      )
      (property "Description" "CONN RCPT USB2.0 MICRO B SMD R/A" (id 10) (at 5.08 25.4 0)
        (effects (font (size 1.524 1.524)) (justify left) hide)
      )
      (property "Manufacturer" "Amphenol ICC (FCI)" (id 11) (at 5.08 27.94 0)
        (effects (font (size 1.524 1.524)) (justify left) hide)
      )
      (property "Status" "Active" (id 12) (at 5.08 30.48 0)
        (effects (font (size 1.524 1.524)) (justify left) hide)
      )
      (symbol "10118194-0001LF-dk_USB-DVI-HDMI-Connectors_0_1"
        (polyline
          (pts
            (xy 3.7846 12.2428)
            (xy 3.7846 -12.5476)
          )
          (stroke (width 0) (type default) (color 0 0 0 0))
          (fill (type none))
        )
        (polyline
          (pts
            (xy 0.4826 -4.2926)
            (xy 0.4826 -3.2766)
            (xy 1.8796 -3.2766)
            (xy 1.8796 -4.2926)
            (xy 0.4826 -4.2926)
            (xy 1.1176 -3.7846)
            (xy 0.4826 -3.2766)
            (xy 1.8796 -3.2766)
            (xy 1.8796 -3.7846)
            (xy 1.1176 -3.7846)
          )
          (stroke (width 0) (type default) (color 0 0 0 0))
          (fill (type none))
        )
        (polyline
          (pts
            (xy 0.4826 -1.7526)
            (xy 0.4826 -0.7366)
            (xy 1.8796 -0.7366)
            (xy 1.8796 -1.7526)
            (xy 0.4826 -1.7526)
            (xy 1.1176 -1.2446)
            (xy 0.4826 -0.7366)
            (xy 1.8796 -0.7366)
            (xy 1.8796 -1.2446)
            (xy 1.1176 -1.2446)
          )
          (stroke (width 0) (type default) (color 0 0 0 0))
          (fill (type none))
        )
        (polyline
          (pts
            (xy 0.4826 1.7526)
            (xy 0.4826 0.7366)
            (xy 1.8796 0.7366)
            (xy 1.8796 1.7526)
            (xy 0.4826 1.7526)
            (xy 1.1176 1.2446)
            (xy 0.4826 0.7366)
            (xy 1.8796 0.7366)
            (xy 1.8796 1.2446)
            (xy 1.1176 1.2446)
          )
          (stroke (width 0) (type default) (color 0 0 0 0))
          (fill (type none))
        )
        (polyline
          (pts
            (xy 0.4826 4.2926)
            (xy 0.4826 3.2766)
            (xy 1.8796 3.2766)
            (xy 1.8796 4.2926)
            (xy 0.4826 4.2926)
            (xy 1.1176 3.7846)
            (xy 0.4826 3.2766)
            (xy 1.8796 3.2766)
            (xy 1.8796 3.7846)
            (xy 1.1176 3.7846)
          )
          (stroke (width 0) (type default) (color 0 0 0 0))
          (fill (type none))
        )
        (polyline
          (pts
            (xy 1.905 -0.0254)
            (xy 1.905 5.842)
            (xy 0.635 5.842)
            (xy 0.635 6.1468)
            (xy 0.8128 6.4262)
            (xy 1.1938 6.5786)
            (xy 1.651 6.6294)
            (xy 2.2606 6.5532)
            (xy 2.7178 6.3246)
            (xy 2.9464 6.0706)
            (xy 3.0226 5.6388)
            (xy 3.0226 4.8006)
            (xy 3.0226 -0.127)
          )
          (stroke (width 0) (type default) (color 0 0 0 0))
          (fill (type none))
        )
        (polyline
          (pts
            (xy 1.905 0.0254)
            (xy 1.905 -5.842)
            (xy 0.635 -5.842)
            (xy 0.635 -6.1468)
            (xy 0.8128 -6.4262)
            (xy 1.1938 -6.5786)
            (xy 1.651 -6.6294)
            (xy 2.2606 -6.5532)
            (xy 2.7178 -6.3246)
            (xy 2.9464 -6.0706)
            (xy 3.0226 -5.6388)
            (xy 3.0226 -4.8006)
            (xy 3.0226 0.127)
          )
          (stroke (width 0) (type default) (color 0 0 0 0))
          (fill (type none))
        )
        (polyline
          (pts
            (xy 4.8514 -12.5476)
            (xy 3.8354 -12.5476)
            (xy 3.7846 -12.5476)
            (xy 3.7846 -12.9032)
            (xy 3.6068 -13.2334)
            (xy 3.429 -13.3604)
            (xy 3.2258 -13.4366)
            (xy 0.4572 -13.4366)
            (xy 0.0508 -13.4112)
            (xy -0.3302 -13.3096)
            (xy -0.6604 -13.1318)
            (xy -0.9906 -12.9032)
            (xy -3.1496 -10.8458)
            (xy -3.4036 -10.3886)
            (xy -3.5306 -9.779)
            (xy -3.556 -8.636)
            (xy -3.556 9.2202)
            (xy -3.5306 9.4234)
            (xy -3.4544 9.8298)
            (xy -3.302 10.1854)
            (xy -3.0226 10.6172)
            (xy -1.7526 11.8364)
            (xy -0.8636 12.5984)
            (xy -0.3302 12.8778)
            (xy 0.0762 13.0048)
            (xy 0.6096 13.081)
            (xy 3.0734 13.081)
            (xy 3.3274 13.0048)
            (xy 3.5814 12.8524)
            (xy 3.7846 12.5222)
            (xy 3.7846 12.2174)
            (xy 4.8514 12.2174)
          )
          (stroke (width 0) (type default) (color 0 0 0 0))
          (fill (type none))
        )
        (polyline
          (pts
            (xy 4.8514 -11.4808)
            (xy 4.8514 -12.8016)
            (xy 4.7752 -13.4366)
            (xy 4.572 -13.8684)
            (xy 4.0386 -14.3256)
            (xy 3.5814 -14.5288)
            (xy 3.0988 -14.605)
            (xy -0.2794 -14.5542)
            (xy -0.7112 -14.4526)
            (xy -1.2446 -14.1986)
            (xy -2.2098 -13.4366)
            (xy -3.556 -12.1412)
            (xy -4.0132 -11.6586)
            (xy -4.3688 -11.1506)
            (xy -4.6228 -10.5918)
            (xy -4.7498 -9.7536)
            (xy -4.7498 9.3726)
            (xy -4.5974 10.0838)
            (xy -4.4704 10.4648)
            (xy -4.2164 10.9728)
            (xy -3.6068 11.6078)
            (xy -1.4478 13.589)
            (xy -0.9652 13.8684)
            (xy -0.5588 14.0208)
            (xy 0.0762 14.1224)
            (xy 0.5588 14.1732)
            (xy 3.2766 14.1732)
            (xy 3.7592 14.0208)
            (xy 4.2164 13.7414)
            (xy 4.445 13.5128)
            (xy 4.699 13.1572)
            (xy 4.826 12.8524)
            (xy 4.8514 12.446)
            (xy 4.8514 -11.5062)
          )
          (stroke (width 0) (type default) (color 0 0 0 0))
          (fill (type background))
        )
        (rectangle (start 0.889 -4.318) (end 1.905 -5.842)
          (stroke (width 0) (type default) (color 0 0 0 0))
          (fill (type outline))
        )
        (rectangle (start 0.889 -3.302) (end 1.905 -1.778)
          (stroke (width 0) (type default) (color 0 0 0 0))
          (fill (type outline))
        )
        (rectangle (start 0.889 -0.635) (end 1.905 0.381)
          (stroke (width 0) (type default) (color 0 0 0 0))
          (fill (type outline))
        )
        (rectangle (start 0.889 0.635) (end 1.905 -0.381)
          (stroke (width 0) (type default) (color 0 0 0 0))
          (fill (type outline))
        )
        (rectangle (start 0.889 3.302) (end 1.905 1.778)
          (stroke (width 0) (type default) (color 0 0 0 0))
          (fill (type outline))
        )
        (rectangle (start 0.889 4.318) (end 1.905 5.842)
          (stroke (width 0) (type default) (color 0 0 0 0))
          (fill (type outline))
        )
      )
      (symbol "10118194-0001LF-dk_USB-DVI-HDMI-Connectors_1_1"
        (pin passive line (at 7.62 5.08 180) (length 2.794)
          (name "~" (effects (font (size 1.27 1.27))))
          (number "1" (effects (font (size 1.27 1.27))))
        )
        (pin passive line (at 7.62 2.54 180) (length 2.794)
          (name "~" (effects (font (size 1.27 1.27))))
          (number "2" (effects (font (size 1.27 1.27))))
        )
        (pin passive line (at 7.62 0 180) (length 2.794)
          (name "~" (effects (font (size 1.27 1.27))))
          (number "3" (effects (font (size 1.27 1.27))))
        )
        (pin passive line (at 7.62 -2.54 180) (length 2.794)
          (name "~" (effects (font (size 1.27 1.27))))
          (number "4" (effects (font (size 1.27 1.27))))
        )
        (pin passive line (at 7.62 -5.08 180) (length 2.794)
          (name "~" (effects (font (size 1.27 1.27))))
          (number "5" (effects (font (size 1.27 1.27))))
        )
        (pin passive line (at -2.54 -15.24 90) (length 2.032)
          (name "~" (effects (font (size 1.27 1.27))))
          (number "SH" (effects (font (size 1.27 1.27))))
        )
      )
    )
    (symbol "roket-rescue:CP2102N-A01-GQFN28-CP2102N-A01-GQFN28" (pin_names (offset 1.016)) (in_bom yes) (on_board yes)
      (property "Reference" "U" (id 0) (at -17.8308 31.0896 0)
        (effects (font (size 1.27 1.27)) (justify left bottom))
      )
      (property "Value" "CP2102N-A01-GQFN28-CP2102N-A01-GQFN28" (id 1) (at -17.8054 -31.0388 0)
        (effects (font (size 1.27 1.27)) (justify left bottom))
      )
      (property "Footprint" "QFN50P500X500X80-29N" (id 2) (at 0 0 0)
        (effects (font (size 1.27 1.27)) (justify left bottom) hide)
      )
      (property "Datasheet" "" (id 3) (at 0 0 0)
        (effects (font (size 1.27 1.27)) (justify left bottom) hide)
      )
      (property "MAXIMUM_PACKAGE_HEIGHT" "0.8mm" (id 4) (at 0 0 0)
        (effects (font (size 1.27 1.27)) (justify left bottom) hide)
      )
      (property "STANDARD" "IPC 7351B" (id 5) (at 0 0 0)
        (effects (font (size 1.27 1.27)) (justify left bottom) hide)
      )
      (property "PARTREV" "1.0" (id 6) (at 0 0 0)
        (effects (font (size 1.27 1.27)) (justify left bottom) hide)
      )
      (property "MANUFACTURER" "SILICON LABS" (id 7) (at 0 0 0)
        (effects (font (size 1.27 1.27)) (justify left bottom) hide)
      )
      (property "ki_locked" "" (id 8) (at 0 0 0)
        (effects (font (size 1.27 1.27)))
      )
      (symbol "CP2102N-A01-GQFN28-CP2102N-A01-GQFN28_0_0"
        (rectangle (start -17.78 -30.48) (end 17.78 30.48)
          (stroke (width 0.254) (type default) (color 0 0 0 0))
          (fill (type background))
        )
        (pin input line (at -22.86 2.54 0) (length 5.08)
          (name "DCD" (effects (font (size 1.016 1.016))))
          (number "1" (effects (font (size 1.016 1.016))))
        )
        (pin no_connect line (at 22.86 -25.4 180) (length 5.08)
          (name "NC" (effects (font (size 1.016 1.016))))
          (number "10" (effects (font (size 1.016 1.016))))
        )
        (pin output line (at 22.86 -7.62 180) (length 5.08)
          (name "~{SUSPENDB}" (effects (font (size 1.016 1.016))))
          (number "11" (effects (font (size 1.016 1.016))))
        )
        (pin output line (at 22.86 -10.16 180) (length 5.08)
          (name "SUSPEND" (effects (font (size 1.016 1.016))))
          (number "12" (effects (font (size 1.016 1.016))))
        )
        (pin output line (at 22.86 -20.32 180) (length 5.08)
          (name "CHREN" (effects (font (size 1.016 1.016))))
          (number "13" (effects (font (size 1.016 1.016))))
        )
        (pin output line (at 22.86 -15.24 180) (length 5.08)
          (name "CHR1" (effects (font (size 1.016 1.016))))
          (number "14" (effects (font (size 1.016 1.016))))
        )
        (pin output line (at 22.86 -17.78 180) (length 5.08)
          (name "CHR0" (effects (font (size 1.016 1.016))))
          (number "15" (effects (font (size 1.016 1.016))))
        )
        (pin bidirectional line (at 22.86 5.08 180) (length 5.08)
          (name "GPIO.3/WAKEUP" (effects (font (size 1.016 1.016))))
          (number "16" (effects (font (size 1.016 1.016))))
        )
        (pin bidirectional line (at 22.86 7.62 180) (length 5.08)
          (name "GPIO.2/RS485" (effects (font (size 1.016 1.016))))
          (number "17" (effects (font (size 1.016 1.016))))
        )
        (pin bidirectional line (at 22.86 10.16 180) (length 5.08)
          (name "GPIO.1/RXT" (effects (font (size 1.016 1.016))))
          (number "18" (effects (font (size 1.016 1.016))))
        )
        (pin bidirectional line (at 22.86 12.7 180) (length 5.08)
          (name "GPIO.0/TXT" (effects (font (size 1.016 1.016))))
          (number "19" (effects (font (size 1.016 1.016))))
        )
        (pin bidirectional line (at -22.86 -17.78 0) (length 5.08)
          (name "RI/CLK" (effects (font (size 1.016 1.016))))
          (number "2" (effects (font (size 1.016 1.016))))
        )
        (pin bidirectional line (at 22.86 -2.54 180) (length 5.08)
          (name "GPIO.6" (effects (font (size 1.016 1.016))))
          (number "20" (effects (font (size 1.016 1.016))))
        )
        (pin bidirectional line (at 22.86 0 180) (length 5.08)
          (name "GPIO.5" (effects (font (size 1.016 1.016))))
          (number "21" (effects (font (size 1.016 1.016))))
        )
        (pin bidirectional line (at 22.86 2.54 180) (length 5.08)
          (name "GPIO.4" (effects (font (size 1.016 1.016))))
          (number "22" (effects (font (size 1.016 1.016))))
        )
        (pin input line (at -22.86 10.16 0) (length 5.08)
          (name "CTS" (effects (font (size 1.016 1.016))))
          (number "23" (effects (font (size 1.016 1.016))))
        )
        (pin output line (at -22.86 12.7 0) (length 5.08)
          (name "RTS" (effects (font (size 1.016 1.016))))
          (number "24" (effects (font (size 1.016 1.016))))
        )
        (pin input line (at -22.86 17.78 0) (length 5.08)
          (name "RXD" (effects (font (size 1.016 1.016))))
          (number "25" (effects (font (size 1.016 1.016))))
        )
        (pin output line (at -22.86 15.24 0) (length 5.08)
          (name "TXD" (effects (font (size 1.016 1.016))))
          (number "26" (effects (font (size 1.016 1.016))))
        )
        (pin input line (at -22.86 7.62 0) (length 5.08)
          (name "DSR" (effects (font (size 1.016 1.016))))
          (number "27" (effects (font (size 1.016 1.016))))
        )
        (pin output line (at -22.86 5.08 0) (length 5.08)
          (name "DTR" (effects (font (size 1.016 1.016))))
          (number "28" (effects (font (size 1.016 1.016))))
        )
        (pin power_in line (at 22.86 -27.94 180) (length 5.08)
          (name "GND" (effects (font (size 1.016 1.016))))
          (number "29" (effects (font (size 1.016 1.016))))
        )
        (pin power_in line (at 22.86 -27.94 180) (length 5.08)
          (name "GND" (effects (font (size 1.016 1.016))))
          (number "3" (effects (font (size 1.016 1.016))))
        )
        (pin bidirectional line (at -22.86 -2.54 0) (length 5.08)
          (name "D+" (effects (font (size 1.016 1.016))))
          (number "4" (effects (font (size 1.016 1.016))))
        )
        (pin bidirectional line (at -22.86 -5.08 0) (length 5.08)
          (name "D-" (effects (font (size 1.016 1.016))))
          (number "5" (effects (font (size 1.016 1.016))))
        )
        (pin power_in line (at 22.86 27.94 180) (length 5.08)
          (name "VDD" (effects (font (size 1.016 1.016))))
          (number "6" (effects (font (size 1.016 1.016))))
        )
        (pin power_in line (at 22.86 25.4 180) (length 5.08)
          (name "VREGIN" (effects (font (size 1.016 1.016))))
          (number "7" (effects (font (size 1.016 1.016))))
        )
        (pin power_in line (at -22.86 27.94 0) (length 5.08)
          (name "VBUS" (effects (font (size 1.016 1.016))))
          (number "8" (effects (font (size 1.016 1.016))))
        )
        (pin input line (at -22.86 -10.16 0) (length 5.08)
          (name "~{RST}" (effects (font (size 1.016 1.016))))
          (number "9" (effects (font (size 1.016 1.016))))
        )
      )
    )
    (symbol "roket-rescue:Cap-805_cap" (pin_names (offset 1.016) hide) (in_bom yes) (on_board yes)
      (property "Reference" "C" (id 0) (at 0 3.81 0)
        (effects (font (size 1.27 1.27)) (justify left bottom))
      )
      (property "Value" "Cap-805_cap" (id 1) (at 0 -5.08 0)
        (effects (font (size 1.27 1.27)) (justify left bottom))
      )
      (property "Footprint" "CAPC2012X135N" (id 2) (at 0 0 0)
        (effects (font (size 1.27 1.27)) (justify left bottom) hide)
      )
      (property "Datasheet" "" (id 3) (at 0 0 0)
        (effects (font (size 1.27 1.27)) (justify left bottom) hide)
      )
      (property "ki_locked" "" (id 4) (at 0 0 0)
        (effects (font (size 1.27 1.27)))
      )
      (symbol "Cap-805_cap_0_0"
        (rectangle (start 0 -1.905) (end 0.635 1.905)
          (stroke (width 0) (type default) (color 0 0 0 0))
          (fill (type outline))
        )
        (rectangle (start 1.905 -1.905) (end 2.54 1.905)
          (stroke (width 0) (type default) (color 0 0 0 0))
          (fill (type outline))
        )
        (pin passive line (at 5.08 0 180) (length 2.54)
          (name "~" (effects (font (size 1.016 1.016))))
          (number "1" (effects (font (size 1.016 1.016))))
        )
        (pin passive line (at -2.54 0 0) (length 2.54)
          (name "~" (effects (font (size 1.016 1.016))))
          (number "2" (effects (font (size 1.016 1.016))))
        )
      )
    )
    (symbol "roket-rescue:SS8050-G-SS8050-G" (pin_numbers hide) (pin_names (offset 1.016) hide) (in_bom yes) (on_board yes)
      (property "Reference" "Q" (id 0) (at -10.16 7.62 0)
        (effects (font (size 1.27 1.27)) (justify left bottom))
      )
      (property "Value" "SS8050-G-SS8050-G" (id 1) (at -10.16 -7.62 0)
        (effects (font (size 1.27 1.27)) (justify left bottom))
      )
      (property "Footprint" "SOT95P230X110-3N" (id 2) (at 0 0 0)
        (effects (font (size 1.27 1.27)) (justify left bottom) hide)
      )
      (property "Datasheet" "" (id 3) (at 0 0 0)
        (effects (font (size 1.27 1.27)) (justify left bottom) hide)
      )
      (property "STANDARD" "IPC 7351B" (id 4) (at 0 0 0)
        (effects (font (size 1.27 1.27)) (justify left bottom) hide)
      )
      (property "PARTREV" "7" (id 5) (at 0 0 0)
        (effects (font (size 1.27 1.27)) (justify left bottom) hide)
      )
      (property "MAXIMUM_PACKAGE_HEIGHT" "1.1 mm" (id 6) (at 0 0 0)
        (effects (font (size 1.27 1.27)) (justify left bottom) hide)
      )
      (property "MANUFACTURER" "Nexperia" (id 7) (at 0 0 0)
        (effects (font (size 1.27 1.27)) (justify left bottom) hide)
      )
      (property "ki_locked" "" (id 8) (at 0 0 0)
        (effects (font (size 1.27 1.27)))
      )
      (symbol "SS8050-G-SS8050-G_0_0"
        (rectangle (start -0.254 -2.54) (end 0.508 2.54)
          (stroke (width 0) (type default) (color 0 0 0 0))
          (fill (type outline))
        )
        (polyline
          (pts
            (xy 1.27 -2.54)
            (xy 1.778 -1.524)
          )
          (stroke (width 0.1524) (type default) (color 0 0 0 0))
          (fill (type none))
        )
        (polyline
          (pts
            (xy 1.524 -2.413)
            (xy 2.286 -2.413)
          )
          (stroke (width 0.254) (type default) (color 0 0 0 0))
          (fill (type none))
        )
        (polyline
          (pts
            (xy 1.524 -2.286)
            (xy 1.905 -2.286)
          )
          (stroke (width 0.254) (type default) (color 0 0 0 0))
          (fill (type none))
        )
        (polyline
          (pts
            (xy 1.5494 -2.032)
            (xy 0.3048 -1.4224)
          )
          (stroke (width 0.1524) (type default) (color 0 0 0 0))
          (fill (type none))
        )
        (polyline
          (pts
            (xy 1.778 -1.778)
            (xy 1.524 -2.286)
          )
          (stroke (width 0.254) (type default) (color 0 0 0 0))
          (fill (type none))
        )
        (polyline
          (pts
            (xy 1.778 -1.524)
            (xy 2.54 -2.54)
          )
          (stroke (width 0.1524) (type default) (color 0 0 0 0))
          (fill (type none))
        )
        (polyline
          (pts
            (xy 1.905 -2.286)
            (xy 1.778 -2.032)
          )
          (stroke (width 0.254) (type default) (color 0 0 0 0))
          (fill (type none))
        )
        (polyline
          (pts
            (xy 2.286 -2.413)
            (xy 1.778 -1.778)
          )
          (stroke (width 0.254) (type default) (color 0 0 0 0))
          (fill (type none))
        )
        (polyline
          (pts
            (xy 2.54 -2.54)
            (xy 1.27 -2.54)
          )
          (stroke (width 0.1524) (type default) (color 0 0 0 0))
          (fill (type none))
        )
        (polyline
          (pts
            (xy 2.54 2.54)
            (xy 0.508 1.524)
          )
          (stroke (width 0.1524) (type default) (color 0 0 0 0))
          (fill (type none))
        )
        (pin passive line (at -2.54 0 0) (length 2.54)
          (name "~" (effects (font (size 1.016 1.016))))
          (number "1" (effects (font (size 1.016 1.016))))
        )
        (pin passive line (at 2.54 -5.08 90) (length 2.54)
          (name "~" (effects (font (size 1.016 1.016))))
          (number "2" (effects (font (size 1.016 1.016))))
        )
        (pin passive line (at 2.54 5.08 270) (length 2.54)
          (name "~" (effects (font (size 1.016 1.016))))
          (number "3" (effects (font (size 1.016 1.016))))
        )
      )
    )
  )

  (junction (at 232.41 55.88) (diameter 0) (color 0 0 0 0)
    (uuid 0d095387-710d-4633-a6c3-04eab60b585a)
  )
  (junction (at 50.8 110.49) (diameter 0) (color 0 0 0 0)
    (uuid 5a319d05-1a85-43fe-a179-ebcee7212a03)
  )
  (junction (at 48.26 127) (diameter 0) (color 0 0 0 0)
    (uuid 82907d2e-4560-49c2-9cfc-01b127317195)
  )
  (junction (at 247.65 55.88) (diameter 0) (color 0 0 0 0)
    (uuid 92d17eb0-c75d-48d9-ae9e-ea0c7f723be4)
  )
  (junction (at 237.49 55.88) (diameter 0) (color 0 0 0 0)
    (uuid a12b751e-ae7a-468c-af3d-31ed4d501b01)
  )

  (no_connect (at 232.41 83.82) (uuid 08926936-9ea4-4894-afca-caca47f3c238))
  (no_connect (at 232.41 104.14) (uuid 1053b01a-057e-4e79-a21c-42780a737ea9))
  (no_connect (at 186.69 73.66) (uuid 105d44ff-63b9-4299-9078-473af583971a))
  (no_connect (at 232.41 91.44) (uuid 21ca1c08-b8a3-4bdc-9356-70a4d86ee444))
  (no_connect (at 232.41 73.66) (uuid 2a4f1c24-6486-4fd8-8092-72bb07a81274))
  (no_connect (at 232.41 76.2) (uuid 2c10387c-3cac-4a7c-bbfb-95d69f41a890))
  (no_connect (at 186.69 76.2) (uuid 341e67eb-d5e1-4cb7-9d11-5aa4ab832a2a))
  (no_connect (at 81.28 44.45) (uuid 62cbcc21-2cec-41ab-be06-499e1a78d7e7))
  (no_connect (at 186.69 81.28) (uuid 7043f61a-4f1e-4cab-9031-a6449e41a893))
  (no_connect (at 232.41 93.98) (uuid 784e3230-2053-4bc9-a786-5ac2bd0df0f5))
  (no_connect (at 232.41 99.06) (uuid a04f8542-6c38-4d5c-bdbb-c8e0311a0936))
  (no_connect (at 232.41 109.22) (uuid a1701438-3c8b-4b49-8695-36ec7f9ae4d2))
  (no_connect (at 232.41 81.28) (uuid a7c83b25-afbd-4974-8870-387db8f81a5c))
  (no_connect (at 232.41 86.36) (uuid b1731e91-7698-42fa-ad60-5c60fdd0e1fc))
  (no_connect (at 232.41 78.74) (uuid c7db4903-f95a-49f5-bcce-c52f0ca8defc))
  (no_connect (at 186.69 101.6) (uuid de438bc3-2eba-4b9f-95e9-35ce5db157f6))
  (no_connect (at 232.41 71.12) (uuid f1c2e9b0-6f9f-485b-b482-d408df476d0f))
  (no_connect (at 232.41 101.6) (uuid f8a90052-1a8b-4ce5-a1fd-87db944dceac))

  (wire (pts (xy 247.65 66.04) (xy 247.65 64.77))
    (stroke (width 0) (type default) (color 0 0 0 0))
    (uuid 009b0d62-e9ea-4825-9fdf-befd291c76ce)
  )
  (wire (pts (xy 69.85 36.83) (xy 81.28 36.83))
    (stroke (width 0) (type default) (color 0 0 0 0))
    (uuid 15a5a11b-0ea1-4f6e-b356-cc2d530615ed)
  )
  (wire (pts (xy 48.26 127) (xy 54.61 127))
    (stroke (width 0) (type default) (color 0 0 0 0))
    (uuid 188eabba-12a3-47b7-9be1-03f0c5a948eb)
  )
  (wire (pts (xy 232.41 55.88) (xy 237.49 55.88))
    (stroke (width 0) (type default) (color 0 0 0 0))
    (uuid 23345f3e-d08d-4834-b1dc-64de02569916)
  )
  (wire (pts (xy 62.23 36.83) (xy 59.69 36.83))
    (stroke (width 0) (type default) (color 0 0 0 0))
    (uuid 2765a021-71f1-4136-b72b-81c2c6882946)
  )
  (wire (pts (xy 73.66 102.87) (xy 76.2 102.87))
    (stroke (width 0) (type default) (color 0 0 0 0))
    (uuid 29cd9e70-9b68-44f7-96b2-fe993c246832)
  )
  (wire (pts (xy 73.66 132.08) (xy 73.66 134.62))
    (stroke (width 0) (type default) (color 0 0 0 0))
    (uuid 2e1d63b8-5189-41bb-8b6a-c4ada546b2d5)
  )
  (wire (pts (xy 50.8 120.65) (xy 50.8 110.49))
    (stroke (width 0) (type default) (color 0 0 0 0))
    (uuid 2f33286e-7553-4442-acf0-23c61fcd6ab0)
  )
  (wire (pts (xy 50.8 110.49) (xy 54.61 110.49))
    (stroke (width 0) (type default) (color 0 0 0 0))
    (uuid 2f5467a7-bd49-433c-92f2-60a842e66f7b)
  )
  (wire (pts (xy 43.18 110.49) (xy 50.8 110.49))
    (stroke (width 0) (type default) (color 0 0 0 0))
    (uuid 315d2b15-cfe6-4672-b3ad-24773f3df12c)
  )
  (wire (pts (xy 58.42 41.91) (xy 81.28 41.91))
    (stroke (width 0) (type default) (color 0 0 0 0))
    (uuid 3f43c2dc-daa2-45ba-b8ca-7ae5aebed882)
  )
  (wire (pts (xy 62.23 127) (xy 68.58 127))
    (stroke (width 0) (type default) (color 0 0 0 0))
    (uuid 41524d81-a7f7-45af-a8c6-15609b68d1fd)
  )
  (wire (pts (xy 184.15 66.04) (xy 186.69 66.04))
    (stroke (width 0) (type default) (color 0 0 0 0))
    (uuid 41ab46ed-40f5-461d-81aa-1f02dc069a49)
  )
  (wire (pts (xy 237.49 66.04) (xy 237.49 64.77))
    (stroke (width 0) (type default) (color 0 0 0 0))
    (uuid 45836d49-cd5f-417d-b0f6-c8b43d196a36)
  )
  (wire (pts (xy 73.66 121.92) (xy 73.66 120.65))
    (stroke (width 0) (type default) (color 0 0 0 0))
    (uuid 47484446-e64c-4a82-88af-15de92cf6ad4)
  )
  (wire (pts (xy 237.49 55.88) (xy 247.65 55.88))
    (stroke (width 0) (type default) (color 0 0 0 0))
    (uuid 5099f397-6fe7-454f-899c-34e2b5f22ca7)
  )
  (wire (pts (xy 177.8 78.74) (xy 186.69 78.74))
    (stroke (width 0) (type default) (color 0 0 0 0))
    (uuid 51f5536d-48d2-4807-be44-93f427952b0e)
  )
  (wire (pts (xy 73.66 120.65) (xy 50.8 120.65))
    (stroke (width 0) (type default) (color 0 0 0 0))
    (uuid 5206328f-de7d-41ba-bad8-f1768b7701cb)
  )
  (wire (pts (xy 182.88 93.98) (xy 186.69 93.98))
    (stroke (width 0) (type default) (color 0 0 0 0))
    (uuid 6a1ae8ee-dea6-4015-b83e-baf8fcdfaf0f)
  )
  (wire (pts (xy 73.66 105.41) (xy 73.66 102.87))
    (stroke (width 0) (type default) (color 0 0 0 0))
    (uuid 7114de55-86d9-46c1-a412-07f5eb895435)
  )
  (wire (pts (xy 62.23 110.49) (xy 68.58 110.49))
    (stroke (width 0) (type default) (color 0 0 0 0))
    (uuid 71aa3829-956e-4ff9-af3f-b06e50ab2b5a)
  )
  (wire (pts (xy 232.41 58.42) (xy 232.41 55.88))
    (stroke (width 0) (type default) (color 0 0 0 0))
    (uuid 799d9f4a-bb6b-44d5-9f4c-3a30db59943d)
  )
  (wire (pts (xy 43.18 127) (xy 48.26 127))
    (stroke (width 0) (type default) (color 0 0 0 0))
    (uuid 80ace02d-cb21-4f08-bc25-572a9e56ff99)
  )
  (wire (pts (xy 81.28 52.07) (xy 81.28 46.99))
    (stroke (width 0) (type default) (color 0 0 0 0))
    (uuid 905b154b-e92b-469d-b2e2-340d67daddb7)
  )
  (wire (pts (xy 177.8 86.36) (xy 186.69 86.36))
    (stroke (width 0) (type default) (color 0 0 0 0))
    (uuid 92574e8a-729f-48de-afcb-97b4f5e826f8)
  )
  (wire (pts (xy 184.15 55.88) (xy 184.15 54.61))
    (stroke (width 0) (type default) (color 0 0 0 0))
    (uuid 9e18f8b3-9e1a-4022-9224-10c12ca8a28d)
  )
  (wire (pts (xy 175.26 93.98) (xy 172.72 93.98))
    (stroke (width 0) (type default) (color 0 0 0 0))
    (uuid a08c061a-7f5b-4909-b673-0d0a59a012a3)
  )
  (wire (pts (xy 73.66 118.11) (xy 48.26 118.11))
    (stroke (width 0) (type default) (color 0 0 0 0))
    (uuid a311f3c6-42e3-4584-9725-4a62ff91b6e3)
  )
  (wire (pts (xy 177.8 88.9) (xy 186.69 88.9))
    (stroke (width 0) (type default) (color 0 0 0 0))
    (uuid b6924901-677d-424a-a3f4-52c8dd1fa5f5)
  )
  (wire (pts (xy 73.66 115.57) (xy 73.66 118.11))
    (stroke (width 0) (type default) (color 0 0 0 0))
    (uuid bcacf97a-a49b-480c-96ed-a857f56faeb2)
  )
  (wire (pts (xy 247.65 55.88) (xy 247.65 57.15))
    (stroke (width 0) (type default) (color 0 0 0 0))
    (uuid c220da05-2a98-47be-9327-0c73c5263c41)
  )
  (wire (pts (xy 91.44 59.69) (xy 91.44 57.15))
    (stroke (width 0) (type default) (color 0 0 0 0))
    (uuid c2211bf7-6ed0-4800-9f21-d6a078bedba2)
  )
  (wire (pts (xy 48.26 118.11) (xy 48.26 127))
    (stroke (width 0) (type default) (color 0 0 0 0))
    (uuid c38f28b6-5bd4-4cf9-b273-1e7b230f6b42)
  )
  (wire (pts (xy 186.69 55.88) (xy 184.15 55.88))
    (stroke (width 0) (type default) (color 0 0 0 0))
    (uuid cd48b13f-c989-4ac1-a7f0-053afcd77527)
  )
  (wire (pts (xy 59.69 36.83) (xy 59.69 35.56))
    (stroke (width 0) (type default) (color 0 0 0 0))
    (uuid d70bfdec-de0f-45e5-9452-2cd5d12b83b9)
  )
  (wire (pts (xy 184.15 68.58) (xy 186.69 68.58))
    (stroke (width 0) (type default) (color 0 0 0 0))
    (uuid d8d71ad3-6fd1-4a98-9c1f-70c4fbf3d1d1)
  )
  (wire (pts (xy 73.66 134.62) (xy 76.2 134.62))
    (stroke (width 0) (type default) (color 0 0 0 0))
    (uuid dd5f7736-b8aa-44f2-a044-e514d63d48f3)
  )
  (wire (pts (xy 237.49 57.15) (xy 237.49 55.88))
    (stroke (width 0) (type default) (color 0 0 0 0))
    (uuid ea7c53f9-3aa8-4198-9879-de95a5257915)
  )
  (wire (pts (xy 50.8 39.37) (xy 81.28 39.37))
    (stroke (width 0) (type default) (color 0 0 0 0))
    (uuid ef3a2f4c-5879-4e98-ad30-6b8614410fba)
  )
  (wire (pts (xy 247.65 55.88) (xy 247.65 54.61))
    (stroke (width 0) (type default) (color 0 0 0 0))
    (uuid ef400389-7e37-4c93-8647-76318089d59f)
  )
  (wire (pts (xy 232.41 113.03) (xy 232.41 111.76))
    (stroke (width 0) (type default) (color 0 0 0 0))
    (uuid fc12372f-6e31-40f9-8043-b00b861f0171)
  )
  (wire (pts (xy 177.8 71.12) (xy 186.69 71.12))
    (stroke (width 0) (type default) (color 0 0 0 0))
    (uuid fe4068b9-89da-4c59-ba51-b5949772f5d8)
  )

  (label "RTS" (at 43.18 127 0)
    (effects (font (size 1.27 1.27)) (justify left bottom))
    (uuid 0a79db37-f1d9-40b1-a24d-8bdfb8f637e2)
  )
  (label "USB_DP" (at 177.8 86.36 0)
    (effects (font (size 1.27 1.27)) (justify left bottom))
    (uuid 2bbd6c26-4114-4518-8f4a-c6fdadc046b6)
  )
  (label "USB_DN" (at 177.8 88.9 0)
    (effects (font (size 1.27 1.27)) (justify left bottom))
    (uuid 4e7a230a-c1a4-4455-81ee-277835acf4a2)
  )
  (label "DTR" (at 177.8 78.74 0)
    (effects (font (size 1.27 1.27)) (justify left bottom))
    (uuid 5cc7655c-62f2-43d2-a7a5-eaa4635dada8)
  )
  (label "USB_DN" (at 50.8 39.37 0)
    (effects (font (size 1.27 1.27)) (justify left bottom))
    (uuid 78a228c9-bbf0-49cf-b917-2dec23b390df)
  )
  (label "RTS" (at 177.8 71.12 0)
    (effects (font (size 1.27 1.27)) (justify left bottom))
    (uuid 8efe6411-1919-4082-b5b8-393585e068c8)
  )
  (label "USB_DP" (at 58.42 41.91 0)
    (effects (font (size 1.27 1.27)) (justify left bottom))
    (uuid b83b087e-7ec9-44e7-a1c9-81d5d26bbf79)
  )
  (label "DTR" (at 43.18 110.49 0)
    (effects (font (size 1.27 1.27)) (justify left bottom))
    (uuid d5c86a84-6c8b-48b5-b583-2fe7052421ab)
  )

  (hierarchical_label "RXD0" (shape input) (at 184.15 68.58 180)
    (effects (font (size 1.27 1.27)) (justify right))
    (uuid 10fa1a8c-62cb-4b8f-b916-b18d737ff71b)
  )
  (hierarchical_label "EN" (shape input) (at 76.2 102.87 0)
    (effects (font (size 1.27 1.27)) (justify left))
    (uuid 750e60a2-e808-4253-8275-b79930fb2714)
  )
  (hierarchical_label "TXD0" (shape input) (at 184.15 66.04 180)
    (effects (font (size 1.27 1.27)) (justify right))
    (uuid e7376da1-2f59-4570-81e8-46fca0289df0)
  )
  (hierarchical_label "I0O" (shape input) (at 76.2 134.62 0)
    (effects (font (size 1.27 1.27)) (justify left))
    (uuid f879c0e8-5893-4eb4-8e59-2292a632100f)
  )

  (symbol (lib_id "roket-rescue:10118194-0001LF-dk_USB-DVI-HDMI-Connectors") (at 88.9 41.91 0) (mirror y) (unit 1)
    (in_bom yes) (on_board yes)
    (uuid 00000000-0000-0000-0000-000060970dfa)
    (property "Reference" "J4" (id 0) (at 94.3356 41.3004 0)
      (effects (font (size 1.524 1.524)) (justify right))
    )
    (property "Value" "10118194-0001LF" (id 1) (at 94.3356 43.9928 0)
      (effects (font (size 1.524 1.524)) (justify right))
    )
    (property "Footprint" "digikey-footprints:USB_Micro_B_Female_10118194-0001LF" (id 2) (at 83.82 36.83 0)
      (effects (font (size 1.524 1.524)) (justify left) hide)
    )
    (property "Datasheet" "http://www.amphenol-icc.com/media/wysiwyg/files/drawing/10118194.pdf" (id 3) (at 83.82 34.29 0)
      (effects (font (size 1.524 1.524)) (justify left) hide)
    )
    (property "Digi-Key_PN" "609-4618-1-ND" (id 4) (at 83.82 31.75 0)
      (effects (font (size 1.524 1.524)) (justify left) hide)
    )
    (property "MPN" "10118194-0001LF" (id 5) (at 83.82 29.21 0)
      (effects (font (size 1.524 1.524)) (justify left) hide)
    )
    (property "Category" "Connectors, Interconnects" (id 6) (at 83.82 26.67 0)
      (effects (font (size 1.524 1.524)) (justify left) hide)
    )
    (property "Family" "USB, DVI, HDMI Connectors" (id 7) (at 83.82 24.13 0)
      (effects (font (size 1.524 1.524)) (justify left) hide)
    )
    (property "DK_Datasheet_Link" "http://www.amphenol-icc.com/media/wysiwyg/files/drawing/10118194.pdf" (id 8) (at 83.82 21.59 0)
      (effects (font (size 1.524 1.524)) (justify left) hide)
    )
    (property "DK_Detail_Page" "/product-detail/en/amphenol-icc-fci/10118194-0001LF/609-4618-1-ND/2785382" (id 9) (at 83.82 19.05 0)
      (effects (font (size 1.524 1.524)) (justify left) hide)
    )
    (property "Description" "CONN RCPT USB2.0 MICRO B SMD R/A" (id 10) (at 83.82 16.51 0)
      (effects (font (size 1.524 1.524)) (justify left) hide)
    )
    (property "Manufacturer" "Amphenol ICC (FCI)" (id 11) (at 83.82 13.97 0)
      (effects (font (size 1.524 1.524)) (justify left) hide)
    )
    (property "Status" "Active" (id 12) (at 83.82 11.43 0)
      (effects (font (size 1.524 1.524)) (justify left) hide)
    )
    (pin "1" (uuid cd9dbe8a-6e02-485e-bb92-264485524ca1))
    (pin "2" (uuid 514d1196-0c67-46cf-9eec-193cce1f7130))
    (pin "3" (uuid c6e2f247-9f07-4f80-92a6-e59059de4803))
    (pin "4" (uuid df914a73-3e24-469e-9949-34d8f15b09ab))
    (pin "5" (uuid d1a87309-7ed7-463d-82ac-113232561416))
    (pin "SH" (uuid 4cf97505-0f47-4ffc-abc6-089087ea1ced))
  )

  (symbol (lib_id "power:GND") (at 91.44 59.69 0) (unit 1)
    (in_bom yes) (on_board yes)
    (uuid 00000000-0000-0000-0000-000060987d11)
    (property "Reference" "#PWR056" (id 0) (at 91.44 66.04 0)
      (effects (font (size 1.27 1.27)) hide)
    )
    (property "Value" "GND" (id 1) (at 91.567 64.0842 0))
    (property "Footprint" "" (id 2) (at 91.44 59.69 0)
      (effects (font (size 1.27 1.27)) hide)
    )
    (property "Datasheet" "" (id 3) (at 91.44 59.69 0)
      (effects (font (size 1.27 1.27)) hide)
    )
    (pin "1" (uuid 258de434-d2cc-4a44-b904-8aface1fef16))
  )

  (symbol (lib_id "roket-rescue:CP2102N-A01-GQFN28-CP2102N-A01-GQFN28") (at 209.55 83.82 0) (unit 1)
    (in_bom yes) (on_board yes)
    (uuid 00000000-0000-0000-0000-000060a1778d)
    (property "Reference" "U7" (id 0) (at 209.55 49.0982 0))
    (property "Value" "CP2102N-A01-GQFN28" (id 1) (at 209.55 51.4096 0))
    (property "Footprint" "Package_DFN_QFN:QFN-28-1EP_5x5mm_P0.5mm_EP3.35x3.35mm" (id 2) (at 209.55 83.82 0)
      (effects (font (size 1.27 1.27)) (justify left bottom) hide)
    )
    (property "Datasheet" "" (id 3) (at 209.55 83.82 0)
      (effects (font (size 1.27 1.27)) (justify left bottom) hide)
    )
    (property "MAXIMUM_PACKAGE_HEIGHT" "0.8mm" (id 4) (at 209.55 83.82 0)
      (effects (font (size 1.27 1.27)) (justify left bottom) hide)
    )
    (property "STANDARD" "IPC 7351B" (id 5) (at 209.55 83.82 0)
      (effects (font (size 1.27 1.27)) (justify left bottom) hide)
    )
    (property "PARTREV" "1.0" (id 6) (at 209.55 83.82 0)
      (effects (font (size 1.27 1.27)) (justify left bottom) hide)
    )
    (property "MANUFACTURER" "SILICON LABS" (id 7) (at 209.55 83.82 0)
      (effects (font (size 1.27 1.27)) (justify left bottom) hide)
    )
    (pin "1" (uuid 7404db6f-dfb4-4520-9dff-d20b2b8f14a4))
    (pin "10" (uuid d65c63a0-aec9-40cb-ad54-89174cfd85c2))
    (pin "11" (uuid 2f427193-2544-4449-857d-6ca8e9328ffa))
    (pin "12" (uuid 2134ed84-848d-4500-99c0-e211d8bc59e3))
    (pin "13" (uuid 899023e0-9318-4936-bcc3-7754bbd09277))
    (pin "14" (uuid 1f11b6f3-f263-4946-8266-e5e879b69444))
    (pin "15" (uuid bc3ef0f4-d764-419d-8573-993d31d31445))
    (pin "16" (uuid 88e3af35-e975-415d-96f3-bb80150de8bc))
    (pin "17" (uuid e9c8d488-a794-41de-9313-bc0b4d79fad7))
    (pin "18" (uuid f576930a-1a32-473f-911e-6ac354b950e6))
    (pin "19" (uuid 252cda77-0297-4658-be81-0daea8195b13))
    (pin "2" (uuid 8927b998-6b2b-4fad-8d9c-60878d6c0af4))
    (pin "20" (uuid ffbbd9f4-db4c-4fe2-bf23-756745154ba6))
    (pin "21" (uuid a16f80ce-37a2-43b6-9ac0-7eff090aad45))
    (pin "22" (uuid 5f3933a0-fd0a-4f4b-80bc-1440580167ec))
    (pin "23" (uuid 819077df-6fcf-48b2-9b72-760ea01c6b9d))
    (pin "24" (uuid a22ef832-33fc-4544-9dac-b6ed3c7ca675))
    (pin "25" (uuid e7b1a473-dadf-489b-a0f8-58c84c047f98))
    (pin "26" (uuid 88b32a43-2aa8-4784-ba7a-1ffdefcc0b42))
    (pin "27" (uuid ca4eb899-5545-4f19-9fd0-836b2d42f0d7))
    (pin "28" (uuid cff959ef-5785-4f2d-a014-be5db0e700c0))
    (pin "29" (uuid 9cb0f695-454a-4046-9846-c42d023b5e2f))
    (pin "3" (uuid 66ce5299-8a41-4f6e-948e-e38e891630ce))
    (pin "4" (uuid c7acff94-fdb0-4bf1-9359-5e596b70c0ae))
    (pin "5" (uuid 03748331-c066-4d57-aa54-2f8ca06e3f46))
    (pin "6" (uuid 9e7261cc-a4c8-4301-8211-695eb9c7446d))
    (pin "7" (uuid 732cb27a-cda2-4dbd-af9a-c7e37be31c19))
    (pin "8" (uuid c33a04d4-163b-490d-ac2d-ccde42f2ae64))
    (pin "9" (uuid 13d18af2-1683-4672-bc69-cd47930e9e72))
  )

  (symbol (lib_id "roket-rescue:SS8050-G-SS8050-G") (at 71.12 110.49 0) (unit 1)
    (in_bom yes) (on_board yes)
    (uuid 00000000-0000-0000-0000-000060a18e8c)
    (property "Reference" "Q3" (id 0) (at 74.7776 109.3216 0)
      (effects (font (size 1.27 1.27)) (justify left))
    )
    (property "Value" "SS8050-G" (id 1) (at 74.7776 111.633 0)
      (effects (font (size 1.27 1.27)) (justify left))
    )
    (property "Footprint" "digikey-footprints:SOT-23-3" (id 2) (at 71.12 110.49 0)
      (effects (font (size 1.27 1.27)) (justify left bottom) hide)
    )
    (property "Datasheet" "" (id 3) (at 71.12 110.49 0)
      (effects (font (size 1.27 1.27)) (justify left bottom) hide)
    )
    (property "STANDARD" "IPC 7351B" (id 4) (at 71.12 110.49 0)
      (effects (font (size 1.27 1.27)) (justify left bottom) hide)
    )
    (property "PARTREV" "7" (id 5) (at 71.12 110.49 0)
      (effects (font (size 1.27 1.27)) (justify left bottom) hide)
    )
    (property "MAXIMUM_PACKAGE_HEIGHT" "1.1 mm" (id 6) (at 71.12 110.49 0)
      (effects (font (size 1.27 1.27)) (justify left bottom) hide)
    )
    (property "MANUFACTURER" "Nexperia" (id 7) (at 71.12 110.49 0)
      (effects (font (size 1.27 1.27)) (justify left bottom) hide)
    )
    (pin "1" (uuid fd17b531-df9d-42e3-8f77-6b00b931f015))
    (pin "2" (uuid f1dbc5df-b393-4115-8517-40dcc9e91ecf))
    (pin "3" (uuid 83453e05-b539-45a3-8b31-e4019df6a03b))
  )

  (symbol (lib_id "roket-rescue:SS8050-G-SS8050-G") (at 71.12 127 0) (mirror x) (unit 1)
    (in_bom yes) (on_board yes)
    (uuid 00000000-0000-0000-0000-000060a195e8)
    (property "Reference" "Q4" (id 0) (at 74.7776 125.8316 0)
      (effects (font (size 1.27 1.27)) (justify left))
    )
    (property "Value" "SS8050-G" (id 1) (at 74.7776 128.143 0)
      (effects (font (size 1.27 1.27)) (justify left))
    )
    (property "Footprint" "digikey-footprints:SOT-23-3" (id 2) (at 71.12 127 0)
      (effects (font (size 1.27 1.27)) (justify left bottom) hide)
    )
    (property "Datasheet" "" (id 3) (at 71.12 127 0)
      (effects (font (size 1.27 1.27)) (justify left bottom) hide)
    )
    (property "STANDARD" "IPC 7351B" (id 4) (at 71.12 127 0)
      (effects (font (size 1.27 1.27)) (justify left bottom) hide)
    )
    (property "PARTREV" "7" (id 5) (at 71.12 127 0)
      (effects (font (size 1.27 1.27)) (justify left bottom) hide)
    )
    (property "MAXIMUM_PACKAGE_HEIGHT" "1.1 mm" (id 6) (at 71.12 127 0)
      (effects (font (size 1.27 1.27)) (justify left bottom) hide)
    )
    (property "MANUFACTURER" "Nexperia" (id 7) (at 71.12 127 0)
      (effects (font (size 1.27 1.27)) (justify left bottom) hide)
    )
    (pin "1" (uuid 28f56bd3-9283-48fb-83c0-7e3c278ab060))
    (pin "2" (uuid bfcd0536-6978-4c54-8935-7ecc7b6a0b86))
    (pin "3" (uuid e0f21f4e-b518-4935-9749-606087d4a884))
  )

  (symbol (lib_id "roket-rescue:Cap-805_cap") (at 237.49 59.69 270) (unit 1)
    (in_bom yes) (on_board yes)
    (uuid 00000000-0000-0000-0000-000060a221d8)
    (property "Reference" "C16" (id 0) (at 240.1062 59.7916 90)
      (effects (font (size 1.27 1.27)) (justify left))
    )
    (property "Value" "0.1uF" (id 1) (at 240.1062 62.103 90)
      (effects (font (size 1.27 1.27)) (justify left))
    )
    (property "Footprint" "Capacitor_SMD:C_0805_2012Metric" (id 2) (at 237.49 59.69 0)
      (effects (font (size 1.27 1.27)) (justify left bottom) hide)
    )
    (property "Datasheet" "" (id 3) (at 237.49 59.69 0)
      (effects (font (size 1.27 1.27)) (justify left bottom) hide)
    )
    (pin "1" (uuid 7657c0e2-b07d-42b9-81ed-d40564fcfa90))
    (pin "2" (uuid e34bb9aa-a28d-4170-8b79-d1b7aa73c851))
  )

  (symbol (lib_id "power:GND") (at 237.49 66.04 0) (unit 1)
    (in_bom yes) (on_board yes)
    (uuid 00000000-0000-0000-0000-000060a221de)
    (property "Reference" "#PWR060" (id 0) (at 237.49 72.39 0)
      (effects (font (size 1.27 1.27)) hide)
    )
    (property "Value" "GND" (id 1) (at 237.617 70.4342 0))
    (property "Footprint" "" (id 2) (at 237.49 66.04 0)
      (effects (font (size 1.27 1.27)) hide)
    )
    (property "Datasheet" "" (id 3) (at 237.49 66.04 0)
      (effects (font (size 1.27 1.27)) hide)
    )
    (pin "1" (uuid 9c70c8b1-381b-4c5b-98fe-19bf2e6154a4))
  )

  (symbol (lib_id "roket-rescue:Cap-805_cap") (at 247.65 59.69 270) (unit 1)
    (in_bom yes) (on_board yes)
    (uuid 00000000-0000-0000-0000-000060a22482)
    (property "Reference" "C17" (id 0) (at 250.2662 59.7916 90)
      (effects (font (size 1.27 1.27)) (justify left))
    )
    (property "Value" "4.7uF" (id 1) (at 250.2662 62.103 90)
      (effects (font (size 1.27 1.27)) (justify left))
    )
    (property "Footprint" "Capacitor_SMD:C_0805_2012Metric" (id 2) (at 247.65 59.69 0)
      (effects (font (size 1.27 1.27)) (justify left bottom) hide)
    )
    (property "Datasheet" "" (id 3) (at 247.65 59.69 0)
      (effects (font (size 1.27 1.27)) (justify left bottom) hide)
    )
    (pin "1" (uuid 6b8d8796-1d93-4e72-95b3-0f9d0c445516))
    (pin "2" (uuid c31973ca-eb40-463b-8989-2eb6cc34d55e))
  )

  (symbol (lib_id "power:GND") (at 247.65 66.04 0) (unit 1)
    (in_bom yes) (on_board yes)
    (uuid 00000000-0000-0000-0000-000060a22488)
    (property "Reference" "#PWR061" (id 0) (at 247.65 72.39 0)
      (effects (font (size 1.27 1.27)) hide)
    )
    (property "Value" "GND" (id 1) (at 247.777 70.4342 0))
    (property "Footprint" "" (id 2) (at 247.65 66.04 0)
      (effects (font (size 1.27 1.27)) hide)
    )
    (property "Datasheet" "" (id 3) (at 247.65 66.04 0)
      (effects (font (size 1.27 1.27)) hide)
    )
    (pin "1" (uuid 1d3d8e66-ef08-4709-96dd-791c654c3b96))
  )

  (symbol (lib_id "Device:R_US") (at 58.42 110.49 90) (unit 1)
    (in_bom yes) (on_board yes)
    (uuid 00000000-0000-0000-0000-000060a22d31)
    (property "Reference" "R23" (id 0) (at 57.2516 108.7628 90)
      (effects (font (size 1.27 1.27)) (justify left))
    )
    (property "Value" "10K" (id 1) (at 59.563 108.7628 90)
      (effects (font (size 1.27 1.27)) (justify right))
    )
    (property "Footprint" "Resistor_SMD:R_0805_2012Metric" (id 2) (at 58.674 109.474 90)
      (effects (font (size 1.27 1.27)) hide)
    )
    (property "Datasheet" "~" (id 3) (at 58.42 110.49 0)
      (effects (font (size 1.27 1.27)) hide)
    )
    (pin "1" (uuid 7b1c3ce2-19ed-4193-a707-747b919e6b12))
    (pin "2" (uuid 74773e57-ce2a-4420-b5af-ba52c5ad2f54))
  )

  (symbol (lib_id "Device:R_US") (at 58.42 127 90) (unit 1)
    (in_bom yes) (on_board yes)
    (uuid 00000000-0000-0000-0000-000060a22ea8)
    (property "Reference" "R24" (id 0) (at 57.2516 125.2728 90)
      (effects (font (size 1.27 1.27)) (justify left))
    )
    (property "Value" "10K" (id 1) (at 59.563 125.2728 90)
      (effects (font (size 1.27 1.27)) (justify right))
    )
    (property "Footprint" "Resistor_SMD:R_0805_2012Metric" (id 2) (at 58.674 125.984 90)
      (effects (font (size 1.27 1.27)) hide)
    )
    (property "Datasheet" "~" (id 3) (at 58.42 127 0)
      (effects (font (size 1.27 1.27)) hide)
    )
    (pin "1" (uuid 1f70f301-365b-4bf3-883c-59357e017501))
    (pin "2" (uuid 5d3109c3-af88-4052-91c9-ebca37e2bef0))
  )

  (symbol (lib_id "power:+3.3V") (at 247.65 54.61 0) (unit 1)
    (in_bom yes) (on_board yes)
    (uuid 00000000-0000-0000-0000-000060a245b3)
    (property "Reference" "#PWR055" (id 0) (at 247.65 58.42 0)
      (effects (font (size 1.27 1.27)) hide)
    )
    (property "Value" "+3.3V" (id 1) (at 248.031 50.2158 0))
    (property "Footprint" "" (id 2) (at 247.65 54.61 0)
      (effects (font (size 1.27 1.27)) hide)
    )
    (property "Datasheet" "" (id 3) (at 247.65 54.61 0)
      (effects (font (size 1.27 1.27)) hide)
    )
    (pin "1" (uuid d388381d-ed56-46fa-ba7a-a5ee7d263499))
  )

  (symbol (lib_id "power:GND") (at 81.28 52.07 0) (unit 1)
    (in_bom yes) (on_board yes)
    (uuid 00000000-0000-0000-0000-000060a407f6)
    (property "Reference" "#PWR053" (id 0) (at 81.28 58.42 0)
      (effects (font (size 1.27 1.27)) hide)
    )
    (property "Value" "GND" (id 1) (at 81.407 56.4642 0))
    (property "Footprint" "" (id 2) (at 81.28 52.07 0)
      (effects (font (size 1.27 1.27)) hide)
    )
    (property "Datasheet" "" (id 3) (at 81.28 52.07 0)
      (effects (font (size 1.27 1.27)) hide)
    )
    (pin "1" (uuid b524fcce-6249-4832-8c9c-5204020031c6))
  )

  (symbol (lib_id "power:GND") (at 232.41 113.03 0) (unit 1)
    (in_bom yes) (on_board yes)
    (uuid 00000000-0000-0000-0000-000060a4273f)
    (property "Reference" "#PWR063" (id 0) (at 232.41 119.38 0)
      (effects (font (size 1.27 1.27)) hide)
    )
    (property "Value" "GND" (id 1) (at 232.537 117.4242 0))
    (property "Footprint" "" (id 2) (at 232.41 113.03 0)
      (effects (font (size 1.27 1.27)) hide)
    )
    (property "Datasheet" "" (id 3) (at 232.41 113.03 0)
      (effects (font (size 1.27 1.27)) hide)
    )
    (pin "1" (uuid 76db76de-12e8-4e99-ae11-5bd1eb7b8b1d))
  )

  (symbol (lib_id "Device:R_US") (at 179.07 93.98 90) (unit 1)
    (in_bom yes) (on_board yes)
    (uuid 00000000-0000-0000-0000-000060a43ee1)
    (property "Reference" "R22" (id 0) (at 177.9016 92.2528 90)
      (effects (font (size 1.27 1.27)) (justify left))
    )
    (property "Value" "2K" (id 1) (at 180.213 92.2528 90)
      (effects (font (size 1.27 1.27)) (justify right))
    )
    (property "Footprint" "Resistor_SMD:R_0805_2012Metric" (id 2) (at 179.324 92.964 90)
      (effects (font (size 1.27 1.27)) hide)
    )
    (property "Datasheet" "~" (id 3) (at 179.07 93.98 0)
      (effects (font (size 1.27 1.27)) hide)
    )
    (pin "1" (uuid 25c45ca5-9097-42c4-b962-73a092e2b3cb))
    (pin "2" (uuid f2696238-b20d-42ae-b34e-648dd850ce7b))
  )

  (symbol (lib_id "power:+3.3V") (at 172.72 93.98 0) (unit 1)
    (in_bom yes) (on_board yes)
    (uuid 00000000-0000-0000-0000-000060a44d30)
    (property "Reference" "#PWR062" (id 0) (at 172.72 97.79 0)
      (effects (font (size 1.27 1.27)) hide)
    )
    (property "Value" "+3.3V" (id 1) (at 173.101 89.5858 0))
    (property "Footprint" "" (id 2) (at 172.72 93.98 0)
      (effects (font (size 1.27 1.27)) hide)
    )
    (property "Datasheet" "" (id 3) (at 172.72 93.98 0)
      (effects (font (size 1.27 1.27)) hide)
    )
    (pin "1" (uuid 588b280c-c3d0-4af4-8894-4226129e1f82))
  )

  (symbol (lib_id "power:+3.3V") (at 184.15 54.61 0) (unit 1)
    (in_bom yes) (on_board yes)
    (uuid 00000000-0000-0000-0000-000061429282)
    (property "Reference" "#PWR054" (id 0) (at 184.15 58.42 0)
      (effects (font (size 1.27 1.27)) hide)
    )
    (property "Value" "+3.3V" (id 1) (at 184.531 50.2158 0))
    (property "Footprint" "" (id 2) (at 184.15 54.61 0)
      (effects (font (size 1.27 1.27)) hide)
    )
    (property "Datasheet" "" (id 3) (at 184.15 54.61 0)
      (effects (font (size 1.27 1.27)) hide)
    )
    (pin "1" (uuid 3038ca17-9333-4585-a90a-dffc02ecdfc2))
  )

  (symbol (lib_id "power:VCC") (at 59.69 35.56 0) (unit 1)
    (in_bom yes) (on_board yes)
    (uuid 00000000-0000-0000-0000-0000617d28c8)
    (property "Reference" "#PWR052" (id 0) (at 59.69 39.37 0)
      (effects (font (size 1.27 1.27)) hide)
    )
    (property "Value" "VCC" (id 1) (at 60.071 31.1658 0))
    (property "Footprint" "" (id 2) (at 59.69 35.56 0)
      (effects (font (size 1.27 1.27)) hide)
    )
    (property "Datasheet" "" (id 3) (at 59.69 35.56 0)
      (effects (font (size 1.27 1.27)) hide)
    )
    (pin "1" (uuid f00a234f-0cbe-4c47-b1db-c5205f5a2df7))
  )

  (symbol (lib_id "dk_Diodes-Rectifiers-Single:SS14") (at 64.77 36.83 0) (unit 1)
    (in_bom yes) (on_board yes) (fields_autoplaced)
    (uuid d6669ff8-4835-4a73-9f5d-55f70ffee610)
    (property "Reference" "D5" (id 0) (at 66.04 31.7205 0))
    (property "Value" "SS14" (id 1) (at 66.04 34.4956 0))
    (property "Footprint" "digikey-footprints:DO-214AC" (id 2) (at 69.85 31.75 0)
      (effects (font (size 1.524 1.524)) (justify left) hide)
    )
    (property "Datasheet" "https://www.onsemi.com/pub/Collateral/SS19-D.PDF" (id 3) (at 69.85 29.21 0)
      (effects (font (size 1.524 1.524)) (justify left) hide)
    )
    (property "Digi-Key_PN" "SS14CT-ND" (id 4) (at 69.85 26.67 0)
      (effects (font (size 1.524 1.524)) (justify left) hide)
    )
    (property "MPN" "SS14" (id 5) (at 69.85 24.13 0)
      (effects (font (size 1.524 1.524)) (justify left) hide)
    )
    (property "Category" "Discrete Semiconductor Products" (id 6) (at 69.85 21.59 0)
      (effects (font (size 1.524 1.524)) (justify left) hide)
    )
    (property "Family" "Diodes - Rectifiers - Single" (id 7) (at 69.85 19.05 0)
      (effects (font (size 1.524 1.524)) (justify left) hide)
    )
    (property "DK_Datasheet_Link" "https://www.onsemi.com/pub/Collateral/SS19-D.PDF" (id 8) (at 69.85 16.51 0)
      (effects (font (size 1.524 1.524)) (justify left) hide)
    )
    (property "DK_Detail_Page" "/product-detail/en/on-semiconductor/SS14/SS14CT-ND/965729" (id 9) (at 69.85 13.97 0)
      (effects (font (size 1.524 1.524)) (justify left) hide)
    )
    (property "Description" "DIODE SCHOTTKY 40V 1A SMA" (id 10) (at 69.85 11.43 0)
      (effects (font (size 1.524 1.524)) (justify left) hide)
    )
    (property "Manufacturer" "ON Semiconductor" (id 11) (at 69.85 8.89 0)
      (effects (font (size 1.524 1.524)) (justify left) hide)
    )
    (property "Status" "Active" (id 12) (at 69.85 6.35 0)
      (effects (font (size 1.524 1.524)) (justify left) hide)
    )
    (pin "A" (uuid 186a2f50-1b62-464f-b58f-ae5602581c6d))
    (pin "K" (uuid 4de3c917-9c15-4cd5-ae85-b51d17a77c64))
  )
)
