M48
INCH,TZ
T1C0.0157
T2C0.0197
T3C0.0217
T4C0.0512
%
G90
G05
T1
X11299Y-21378
X11299Y-31772
X11299Y-42165
X11575Y-17756
X11575Y-18543
X11575Y-19331
X11575Y-20118
X11575Y-20906
X11575Y-28150
X11575Y-28937
X11575Y-29724
X11575Y-30512
X11575Y-31299
X11575Y-38543
X11575Y-39331
X11575Y-40118
X11575Y-40906
X11575Y-41693
X11851Y-22402
X11851Y-32795
X11851Y-43189
X12284Y-17008
X12284Y-27402
X12284Y-37795
X12402Y-17756
X12402Y-18543
X12402Y-19331
X12402Y-20118
X12402Y-20906
X12402Y-21614
X12402Y-28150
X12402Y-28937
X12402Y-29724
X12402Y-30512
X12402Y-31299
X12402Y-32008
X12402Y-38543
X12402Y-39331
X12402Y-40118
X12402Y-40906
X12402Y-41693
X12402Y-42402
X12696Y-23661
X12696Y-34055
X12696Y-44449
X12795Y-22283
X12795Y-32677
X12795Y-43071
X12807Y-24173
X12807Y-34567
X12807Y-44961
X13228Y-17756
X13228Y-18543
X13228Y-19331
X13228Y-20118
X13228Y-20906
X13228Y-28150
X13228Y-28937
X13228Y-29724
X13228Y-30512
X13228Y-31299
X13228Y-38543
X13228Y-39331
X13228Y-40118
X13228Y-40906
X13228Y-41693
X13515Y-15452
X13515Y-25846
X13515Y-36239
X13583Y-23661
X13583Y-34055
X13583Y-44449
X13764Y-17293
X13764Y-27687
X13764Y-38081
X13898Y-18543
X13898Y-19331
X13898Y-20118
X13898Y-20906
X13898Y-21929
X13898Y-28937
X13898Y-29724
X13898Y-30512
X13898Y-31299
X13898Y-32323
X13898Y-39331
X13898Y-40118
X13898Y-40906
X13898Y-41693
X13898Y-42717
X14291Y-22362
X14291Y-32756
X14291Y-43150
X14319Y-17578
X14319Y-27972
X14319Y-38366
X14449Y-23946
X14449Y-34340
X14449Y-44734
X14505Y-15713
X14505Y-26107
X14505Y-36500
X14606Y-20906
X14606Y-31299
X14606Y-41693
X14676Y-18606
X14676Y-29000
X14676Y-39394
X14801Y-17974
X14801Y-28368
X14801Y-38762
X15122Y-24228
X15122Y-34622
X15122Y-45016
X15276Y-20945
X15276Y-31339
X15276Y-41732
X15512Y-22008
X15512Y-32402
X15512Y-42795
X15866Y-18071
X15866Y-18819
X15866Y-19291
X15866Y-28465
X15866Y-29213
X15866Y-29685
X15866Y-38858
X15866Y-39606
X15866Y-40079
X16221Y-22008
X16221Y-32402
X16221Y-42795
X16299Y-17047
X16299Y-27441
X16299Y-37835
X16851Y-17559
X16851Y-27953
X16851Y-38346
X17441Y-18701
X17441Y-29094
X17441Y-39488
X17953Y-19528
X17953Y-29921
X17953Y-40315
X17963Y-16033
X17963Y-26427
X17963Y-36821
X18032Y-18701
X18032Y-29094
X18032Y-39488
X18307Y-22520
X18307Y-32913
X18307Y-43307
X18347Y-17953
X18347Y-28346
X18347Y-38740
X19961Y-18420
X19961Y-28814
X19961Y-39208
X20315Y-17096
X20315Y-27490
X20315Y-37884
X20704Y-18932
X20704Y-29326
X20704Y-39720
X20762Y-17259
X20762Y-27652
X20762Y-38046
X20945Y-20453
X20945Y-30847
X20945Y-41240
X21213Y-20985
X21213Y-31379
X21213Y-41772
X21339Y-23547
X21339Y-33941
X21339Y-44334
X21340Y-23153
X21340Y-33547
X21340Y-43941
X21583Y-21119
X21583Y-31513
X21583Y-41907
X21590Y-22296
X21590Y-32690
X21590Y-43083
X21666Y-22933
X21666Y-33327
X21666Y-43720
X22284Y-15591
X22284Y-25984
X22284Y-36378
X22615Y-21882
X22615Y-32276
X22615Y-42670
X23347Y-18937
X23347Y-29331
X23347Y-39724
X23583Y-21329
X23583Y-31723
X23583Y-42116
X23584Y-21906
X23584Y-32299
X23584Y-42693
X23662Y-18937
X23662Y-29331
X23662Y-39724
X23780Y-20945
X23780Y-31339
X23780Y-41732
X23937Y-17362
X23937Y-19843
X23937Y-27756
X23937Y-30236
X23937Y-38150
X23937Y-40630
X24410Y-17362
X24410Y-27756
X24410Y-38150
X24528Y-18976
X24528Y-29370
X24528Y-39764
X24567Y-15709
X24567Y-26102
X24567Y-36496
X24803Y-17362
X24803Y-27756
X24803Y-38150
X25276Y-17362
X25276Y-27756
X25276Y-38150
X25315Y-18976
X25315Y-29370
X25315Y-39764
X25502Y-21762
X25502Y-32156
X25502Y-42549
X25512Y-17008
X25512Y-27402
X25512Y-37795
X25551Y-15197
X25551Y-15591
X25551Y-15984
X25551Y-25591
X25551Y-25984
X25551Y-26378
X25551Y-35984
X25551Y-36378
X25551Y-36772
X26287Y-20084
X26287Y-30477
X26287Y-40871
X26359Y-18593
X26359Y-28986
X26359Y-39380
X27038Y-15650
X27038Y-26043
X27038Y-36437
X27047Y-23937
X27047Y-34331
X27047Y-44724
X29299Y-17799
X29299Y-28193
X29299Y-38587
X29478Y-21609
X29478Y-32003
X29478Y-42397
X29685Y-18898
X29685Y-19423
X29685Y-19948
X29685Y-20472
X29685Y-29291
X29685Y-29816
X29685Y-30341
X29685Y-30866
X29685Y-39685
X29685Y-40210
X29685Y-40735
X29685Y-41260
X30276Y-18898
X30276Y-19423
X30276Y-19948
X30276Y-20472
X30276Y-29291
X30276Y-29816
X30276Y-30341
X30276Y-30866
X30276Y-39685
X30276Y-40210
X30276Y-40735
X30276Y-41260
T4
X27756Y-16929
X27756Y-18307
X27756Y-19685
X27756Y-21063
X27756Y-22441
X27756Y-27323
X27756Y-28701
X27756Y-30079
X27756Y-31457
X27756Y-32835
X27756Y-37717
X27756Y-39094
X27756Y-40472
X27756Y-41850
X27756Y-43228
T2
G00X22480Y-23307
M15
G01X22480Y-23563
M16
G05
G00X22480Y-33701
M15
G01X22480Y-33957
M16
G05
G00X22480Y-44094
M15
G01X22480Y-44350
M16
G05
G00X25236Y-23307
M15
G01X25236Y-23563
M16
G05
G00X25236Y-33701
M15
G01X25236Y-33957
M16
G05
G00X25236Y-44094
M15
G01X25236Y-44350
M16
G05
T3
G00X22815Y-22372
M15
G01X22933Y-22372
M16
G05
G00X22815Y-32766
M15
G01X22933Y-32766
M16
G05
G00X22815Y-43159
M15
G01X22933Y-43159
M16
G05
G00X24784Y-22372
M15
G01X24902Y-22372
M16
G05
G00X24784Y-32766
M15
G01X24902Y-32766
M16
G05
G00X24784Y-43159
M15
G01X24902Y-43159
M16
G05
T0
M30
