M48
INCH,TZ
T1C0.0197
T2C0.1260
%
G90
G05
T1
X45197Y-22815
X45197Y-23524
X45394Y-45906
X45394Y-46614
X45394Y-58484
X45394Y-59193
X45591Y-22815
X45591Y-23524
X45591Y-33327
X45591Y-34035
X45787Y-45906
X45787Y-46614
X45787Y-58484
X45787Y-59193
X45984Y-22815
X45984Y-23524
X45984Y-33327
X45984Y-34035
X46181Y-45906
X46181Y-46614
X46181Y-58484
X46181Y-59193
X46378Y-33327
X46378Y-34035
X57264Y-22815
X57264Y-23524
X57657Y-22815
X57657Y-23524
X58051Y-22815
X58051Y-23524
X59252Y-33327
X59252Y-34035
X59646Y-33327
X59646Y-34035
X60039Y-33327
X60039Y-34035
X64980Y-45906
X64980Y-46614
X64980Y-58484
X64980Y-59193
X65374Y-45906
X65374Y-46614
X65374Y-58484
X65374Y-59193
X65768Y-45906
X65768Y-46614
X65768Y-58484
X65768Y-59193
X68662Y-27319
X68662Y-28028
X69009Y-22791
X69009Y-23500
X69056Y-27319
X69056Y-28028
X69402Y-22791
X69402Y-23500
X69450Y-27319
X69450Y-28028
X69796Y-22791
X69796Y-23500
X72343Y-29764
X72343Y-30157
X72343Y-30551
X73051Y-29764
X73051Y-30157
X73051Y-30551
T2
X50850Y-35390
X50850Y-44563
X50852Y-47969
X50852Y-57142
X51024Y-24843
X51024Y-32008
X62126Y-24843
X62126Y-32008
X71172Y-35390
X71172Y-44563
X71175Y-47969
X71175Y-57142
T0
M30
